number,value,datetime_start,datetime_complete,duration,params_batch_size,params_hidden_size,params_lr,params_num_layers,state
0,0.0,2020-08-08 21:24:09.989877,2020-08-08 21:24:32.169120,0 days 00:00:22.179243000,1216.0,60.0,3.091878923141891e-10,1.0,COMPLETE
1,65.12794781736076,2020-08-08 21:24:32.204633,2020-08-08 21:25:22.019376,0 days 00:00:49.814743000,1344.0,30.0,3.420146892240876e-08,1.0,COMPLETE
2,0.09581985866570847,2020-08-08 21:25:22.048896,2020-08-08 21:25:37.948004,0 days 00:00:15.899108000,1664.0,20.0,8.07350823933127e-06,1.0,COMPLETE
3,52.3319959879639,2020-08-08 21:25:37.969003,2020-08-08 21:25:52.327667,0 days 00:00:14.358664000,1792.0,29.0,2.300924387608114e-07,1.0,COMPLETE
4,0.0,2020-08-08 21:25:52.355181,2020-08-08 21:26:09.384436,0 days 00:00:17.029255000,1216.0,43.0,1.0787603253157841e-05,1.0,COMPLETE
5,65.20773344302756,2020-08-08 21:26:09.406436,2020-08-08 21:26:53.113534,0 days 00:00:43.707098000,2048.0,27.0,1.1327521216093641e-10,1.0,COMPLETE
6,65.17967781908303,2020-08-08 21:26:53.143050,2020-08-08 21:27:55.341385,0 days 00:01:02.198335000,1024.0,32.0,2.6004949543478773e-06,1.0,COMPLETE
7,66.3314978852446,2020-08-08 21:27:55.368898,2020-08-08 21:28:22.092757,0 days 00:00:26.723859000,1024.0,55.0,3.0873312769486485e-07,1.0,COMPLETE
8,1.9181113980081148,2020-08-08 21:28:22.126273,2020-08-08 21:29:44.636987,0 days 00:01:22.510714000,1856.0,20.0,1.3317037368976477e-06,1.0,COMPLETE
9,76.4228672835594,2020-08-08 21:29:44.666499,2020-08-08 21:30:43.830032,0 days 00:00:59.163533000,1600.0,43.0,8.091294207746696e-06,1.0,COMPLETE
10,85.50492328829861,2020-08-08 21:30:43.860544,2020-08-08 21:31:41.298389,0 days 00:00:57.437845000,1472.0,48.0,0.007266615909268936,1.0,COMPLETE
11,87.82969764313702,2020-08-08 21:31:41.323390,2020-08-08 21:33:08.232428,0 days 00:01:26.909038000,1472.0,47.0,0.003993264328511682,1.0,COMPLETE
12,88.17153067301966,2020-08-08 21:33:08.262943,2020-08-08 21:34:00.314098,0 days 00:00:52.051155000,1408.0,51.0,0.006716519656408674,1.0,COMPLETE
13,,2020-08-08 21:34:00.368097,,,,,,,RUNNING
14,90.41349898015947,2020-08-09 00:50:13.556331,2020-08-09 00:51:07.335829,0 days 00:00:53.779498000,1408.0,52.0,0.007047492634403755,1.0,COMPLETE
15,82.61843035588026,2020-08-09 00:51:07.367345,2020-08-09 00:51:44.435923,0 days 00:00:37.068578000,1280.0,64.0,0.0003434200141918238,1.0,COMPLETE
16,85.30794546309356,2020-08-09 00:51:44.465923,2020-08-09 00:53:15.135775,0 days 00:01:30.669852000,1344.0,54.0,0.00027972086649936733,1.0,COMPLETE
17,86.62790697674417,2020-08-09 00:53:15.161289,2020-08-09 00:54:40.430149,0 days 00:01:25.268860000,1472.0,53.0,0.000535214932861217,1.0,COMPLETE
18,88.59052020233561,2020-08-09 00:54:40.459661,2020-08-09 00:55:41.653539,0 days 00:01:01.193878000,1152.0,37.0,0.009343489992834264,1.0,COMPLETE
19,74.6165008291874,2020-08-09 00:55:41.679536,2020-08-09 00:56:08.492027,0 days 00:00:26.812491000,1088.0,36.0,5.0085428983727954e-05,1.0,COMPLETE
20,65.16582130316036,2020-08-09 00:56:08.518542,2020-08-09 00:56:45.877548,0 days 00:00:37.359006000,1152.0,38.0,3.2940545906072566e-09,1.0,COMPLETE
21,85.1305467743824,2020-08-09 00:56:45.902062,2020-08-09 00:57:26.984689,0 days 00:00:41.082627000,1728.0,60.0,0.0014387066731822965,1.0,COMPLETE
22,86.91223057332755,2020-08-09 00:57:27.008690,2020-08-09 00:58:14.703405,0 days 00:00:47.694715000,1344.0,50.0,0.009832435616103218,1.0,COMPLETE
23,86.46533806088765,2020-08-09 00:58:14.736929,2020-08-09 00:58:41.673360,0 days 00:00:26.936431000,1536.0,43.0,0.009188162058384944,1.0,COMPLETE
24,80.55795225769342,2020-08-09 00:58:41.699360,2020-08-09 00:59:03.780188,0 days 00:00:22.080828000,1408.0,58.0,7.40710040019357e-05,1.0,COMPLETE
25,86.35685884691848,2020-08-09 00:59:03.804701,2020-08-09 00:59:39.936911,0 days 00:00:36.132210000,1152.0,35.0,0.0014838518101129201,1.0,COMPLETE
26,89.42551809647517,2020-08-09 00:59:39.961430,2020-08-09 01:00:12.703408,0 days 00:00:32.741978000,1600.0,45.0,0.0018951909445528838,1.0,COMPLETE
27,79.63282490164951,2020-08-09 01:00:12.728923,2020-08-09 01:00:35.234219,0 days 00:00:22.505296000,1920.0,40.0,9.010509023127705e-05,1.0,COMPLETE
28,87.1141975308642,2020-08-09 01:00:35.259730,2020-08-09 01:01:22.517510,0 days 00:00:47.257780000,1664.0,45.0,0.0019628690806909083,1.0,COMPLETE
