number,value,datetime_start,datetime_complete,duration,params_batch_size,params_dropout,params_hidden_size,params_lr,params_num_layers,system_attrs_fail_reason,state
0,41.21162033081055,2020-08-11 11:21:29.072516,2020-08-11 11:22:00.113969,0 days 00:00:31.041453000,384.0,0.060951281360888995,238.0,0.05163567472921387,1.0,,COMPLETE
1,44.17163848876953,2020-08-11 11:22:00.133969,2020-08-11 11:22:27.005318,0 days 00:00:26.871349000,448.0,0.18693044364266728,238.0,0.0034112681716058266,1.0,,COMPLETE
2,41.76808547973633,2020-08-11 11:22:27.023318,2020-08-11 11:22:52.510033,0 days 00:00:25.486715000,640.0,0.12211397082703793,238.0,0.03449390758266565,1.0,,COMPLETE
3,,2020-08-11 11:22:52.530031,,,,,,,,,RUNNING
4,,2020-08-11 11:23:19.043339,2020-08-11 11:23:21.768272,0 days 00:00:02.724933000,2048.0,0.05606833131251406,238.0,0.0019415778209555155,1.0,Setting status of trial#4 as TrialState.FAIL because of the following error: RuntimeError('CUDA out of memory. Tried to allocate 886.00 MiB (GPU 0; 8.00 GiB total capacity; 5.23 GiB already allocated; 661.97 MiB free; 86.46 MiB cached)'),FAIL
5,44.885643005371094,2020-08-11 11:24:26.975767,2020-08-11 11:24:55.534171,0 days 00:00:28.558404000,1024.0,0.10652298131478291,238.0,0.000922317053331367,1.0,,COMPLETE
6,44.665199279785156,2020-08-11 12:09:54.749614,2020-08-11 12:10:23.132016,0 days 00:00:28.382402000,512.0,0.18983878959474426,238.0,0.002051498084990363,1.0,,COMPLETE
7,,2020-08-11 12:17:01.309838,2020-08-11 12:17:01.320840,0 days 00:00:00.011002000,,,,,,"Setting status of trial#7 as TrialState.FAIL because of the following error: TypeError(""__call__() missing 1 required positional argument: 'window_size'"")",FAIL
8,44.467525482177734,2020-08-11 12:17:39.489742,2020-08-11 12:18:11.098017,0 days 00:00:31.608275000,352.0,0.10679811563436699,238.0,0.00024249970815701255,1.0,,COMPLETE
