<?xml version="1.0" encoding="utf-8" standalone="no"?>
<!DOCTYPE svg PUBLIC "-//W3C//DTD SVG 1.1//EN"
  "http://www.w3.org/Graphics/SVG/1.1/DTD/svg11.dtd">
<!-- Created with matplotlib (https://matplotlib.org/) -->
<svg height="345.6pt" version="1.1" viewBox="0 0 460.8 345.6" width="460.8pt" xmlns="http://www.w3.org/2000/svg" xmlns:xlink="http://www.w3.org/1999/xlink">
 <defs>
  <style type="text/css">
*{stroke-linecap:butt;stroke-linejoin:round;}
  </style>
 </defs>
 <g id="figure_1">
  <g id="patch_1">
   <path d="M 0 345.6 
L 460.8 345.6 
L 460.8 0 
L 0 0 
z
" style="fill:#ffffff;"/>
  </g>
  <g id="axes_1">
   <g id="patch_2">
    <path d="M 52.85 306.2275 
L 450 306.2275 
L 450 10.8 
L 52.85 10.8 
z
" style="fill:#ffffff;"/>
   </g>
   <g id="matplotlib.axis_1">
    <g id="xtick_1">
     <g id="line2d_1">
      <path clip-path="url(#p8d3b73db6e)" d="M 85.990267 306.2275 
L 85.990267 10.8 
" style="fill:none;stroke:#cccccc;stroke-linecap:round;stroke-width:0.8;"/>
     </g>
     <g id="text_1">
      <!-- −15 -->
      <defs>
       <path d="M 52.828125 31.203125 
L 5.5625 31.203125 
L 5.5625 39.40625 
L 52.828125 39.40625 
z
" id="ArialMT-8722"/>
       <path d="M 37.25 0 
L 28.46875 0 
L 28.46875 56 
Q 25.296875 52.984375 20.140625 49.953125 
Q 14.984375 46.921875 10.890625 45.40625 
L 10.890625 53.90625 
Q 18.265625 57.375 23.78125 62.296875 
Q 29.296875 67.234375 31.59375 71.875 
L 37.25 71.875 
z
" id="ArialMT-49"/>
       <path d="M 4.15625 18.75 
L 13.375 19.53125 
Q 14.40625 12.796875 18.140625 9.390625 
Q 21.875 6 27.15625 6 
Q 33.5 6 37.890625 10.78125 
Q 42.28125 15.578125 42.28125 23.484375 
Q 42.28125 31 38.0625 35.34375 
Q 33.84375 39.703125 27 39.703125 
Q 22.75 39.703125 19.328125 37.765625 
Q 15.921875 35.84375 13.96875 32.765625 
L 5.71875 33.84375 
L 12.640625 70.609375 
L 48.25 70.609375 
L 48.25 62.203125 
L 19.671875 62.203125 
L 15.828125 42.96875 
Q 22.265625 47.46875 29.34375 47.46875 
Q 38.71875 47.46875 45.15625 40.96875 
Q 51.609375 34.46875 51.609375 24.265625 
Q 51.609375 14.546875 45.953125 7.46875 
Q 39.0625 -1.21875 27.15625 -1.21875 
Q 17.390625 -1.21875 11.203125 4.25 
Q 5.03125 9.71875 4.15625 18.75 
z
" id="ArialMT-53"/>
      </defs>
      <g style="fill:#262626;" transform="translate(77.509017 320.385312)scale(0.1 -0.1)">
       <use xlink:href="#ArialMT-8722"/>
       <use x="58.398438" xlink:href="#ArialMT-49"/>
       <use x="114.013672" xlink:href="#ArialMT-53"/>
      </g>
     </g>
    </g>
    <g id="xtick_2">
     <g id="line2d_2">
      <path clip-path="url(#p8d3b73db6e)" d="M 131.856291 306.2275 
L 131.856291 10.8 
" style="fill:none;stroke:#cccccc;stroke-linecap:round;stroke-width:0.8;"/>
     </g>
     <g id="text_2">
      <!-- −10 -->
      <defs>
       <path d="M 4.15625 35.296875 
Q 4.15625 48 6.765625 55.734375 
Q 9.375 63.484375 14.515625 67.671875 
Q 19.671875 71.875 27.484375 71.875 
Q 33.25 71.875 37.59375 69.546875 
Q 41.9375 67.234375 44.765625 62.859375 
Q 47.609375 58.5 49.21875 52.21875 
Q 50.828125 45.953125 50.828125 35.296875 
Q 50.828125 22.703125 48.234375 14.96875 
Q 45.65625 7.234375 40.5 3 
Q 35.359375 -1.21875 27.484375 -1.21875 
Q 17.140625 -1.21875 11.234375 6.203125 
Q 4.15625 15.140625 4.15625 35.296875 
z
M 13.1875 35.296875 
Q 13.1875 17.671875 17.3125 11.828125 
Q 21.4375 6 27.484375 6 
Q 33.546875 6 37.671875 11.859375 
Q 41.796875 17.71875 41.796875 35.296875 
Q 41.796875 52.984375 37.671875 58.78125 
Q 33.546875 64.59375 27.390625 64.59375 
Q 21.34375 64.59375 17.71875 59.46875 
Q 13.1875 52.9375 13.1875 35.296875 
z
" id="ArialMT-48"/>
      </defs>
      <g style="fill:#262626;" transform="translate(123.375041 320.385312)scale(0.1 -0.1)">
       <use xlink:href="#ArialMT-8722"/>
       <use x="58.398438" xlink:href="#ArialMT-49"/>
       <use x="114.013672" xlink:href="#ArialMT-48"/>
      </g>
     </g>
    </g>
    <g id="xtick_3">
     <g id="line2d_3">
      <path clip-path="url(#p8d3b73db6e)" d="M 177.722315 306.2275 
L 177.722315 10.8 
" style="fill:none;stroke:#cccccc;stroke-linecap:round;stroke-width:0.8;"/>
     </g>
     <g id="text_3">
      <!-- −5 -->
      <g style="fill:#262626;" transform="translate(172.021534 320.385312)scale(0.1 -0.1)">
       <use xlink:href="#ArialMT-8722"/>
       <use x="58.398438" xlink:href="#ArialMT-53"/>
      </g>
     </g>
    </g>
    <g id="xtick_4">
     <g id="line2d_4">
      <path clip-path="url(#p8d3b73db6e)" d="M 223.588339 306.2275 
L 223.588339 10.8 
" style="fill:none;stroke:#cccccc;stroke-linecap:round;stroke-width:0.8;"/>
     </g>
     <g id="text_4">
      <!-- 0 -->
      <g style="fill:#262626;" transform="translate(220.80787 320.385312)scale(0.1 -0.1)">
       <use xlink:href="#ArialMT-48"/>
      </g>
     </g>
    </g>
    <g id="xtick_5">
     <g id="line2d_5">
      <path clip-path="url(#p8d3b73db6e)" d="M 269.454362 306.2275 
L 269.454362 10.8 
" style="fill:none;stroke:#cccccc;stroke-linecap:round;stroke-width:0.8;"/>
     </g>
     <g id="text_5">
      <!-- 5 -->
      <g style="fill:#262626;" transform="translate(266.673894 320.385312)scale(0.1 -0.1)">
       <use xlink:href="#ArialMT-53"/>
      </g>
     </g>
    </g>
    <g id="xtick_6">
     <g id="line2d_6">
      <path clip-path="url(#p8d3b73db6e)" d="M 315.320386 306.2275 
L 315.320386 10.8 
" style="fill:none;stroke:#cccccc;stroke-linecap:round;stroke-width:0.8;"/>
     </g>
     <g id="text_6">
      <!-- 10 -->
      <g style="fill:#262626;" transform="translate(309.759449 320.385312)scale(0.1 -0.1)">
       <use xlink:href="#ArialMT-49"/>
       <use x="55.615234" xlink:href="#ArialMT-48"/>
      </g>
     </g>
    </g>
    <g id="xtick_7">
     <g id="line2d_7">
      <path clip-path="url(#p8d3b73db6e)" d="M 361.18641 306.2275 
L 361.18641 10.8 
" style="fill:none;stroke:#cccccc;stroke-linecap:round;stroke-width:0.8;"/>
     </g>
     <g id="text_7">
      <!-- 15 -->
      <g style="fill:#262626;" transform="translate(355.625473 320.385312)scale(0.1 -0.1)">
       <use xlink:href="#ArialMT-49"/>
       <use x="55.615234" xlink:href="#ArialMT-53"/>
      </g>
     </g>
    </g>
    <g id="xtick_8">
     <g id="line2d_8">
      <path clip-path="url(#p8d3b73db6e)" d="M 407.052434 306.2275 
L 407.052434 10.8 
" style="fill:none;stroke:#cccccc;stroke-linecap:round;stroke-width:0.8;"/>
     </g>
     <g id="text_8">
      <!-- 20 -->
      <defs>
       <path d="M 50.34375 8.453125 
L 50.34375 0 
L 3.03125 0 
Q 2.9375 3.171875 4.046875 6.109375 
Q 5.859375 10.9375 9.828125 15.625 
Q 13.8125 20.3125 21.34375 26.46875 
Q 33.015625 36.03125 37.109375 41.625 
Q 41.21875 47.21875 41.21875 52.203125 
Q 41.21875 57.421875 37.46875 61 
Q 33.734375 64.59375 27.734375 64.59375 
Q 21.390625 64.59375 17.578125 60.78125 
Q 13.765625 56.984375 13.71875 50.25 
L 4.6875 51.171875 
Q 5.609375 61.28125 11.65625 66.578125 
Q 17.71875 71.875 27.9375 71.875 
Q 38.234375 71.875 44.234375 66.15625 
Q 50.25 60.453125 50.25 52 
Q 50.25 47.703125 48.484375 43.546875 
Q 46.734375 39.40625 42.65625 34.8125 
Q 38.578125 30.21875 29.109375 22.21875 
Q 21.1875 15.578125 18.9375 13.203125 
Q 16.703125 10.84375 15.234375 8.453125 
z
" id="ArialMT-50"/>
      </defs>
      <g style="fill:#262626;" transform="translate(401.491496 320.385312)scale(0.1 -0.1)">
       <use xlink:href="#ArialMT-50"/>
       <use x="55.615234" xlink:href="#ArialMT-48"/>
      </g>
     </g>
    </g>
    <g id="text_9">
     <!-- Component values -->
     <defs>
      <path d="M 58.796875 25.09375 
L 68.265625 22.703125 
Q 65.28125 11.03125 57.546875 4.90625 
Q 49.8125 -1.21875 38.625 -1.21875 
Q 27.046875 -1.21875 19.796875 3.484375 
Q 12.546875 8.203125 8.765625 17.140625 
Q 4.984375 26.078125 4.984375 36.328125 
Q 4.984375 47.515625 9.25 55.828125 
Q 13.53125 64.15625 21.40625 68.46875 
Q 29.296875 72.796875 38.765625 72.796875 
Q 49.515625 72.796875 56.828125 67.328125 
Q 64.15625 61.859375 67.046875 51.953125 
L 57.71875 49.75 
Q 55.21875 57.5625 50.484375 61.125 
Q 45.75 64.703125 38.578125 64.703125 
Q 30.328125 64.703125 24.78125 60.734375 
Q 19.234375 56.78125 16.984375 50.109375 
Q 14.75 43.453125 14.75 36.375 
Q 14.75 27.25 17.40625 20.4375 
Q 20.0625 13.625 25.671875 10.25 
Q 31.296875 6.890625 37.84375 6.890625 
Q 45.796875 6.890625 51.3125 11.46875 
Q 56.84375 16.0625 58.796875 25.09375 
z
" id="ArialMT-67"/>
      <path d="M 3.328125 25.921875 
Q 3.328125 40.328125 11.328125 47.265625 
Q 18.015625 53.03125 27.640625 53.03125 
Q 38.328125 53.03125 45.109375 46.015625 
Q 51.90625 39.015625 51.90625 26.65625 
Q 51.90625 16.65625 48.90625 10.90625 
Q 45.90625 5.171875 40.15625 2 
Q 34.421875 -1.171875 27.640625 -1.171875 
Q 16.75 -1.171875 10.03125 5.8125 
Q 3.328125 12.796875 3.328125 25.921875 
z
M 12.359375 25.921875 
Q 12.359375 15.96875 16.703125 11.015625 
Q 21.046875 6.0625 27.640625 6.0625 
Q 34.1875 6.0625 38.53125 11.03125 
Q 42.875 16.015625 42.875 26.21875 
Q 42.875 35.84375 38.5 40.796875 
Q 34.125 45.75 27.640625 45.75 
Q 21.046875 45.75 16.703125 40.8125 
Q 12.359375 35.890625 12.359375 25.921875 
z
" id="ArialMT-111"/>
      <path d="M 6.59375 0 
L 6.59375 51.859375 
L 14.453125 51.859375 
L 14.453125 44.578125 
Q 16.890625 48.390625 20.9375 50.703125 
Q 25 53.03125 30.171875 53.03125 
Q 35.9375 53.03125 39.625 50.640625 
Q 43.3125 48.25 44.828125 43.953125 
Q 50.984375 53.03125 60.84375 53.03125 
Q 68.5625 53.03125 72.703125 48.75 
Q 76.859375 44.484375 76.859375 35.59375 
L 76.859375 0 
L 68.109375 0 
L 68.109375 32.671875 
Q 68.109375 37.9375 67.25 40.25 
Q 66.40625 42.578125 64.15625 43.984375 
Q 61.921875 45.40625 58.890625 45.40625 
Q 53.421875 45.40625 49.796875 41.765625 
Q 46.1875 38.140625 46.1875 30.125 
L 46.1875 0 
L 37.40625 0 
L 37.40625 33.6875 
Q 37.40625 39.546875 35.25 42.46875 
Q 33.109375 45.40625 28.21875 45.40625 
Q 24.515625 45.40625 21.359375 43.453125 
Q 18.21875 41.5 16.796875 37.734375 
Q 15.375 33.984375 15.375 26.90625 
L 15.375 0 
z
" id="ArialMT-109"/>
      <path d="M 6.59375 -19.875 
L 6.59375 51.859375 
L 14.59375 51.859375 
L 14.59375 45.125 
Q 17.4375 49.078125 21 51.046875 
Q 24.5625 53.03125 29.640625 53.03125 
Q 36.28125 53.03125 41.359375 49.609375 
Q 46.4375 46.1875 49.015625 39.953125 
Q 51.609375 33.734375 51.609375 26.3125 
Q 51.609375 18.359375 48.75 11.984375 
Q 45.90625 5.609375 40.453125 2.21875 
Q 35.015625 -1.171875 29 -1.171875 
Q 24.609375 -1.171875 21.109375 0.6875 
Q 17.625 2.546875 15.375 5.375 
L 15.375 -19.875 
z
M 14.546875 25.640625 
Q 14.546875 15.625 18.59375 10.84375 
Q 22.65625 6.0625 28.421875 6.0625 
Q 34.28125 6.0625 38.453125 11.015625 
Q 42.625 15.96875 42.625 26.375 
Q 42.625 36.28125 38.546875 41.203125 
Q 34.46875 46.140625 28.8125 46.140625 
Q 23.1875 46.140625 18.859375 40.890625 
Q 14.546875 35.640625 14.546875 25.640625 
z
" id="ArialMT-112"/>
      <path d="M 6.59375 0 
L 6.59375 51.859375 
L 14.5 51.859375 
L 14.5 44.484375 
Q 20.21875 53.03125 31 53.03125 
Q 35.6875 53.03125 39.625 51.34375 
Q 43.5625 49.65625 45.515625 46.921875 
Q 47.46875 44.1875 48.25 40.4375 
Q 48.734375 37.984375 48.734375 31.890625 
L 48.734375 0 
L 39.9375 0 
L 39.9375 31.546875 
Q 39.9375 36.921875 38.90625 39.578125 
Q 37.890625 42.234375 35.28125 43.8125 
Q 32.671875 45.40625 29.15625 45.40625 
Q 23.53125 45.40625 19.453125 41.84375 
Q 15.375 38.28125 15.375 28.328125 
L 15.375 0 
z
" id="ArialMT-110"/>
      <path d="M 42.09375 16.703125 
L 51.171875 15.578125 
Q 49.03125 7.625 43.21875 3.21875 
Q 37.40625 -1.171875 28.375 -1.171875 
Q 17 -1.171875 10.328125 5.828125 
Q 3.65625 12.84375 3.65625 25.484375 
Q 3.65625 38.578125 10.390625 45.796875 
Q 17.140625 53.03125 27.875 53.03125 
Q 38.28125 53.03125 44.875 45.953125 
Q 51.46875 38.875 51.46875 26.03125 
Q 51.46875 25.25 51.421875 23.6875 
L 12.75 23.6875 
Q 13.234375 15.140625 17.578125 10.59375 
Q 21.921875 6.0625 28.421875 6.0625 
Q 33.25 6.0625 36.671875 8.59375 
Q 40.09375 11.140625 42.09375 16.703125 
z
M 13.234375 30.90625 
L 42.1875 30.90625 
Q 41.609375 37.453125 38.875 40.71875 
Q 34.671875 45.796875 27.984375 45.796875 
Q 21.921875 45.796875 17.796875 41.75 
Q 13.671875 37.703125 13.234375 30.90625 
z
" id="ArialMT-101"/>
      <path d="M 25.78125 7.859375 
L 27.046875 0.09375 
Q 23.34375 -0.6875 20.40625 -0.6875 
Q 15.625 -0.6875 12.984375 0.828125 
Q 10.359375 2.34375 9.28125 4.8125 
Q 8.203125 7.28125 8.203125 15.1875 
L 8.203125 45.015625 
L 1.765625 45.015625 
L 1.765625 51.859375 
L 8.203125 51.859375 
L 8.203125 64.703125 
L 16.9375 69.96875 
L 16.9375 51.859375 
L 25.78125 51.859375 
L 25.78125 45.015625 
L 16.9375 45.015625 
L 16.9375 14.703125 
Q 16.9375 10.9375 17.40625 9.859375 
Q 17.875 8.796875 18.921875 8.15625 
Q 19.96875 7.515625 21.921875 7.515625 
Q 23.390625 7.515625 25.78125 7.859375 
z
" id="ArialMT-116"/>
      <path id="ArialMT-32"/>
      <path d="M 21 0 
L 1.265625 51.859375 
L 10.546875 51.859375 
L 21.6875 20.796875 
Q 23.484375 15.765625 25 10.359375 
Q 26.171875 14.453125 28.265625 20.21875 
L 39.796875 51.859375 
L 48.828125 51.859375 
L 29.203125 0 
z
" id="ArialMT-118"/>
      <path d="M 40.4375 6.390625 
Q 35.546875 2.25 31.03125 0.53125 
Q 26.515625 -1.171875 21.34375 -1.171875 
Q 12.796875 -1.171875 8.203125 3 
Q 3.609375 7.171875 3.609375 13.671875 
Q 3.609375 17.484375 5.34375 20.625 
Q 7.078125 23.78125 9.890625 25.6875 
Q 12.703125 27.59375 16.21875 28.5625 
Q 18.796875 29.25 24.03125 29.890625 
Q 34.671875 31.15625 39.703125 32.90625 
Q 39.75 34.71875 39.75 35.203125 
Q 39.75 40.578125 37.25 42.78125 
Q 33.890625 45.75 27.25 45.75 
Q 21.046875 45.75 18.09375 43.578125 
Q 15.140625 41.40625 13.71875 35.890625 
L 5.125 37.0625 
Q 6.296875 42.578125 8.984375 45.96875 
Q 11.671875 49.359375 16.75 51.1875 
Q 21.828125 53.03125 28.515625 53.03125 
Q 35.15625 53.03125 39.296875 51.46875 
Q 43.453125 49.90625 45.40625 47.53125 
Q 47.359375 45.171875 48.140625 41.546875 
Q 48.578125 39.3125 48.578125 33.453125 
L 48.578125 21.734375 
Q 48.578125 9.46875 49.140625 6.21875 
Q 49.703125 2.984375 51.375 0 
L 42.1875 0 
Q 40.828125 2.734375 40.4375 6.390625 
z
M 39.703125 26.03125 
Q 34.90625 24.078125 25.34375 22.703125 
Q 19.921875 21.921875 17.671875 20.9375 
Q 15.4375 19.96875 14.203125 18.09375 
Q 12.984375 16.21875 12.984375 13.921875 
Q 12.984375 10.40625 15.640625 8.0625 
Q 18.3125 5.71875 23.4375 5.71875 
Q 28.515625 5.71875 32.46875 7.9375 
Q 36.421875 10.15625 38.28125 14.015625 
Q 39.703125 17 39.703125 22.796875 
z
" id="ArialMT-97"/>
      <path d="M 6.390625 0 
L 6.390625 71.578125 
L 15.1875 71.578125 
L 15.1875 0 
z
" id="ArialMT-108"/>
      <path d="M 40.578125 0 
L 40.578125 7.625 
Q 34.515625 -1.171875 24.125 -1.171875 
Q 19.53125 -1.171875 15.546875 0.578125 
Q 11.578125 2.34375 9.640625 5 
Q 7.71875 7.671875 6.9375 11.53125 
Q 6.390625 14.109375 6.390625 19.734375 
L 6.390625 51.859375 
L 15.1875 51.859375 
L 15.1875 23.09375 
Q 15.1875 16.21875 15.71875 13.8125 
Q 16.546875 10.359375 19.234375 8.375 
Q 21.921875 6.390625 25.875 6.390625 
Q 29.828125 6.390625 33.296875 8.421875 
Q 36.765625 10.453125 38.203125 13.9375 
Q 39.65625 17.4375 39.65625 24.078125 
L 39.65625 51.859375 
L 48.4375 51.859375 
L 48.4375 0 
z
" id="ArialMT-117"/>
      <path d="M 3.078125 15.484375 
L 11.765625 16.84375 
Q 12.5 11.625 15.84375 8.84375 
Q 19.1875 6.0625 25.203125 6.0625 
Q 31.25 6.0625 34.171875 8.515625 
Q 37.109375 10.984375 37.109375 14.3125 
Q 37.109375 17.28125 34.515625 19 
Q 32.71875 20.171875 25.53125 21.96875 
Q 15.875 24.421875 12.140625 26.203125 
Q 8.40625 27.984375 6.46875 31.125 
Q 4.546875 34.28125 4.546875 38.09375 
Q 4.546875 41.546875 6.125 44.5 
Q 7.71875 47.46875 10.453125 49.421875 
Q 12.5 50.921875 16.03125 51.96875 
Q 19.578125 53.03125 23.640625 53.03125 
Q 29.734375 53.03125 34.34375 51.265625 
Q 38.96875 49.515625 41.15625 46.5 
Q 43.359375 43.5 44.1875 38.484375 
L 35.59375 37.3125 
Q 35.015625 41.3125 32.203125 43.546875 
Q 29.390625 45.796875 24.265625 45.796875 
Q 18.21875 45.796875 15.625 43.796875 
Q 13.03125 41.796875 13.03125 39.109375 
Q 13.03125 37.40625 14.109375 36.03125 
Q 15.1875 34.625 17.484375 33.6875 
Q 18.796875 33.203125 25.25 31.453125 
Q 34.578125 28.953125 38.25 27.359375 
Q 41.9375 25.78125 44.03125 22.75 
Q 46.140625 19.734375 46.140625 15.234375 
Q 46.140625 10.84375 43.578125 6.953125 
Q 41.015625 3.078125 36.171875 0.953125 
Q 31.34375 -1.171875 25.25 -1.171875 
Q 15.140625 -1.171875 9.84375 3.03125 
Q 4.546875 7.234375 3.078125 15.484375 
z
" id="ArialMT-115"/>
     </defs>
     <g style="fill:#262626;" transform="translate(209.735938 333.6525)scale(0.1 -0.1)">
      <use xlink:href="#ArialMT-67"/>
      <use x="72.216797" xlink:href="#ArialMT-111"/>
      <use x="127.832031" xlink:href="#ArialMT-109"/>
      <use x="211.132812" xlink:href="#ArialMT-112"/>
      <use x="266.748047" xlink:href="#ArialMT-111"/>
      <use x="322.363281" xlink:href="#ArialMT-110"/>
      <use x="377.978516" xlink:href="#ArialMT-101"/>
      <use x="433.59375" xlink:href="#ArialMT-110"/>
      <use x="489.208984" xlink:href="#ArialMT-116"/>
      <use x="516.992188" xlink:href="#ArialMT-32"/>
      <use x="544.775391" xlink:href="#ArialMT-118"/>
      <use x="594.775391" xlink:href="#ArialMT-97"/>
      <use x="650.390625" xlink:href="#ArialMT-108"/>
      <use x="672.607422" xlink:href="#ArialMT-117"/>
      <use x="728.222656" xlink:href="#ArialMT-101"/>
      <use x="783.837891" xlink:href="#ArialMT-115"/>
     </g>
    </g>
   </g>
   <g id="matplotlib.axis_2">
    <g id="ytick_1">
     <g id="line2d_9">
      <path clip-path="url(#p8d3b73db6e)" d="M 52.85 306.2275 
L 450 306.2275 
" style="fill:none;stroke:#cccccc;stroke-linecap:round;stroke-width:0.8;"/>
     </g>
     <g id="text_10">
      <!-- 0.00 -->
      <defs>
       <path d="M 9.078125 0 
L 9.078125 10.015625 
L 19.09375 10.015625 
L 19.09375 0 
z
" id="ArialMT-46"/>
      </defs>
      <g style="fill:#262626;" transform="translate(26.389063 309.806406)scale(0.1 -0.1)">
       <use xlink:href="#ArialMT-48"/>
       <use x="55.615234" xlink:href="#ArialMT-46"/>
       <use x="83.398438" xlink:href="#ArialMT-48"/>
       <use x="139.013672" xlink:href="#ArialMT-48"/>
      </g>
     </g>
    </g>
    <g id="ytick_2">
     <g id="line2d_10">
      <path clip-path="url(#p8d3b73db6e)" d="M 52.85 265.513305 
L 450 265.513305 
" style="fill:none;stroke:#cccccc;stroke-linecap:round;stroke-width:0.8;"/>
     </g>
     <g id="text_11">
      <!-- 0.05 -->
      <g style="fill:#262626;" transform="translate(26.389063 269.092211)scale(0.1 -0.1)">
       <use xlink:href="#ArialMT-48"/>
       <use x="55.615234" xlink:href="#ArialMT-46"/>
       <use x="83.398438" xlink:href="#ArialMT-48"/>
       <use x="139.013672" xlink:href="#ArialMT-53"/>
      </g>
     </g>
    </g>
    <g id="ytick_3">
     <g id="line2d_11">
      <path clip-path="url(#p8d3b73db6e)" d="M 52.85 224.79911 
L 450 224.79911 
" style="fill:none;stroke:#cccccc;stroke-linecap:round;stroke-width:0.8;"/>
     </g>
     <g id="text_12">
      <!-- 0.10 -->
      <g style="fill:#262626;" transform="translate(26.389063 228.378016)scale(0.1 -0.1)">
       <use xlink:href="#ArialMT-48"/>
       <use x="55.615234" xlink:href="#ArialMT-46"/>
       <use x="83.398438" xlink:href="#ArialMT-49"/>
       <use x="139.013672" xlink:href="#ArialMT-48"/>
      </g>
     </g>
    </g>
    <g id="ytick_4">
     <g id="line2d_12">
      <path clip-path="url(#p8d3b73db6e)" d="M 52.85 184.084915 
L 450 184.084915 
" style="fill:none;stroke:#cccccc;stroke-linecap:round;stroke-width:0.8;"/>
     </g>
     <g id="text_13">
      <!-- 0.15 -->
      <g style="fill:#262626;" transform="translate(26.389063 187.663821)scale(0.1 -0.1)">
       <use xlink:href="#ArialMT-48"/>
       <use x="55.615234" xlink:href="#ArialMT-46"/>
       <use x="83.398438" xlink:href="#ArialMT-49"/>
       <use x="139.013672" xlink:href="#ArialMT-53"/>
      </g>
     </g>
    </g>
    <g id="ytick_5">
     <g id="line2d_13">
      <path clip-path="url(#p8d3b73db6e)" d="M 52.85 143.37072 
L 450 143.37072 
" style="fill:none;stroke:#cccccc;stroke-linecap:round;stroke-width:0.8;"/>
     </g>
     <g id="text_14">
      <!-- 0.20 -->
      <g style="fill:#262626;" transform="translate(26.389063 146.949626)scale(0.1 -0.1)">
       <use xlink:href="#ArialMT-48"/>
       <use x="55.615234" xlink:href="#ArialMT-46"/>
       <use x="83.398438" xlink:href="#ArialMT-50"/>
       <use x="139.013672" xlink:href="#ArialMT-48"/>
      </g>
     </g>
    </g>
    <g id="ytick_6">
     <g id="line2d_14">
      <path clip-path="url(#p8d3b73db6e)" d="M 52.85 102.656525 
L 450 102.656525 
" style="fill:none;stroke:#cccccc;stroke-linecap:round;stroke-width:0.8;"/>
     </g>
     <g id="text_15">
      <!-- 0.25 -->
      <g style="fill:#262626;" transform="translate(26.389063 106.235431)scale(0.1 -0.1)">
       <use xlink:href="#ArialMT-48"/>
       <use x="55.615234" xlink:href="#ArialMT-46"/>
       <use x="83.398438" xlink:href="#ArialMT-50"/>
       <use x="139.013672" xlink:href="#ArialMT-53"/>
      </g>
     </g>
    </g>
    <g id="ytick_7">
     <g id="line2d_15">
      <path clip-path="url(#p8d3b73db6e)" d="M 52.85 61.94233 
L 450 61.94233 
" style="fill:none;stroke:#cccccc;stroke-linecap:round;stroke-width:0.8;"/>
     </g>
     <g id="text_16">
      <!-- 0.30 -->
      <defs>
       <path d="M 4.203125 18.890625 
L 12.984375 20.0625 
Q 14.5 12.59375 18.140625 9.296875 
Q 21.78125 6 27 6 
Q 33.203125 6 37.46875 10.296875 
Q 41.75 14.59375 41.75 20.953125 
Q 41.75 27 37.796875 30.921875 
Q 33.84375 34.859375 27.734375 34.859375 
Q 25.25 34.859375 21.53125 33.890625 
L 22.515625 41.609375 
Q 23.390625 41.5 23.921875 41.5 
Q 29.546875 41.5 34.03125 44.421875 
Q 38.53125 47.359375 38.53125 53.46875 
Q 38.53125 58.296875 35.25 61.46875 
Q 31.984375 64.65625 26.8125 64.65625 
Q 21.6875 64.65625 18.265625 61.421875 
Q 14.84375 58.203125 13.875 51.765625 
L 5.078125 53.328125 
Q 6.6875 62.15625 12.390625 67.015625 
Q 18.109375 71.875 26.609375 71.875 
Q 32.46875 71.875 37.390625 69.359375 
Q 42.328125 66.84375 44.9375 62.5 
Q 47.5625 58.15625 47.5625 53.265625 
Q 47.5625 48.640625 45.0625 44.828125 
Q 42.578125 41.015625 37.703125 38.765625 
Q 44.046875 37.3125 47.5625 32.6875 
Q 51.078125 28.078125 51.078125 21.140625 
Q 51.078125 11.765625 44.234375 5.25 
Q 37.40625 -1.265625 26.953125 -1.265625 
Q 17.53125 -1.265625 11.296875 4.34375 
Q 5.078125 9.96875 4.203125 18.890625 
z
" id="ArialMT-51"/>
      </defs>
      <g style="fill:#262626;" transform="translate(26.389063 65.521236)scale(0.1 -0.1)">
       <use xlink:href="#ArialMT-48"/>
       <use x="55.615234" xlink:href="#ArialMT-46"/>
       <use x="83.398438" xlink:href="#ArialMT-51"/>
       <use x="139.013672" xlink:href="#ArialMT-48"/>
      </g>
     </g>
    </g>
    <g id="ytick_8">
     <g id="line2d_16">
      <path clip-path="url(#p8d3b73db6e)" d="M 52.85 21.228135 
L 450 21.228135 
" style="fill:none;stroke:#cccccc;stroke-linecap:round;stroke-width:0.8;"/>
     </g>
     <g id="text_17">
      <!-- 0.35 -->
      <g style="fill:#262626;" transform="translate(26.389063 24.807041)scale(0.1 -0.1)">
       <use xlink:href="#ArialMT-48"/>
       <use x="55.615234" xlink:href="#ArialMT-46"/>
       <use x="83.398438" xlink:href="#ArialMT-51"/>
       <use x="139.013672" xlink:href="#ArialMT-53"/>
      </g>
     </g>
    </g>
    <g id="text_18">
     <!-- $P(x)$ -->
     <defs>
      <path d="M 16.890625 72.90625 
L 39.703125 72.90625 
Q 49.65625 72.90625 54.875 68.265625 
Q 60.109375 63.625 60.109375 54.6875 
Q 60.109375 42.671875 52.390625 35.984375 
Q 44.671875 29.296875 30.71875 29.296875 
L 18.3125 29.296875 
L 12.59375 0 
L 2.6875 0 
z
M 25.203125 64.796875 
L 19.921875 37.40625 
L 32.328125 37.40625 
Q 40.71875 37.40625 45.203125 41.703125 
Q 49.703125 46 49.703125 54 
Q 49.703125 59.125 46.65625 61.953125 
Q 43.609375 64.796875 38.09375 64.796875 
z
" id="DejaVuSans-Oblique-80"/>
      <path d="M 31 75.875 
Q 24.46875 64.65625 21.28125 53.65625 
Q 18.109375 42.671875 18.109375 31.390625 
Q 18.109375 20.125 21.3125 9.0625 
Q 24.515625 -2 31 -13.1875 
L 23.1875 -13.1875 
Q 15.875 -1.703125 12.234375 9.375 
Q 8.59375 20.453125 8.59375 31.390625 
Q 8.59375 42.28125 12.203125 53.3125 
Q 15.828125 64.359375 23.1875 75.875 
z
" id="DejaVuSans-40"/>
      <path d="M 60.015625 54.6875 
L 34.90625 27.875 
L 50.296875 0 
L 39.984375 0 
L 28.421875 21.6875 
L 8.296875 0 
L -2.59375 0 
L 24.3125 28.8125 
L 10.015625 54.6875 
L 20.3125 54.6875 
L 30.8125 34.90625 
L 49.125 54.6875 
z
" id="DejaVuSans-Oblique-120"/>
      <path d="M 8.015625 75.875 
L 15.828125 75.875 
Q 23.140625 64.359375 26.78125 53.3125 
Q 30.421875 42.28125 30.421875 31.390625 
Q 30.421875 20.453125 26.78125 9.375 
Q 23.140625 -1.703125 15.828125 -13.1875 
L 8.015625 -13.1875 
Q 14.5 -2 17.703125 9.0625 
Q 20.90625 20.125 20.90625 31.390625 
Q 20.90625 42.671875 17.703125 53.65625 
Q 14.5 64.65625 8.015625 75.875 
z
" id="DejaVuSans-41"/>
     </defs>
     <g style="fill:#262626;" transform="translate(20.401563 168.41375)rotate(-90)scale(0.1 -0.1)">
      <use transform="translate(0 0.125)" xlink:href="#DejaVuSans-Oblique-80"/>
      <use transform="translate(60.302734 0.125)" xlink:href="#DejaVuSans-40"/>
      <use transform="translate(99.316406 0.125)" xlink:href="#DejaVuSans-Oblique-120"/>
      <use transform="translate(158.496094 0.125)" xlink:href="#DejaVuSans-41"/>
     </g>
    </g>
   </g>
   <g id="PolyCollection_1">
    <defs>
     <path d="M 73.229923 -39.393595 
L 73.229923 -39.3725 
L 75.970031 -39.3725 
L 78.710139 -39.3725 
L 81.450247 -39.3725 
L 84.190354 -39.3725 
L 86.930462 -39.3725 
L 89.67057 -39.3725 
L 92.410678 -39.3725 
L 95.150786 -39.3725 
L 97.890893 -39.3725 
L 100.631001 -39.3725 
L 103.371109 -39.3725 
L 106.111217 -39.3725 
L 108.851324 -39.3725 
L 111.591432 -39.3725 
L 114.33154 -39.3725 
L 117.071648 -39.3725 
L 119.811756 -39.3725 
L 122.551863 -39.3725 
L 125.291971 -39.3725 
L 128.032079 -39.3725 
L 130.772187 -39.3725 
L 133.512294 -39.3725 
L 136.252402 -39.3725 
L 138.99251 -39.3725 
L 141.732618 -39.3725 
L 144.472726 -39.3725 
L 147.212833 -39.3725 
L 149.952941 -39.3725 
L 152.693049 -39.3725 
L 155.433157 -39.3725 
L 158.173265 -39.3725 
L 160.913372 -39.3725 
L 163.65348 -39.3725 
L 166.393588 -39.3725 
L 169.133696 -39.3725 
L 171.873803 -39.3725 
L 174.613911 -39.3725 
L 177.354019 -39.3725 
L 180.094127 -39.3725 
L 182.834235 -39.3725 
L 185.574342 -39.3725 
L 188.31445 -39.3725 
L 191.054558 -39.3725 
L 193.794666 -39.3725 
L 196.534773 -39.3725 
L 199.274881 -39.3725 
L 202.014989 -39.3725 
L 204.755097 -39.3725 
L 207.495205 -39.3725 
L 210.235312 -39.3725 
L 212.97542 -39.3725 
L 215.715528 -39.3725 
L 218.455636 -39.3725 
L 221.195743 -39.3725 
L 223.935851 -39.3725 
L 226.675959 -39.3725 
L 229.416067 -39.3725 
L 232.156175 -39.3725 
L 234.896282 -39.3725 
L 237.63639 -39.3725 
L 240.376498 -39.3725 
L 243.116606 -39.3725 
L 245.856714 -39.3725 
L 248.596821 -39.3725 
L 251.336929 -39.3725 
L 254.077037 -39.3725 
L 256.817145 -39.3725 
L 259.557252 -39.3725 
L 262.29736 -39.3725 
L 265.037468 -39.3725 
L 267.777576 -39.3725 
L 270.517684 -39.3725 
L 273.257791 -39.3725 
L 275.997899 -39.3725 
L 278.738007 -39.3725 
L 281.478115 -39.3725 
L 284.218222 -39.3725 
L 286.95833 -39.3725 
L 289.698438 -39.3725 
L 292.438546 -39.3725 
L 295.178654 -39.3725 
L 297.918761 -39.3725 
L 300.658869 -39.3725 
L 303.398977 -39.3725 
L 306.139085 -39.3725 
L 308.879192 -39.3725 
L 311.6193 -39.3725 
L 314.359408 -39.3725 
L 317.099516 -39.3725 
L 319.839624 -39.3725 
L 322.579731 -39.3725 
L 325.319839 -39.3725 
L 328.059947 -39.3725 
L 330.800055 -39.3725 
L 333.540163 -39.3725 
L 336.28027 -39.3725 
L 339.020378 -39.3725 
L 341.760486 -39.3725 
L 344.500594 -39.3725 
L 347.240701 -39.3725 
L 349.980809 -39.3725 
L 352.720917 -39.3725 
L 355.461025 -39.3725 
L 358.201133 -39.3725 
L 360.94124 -39.3725 
L 363.681348 -39.3725 
L 366.421456 -39.3725 
L 369.161564 -39.3725 
L 371.901671 -39.3725 
L 374.641779 -39.3725 
L 377.381887 -39.3725 
L 380.121995 -39.3725 
L 382.862103 -39.3725 
L 385.60221 -39.3725 
L 388.342318 -39.3725 
L 391.082426 -39.3725 
L 393.822534 -39.3725 
L 396.562641 -39.3725 
L 399.302749 -39.3725 
L 402.042857 -39.3725 
L 404.782965 -39.3725 
L 407.523073 -39.3725 
L 410.26318 -39.3725 
L 413.003288 -39.3725 
L 415.743396 -39.3725 
L 418.483504 -39.3725 
L 421.223612 -39.3725 
L 421.223612 -39.378062 
L 421.223612 -39.378062 
L 418.483504 -39.393119 
L 415.743396 -39.467087 
L 413.003288 -39.723324 
L 410.26318 -40.47934 
L 407.523073 -42.430203 
L 404.782965 -46.628295 
L 402.042857 -53.586845 
L 399.302749 -61.770884 
L 396.562641 -67.811235 
L 393.822534 -69.663113 
L 391.082426 -69.175001 
L 388.342318 -70.262223 
L 385.60221 -74.9376 
L 382.862103 -81.701722 
L 380.121995 -86.959683 
L 377.381887 -87.896467 
L 374.641779 -84.786536 
L 371.901671 -80.276841 
L 369.161564 -76.186302 
L 366.421456 -72.166676 
L 363.681348 -68.004614 
L 360.94124 -65.693012 
L 358.201133 -67.829443 
L 355.461025 -74.022686 
L 352.720917 -79.597231 
L 349.980809 -79.092157 
L 347.240701 -71.585625 
L 344.500594 -61.308221 
L 341.760486 -52.823218 
L 339.020378 -47.504893 
L 336.28027 -44.799743 
L 333.540163 -44.652576 
L 330.800055 -47.685768 
L 328.059947 -53.730822 
L 325.319839 -60.860935 
L 322.579731 -66.053133 
L 319.839624 -66.803412 
L 317.099516 -62.681234 
L 314.359408 -55.926588 
L 311.6193 -49.886352 
L 308.879192 -46.4705 
L 306.139085 -45.46555 
L 303.398977 -45.75881 
L 300.658869 -46.423345 
L 297.918761 -46.780066 
L 295.178654 -46.264878 
L 292.438546 -44.802622 
L 289.698438 -42.963437 
L 286.95833 -41.413571 
L 284.218222 -40.425382 
L 281.478115 -39.922356 
L 278.738007 -39.717567 
L 275.997899 -39.649913 
L 273.257791 -39.625755 
L 270.517684 -39.612655 
L 267.777576 -39.605377 
L 265.037468 -39.602786 
L 262.29736 -39.604518 
L 259.557252 -39.607521 
L 256.817145 -39.609237 
L 254.077037 -39.612849 
L 251.336929 -39.619274 
L 248.596821 -39.624903 
L 245.856714 -39.626986 
L 243.116606 -39.622187 
L 240.376498 -39.611844 
L 237.63639 -39.604091 
L 234.896282 -39.602055 
L 232.156175 -39.603076 
L 229.416067 -39.605037 
L 226.675959 -39.606523 
L 223.935851 -39.608212 
L 221.195743 -39.610387 
L 218.455636 -39.61221 
L 215.715528 -39.619611 
L 212.97542 -39.645658 
L 210.235312 -39.70764 
L 207.495205 -39.839126 
L 204.755097 -40.126028 
L 202.014989 -40.793291 
L 199.274881 -42.322047 
L 196.534773 -45.398103 
L 193.794666 -50.502149 
L 191.054558 -57.492887 
L 188.31445 -65.712066 
L 185.574342 -74.341887 
L 182.834235 -82.736304 
L 180.094127 -90.740007 
L 177.354019 -98.35062 
L 174.613911 -105.277086 
L 171.873803 -111.207765 
L 169.133696 -115.384998 
L 166.393588 -116.268831 
L 163.65348 -113.241505 
L 160.913372 -107.664042 
L 158.173265 -101.373681 
L 155.433157 -95.508224 
L 152.693049 -90.904728 
L 149.952941 -88.269329 
L 147.212833 -87.643774 
L 144.472726 -88.269759 
L 141.732618 -89.2706 
L 138.99251 -90.253791 
L 136.252402 -90.964258 
L 133.512294 -90.621302 
L 130.772187 -88.21592 
L 128.032079 -83.546298 
L 125.291971 -77.489564 
L 122.551863 -71.125343 
L 119.811756 -65.156939 
L 117.071648 -60.376888 
L 114.33154 -58.020952 
L 111.591432 -59.301012 
L 108.851324 -64.389742 
L 106.111217 -71.289116 
L 103.371109 -76.3036 
L 100.631001 -77.156557 
L 97.890893 -75.107119 
L 95.150786 -72.424849 
L 92.410678 -68.831737 
L 89.67057 -62.570889 
L 86.930462 -54.17353 
L 84.190354 -46.625156 
L 81.450247 -42.028657 
L 78.710139 -40.090382 
L 75.970031 -39.514943 
L 73.229923 -39.393595 
z
" id="m6f553f0e9e" style="stroke:#ffffff;stroke-opacity:0.25;"/>
    </defs>
    <g clip-path="url(#p8d3b73db6e)">
     <use style="fill:#1f77b4;fill-opacity:0.25;stroke:#ffffff;stroke-opacity:0.25;" x="0" xlink:href="#m6f553f0e9e" y="345.6"/>
    </g>
   </g>
   <g id="PolyCollection_2">
    <defs>
     <path d="M 70.902273 -39.384926 
L 70.902273 -39.3725 
L 73.74515 -39.3725 
L 76.588028 -39.3725 
L 79.430906 -39.3725 
L 82.273783 -39.3725 
L 85.116661 -39.3725 
L 87.959538 -39.3725 
L 90.802416 -39.3725 
L 93.645293 -39.3725 
L 96.488171 -39.3725 
L 99.331049 -39.3725 
L 102.173926 -39.3725 
L 105.016804 -39.3725 
L 107.859681 -39.3725 
L 110.702559 -39.3725 
L 113.545437 -39.3725 
L 116.388314 -39.3725 
L 119.231192 -39.3725 
L 122.074069 -39.3725 
L 124.916947 -39.3725 
L 127.759825 -39.3725 
L 130.602702 -39.3725 
L 133.44558 -39.3725 
L 136.288457 -39.3725 
L 139.131335 -39.3725 
L 141.974213 -39.3725 
L 144.81709 -39.3725 
L 147.659968 -39.3725 
L 150.502845 -39.3725 
L 153.345723 -39.3725 
L 156.188601 -39.3725 
L 159.031478 -39.3725 
L 161.874356 -39.3725 
L 164.717233 -39.3725 
L 167.560111 -39.3725 
L 170.402989 -39.3725 
L 173.245866 -39.3725 
L 176.088744 -39.3725 
L 178.931621 -39.3725 
L 181.774499 -39.3725 
L 184.617377 -39.3725 
L 187.460254 -39.3725 
L 190.303132 -39.3725 
L 193.146009 -39.3725 
L 195.988887 -39.3725 
L 198.831764 -39.3725 
L 201.674642 -39.3725 
L 204.51752 -39.3725 
L 207.360397 -39.3725 
L 210.203275 -39.3725 
L 213.046152 -39.3725 
L 215.88903 -39.3725 
L 218.731908 -39.3725 
L 221.574785 -39.3725 
L 224.417663 -39.3725 
L 227.26054 -39.3725 
L 230.103418 -39.3725 
L 232.946296 -39.3725 
L 235.789173 -39.3725 
L 238.632051 -39.3725 
L 241.474928 -39.3725 
L 244.317806 -39.3725 
L 247.160684 -39.3725 
L 250.003561 -39.3725 
L 252.846439 -39.3725 
L 255.689316 -39.3725 
L 258.532194 -39.3725 
L 261.375072 -39.3725 
L 264.217949 -39.3725 
L 267.060827 -39.3725 
L 269.903704 -39.3725 
L 272.746582 -39.3725 
L 275.58946 -39.3725 
L 278.432337 -39.3725 
L 281.275215 -39.3725 
L 284.118092 -39.3725 
L 286.96097 -39.3725 
L 289.803848 -39.3725 
L 292.646725 -39.3725 
L 295.489603 -39.3725 
L 298.33248 -39.3725 
L 301.175358 -39.3725 
L 304.018236 -39.3725 
L 306.861113 -39.3725 
L 309.703991 -39.3725 
L 312.546868 -39.3725 
L 315.389746 -39.3725 
L 318.232623 -39.3725 
L 321.075501 -39.3725 
L 323.918379 -39.3725 
L 326.761256 -39.3725 
L 329.604134 -39.3725 
L 332.447011 -39.3725 
L 335.289889 -39.3725 
L 338.132767 -39.3725 
L 340.975644 -39.3725 
L 343.818522 -39.3725 
L 346.661399 -39.3725 
L 349.504277 -39.3725 
L 352.347155 -39.3725 
L 355.190032 -39.3725 
L 358.03291 -39.3725 
L 360.875787 -39.3725 
L 363.718665 -39.3725 
L 366.561543 -39.3725 
L 369.40442 -39.3725 
L 372.247298 -39.3725 
L 375.090175 -39.3725 
L 377.933053 -39.3725 
L 380.775931 -39.3725 
L 383.618808 -39.3725 
L 386.461686 -39.3725 
L 389.304563 -39.3725 
L 392.147441 -39.3725 
L 394.990319 -39.3725 
L 397.833196 -39.3725 
L 400.676074 -39.3725 
L 403.518951 -39.3725 
L 406.361829 -39.3725 
L 409.204707 -39.3725 
L 412.047584 -39.3725 
L 414.890462 -39.3725 
L 417.733339 -39.3725 
L 420.576217 -39.3725 
L 423.419094 -39.3725 
L 426.261972 -39.3725 
L 429.10485 -39.3725 
L 431.947727 -39.3725 
L 431.947727 -39.377889 
L 431.947727 -39.377889 
L 429.10485 -39.401499 
L 426.261972 -39.523612 
L 423.419094 -39.993079 
L 420.576217 -41.419996 
L 417.733339 -44.826714 
L 414.890462 -51.005743 
L 412.047584 -59.042336 
L 409.204707 -65.686841 
L 406.361829 -67.565905 
L 403.518951 -64.403383 
L 400.676074 -58.985155 
L 397.833196 -54.054779 
L 394.990319 -50.764301 
L 392.147441 -50.039035 
L 389.304563 -53.403551 
L 386.461686 -61.590443 
L 383.618808 -73.242334 
L 380.775931 -84.955488 
L 377.933053 -92.381369 
L 375.090175 -93.405523 
L 372.247298 -91.124009 
L 369.40442 -90.749815 
L 366.561543 -92.532495 
L 363.718665 -90.974232 
L 360.875787 -81.985306 
L 358.03291 -67.912555 
L 355.190032 -54.679382 
L 352.347155 -46.059184 
L 349.504277 -41.872664 
L 346.661399 -40.220956 
L 343.818522 -39.643611 
L 340.975644 -39.517705 
L 338.132767 -39.794774 
L 335.289889 -40.930184 
L 332.447011 -43.700167 
L 329.604134 -48.345336 
L 326.761256 -53.690487 
L 323.918379 -57.640868 
L 321.075501 -58.504598 
L 318.232623 -55.836482 
L 315.389746 -50.936031 
L 312.546868 -46.314906 
L 309.703991 -43.815249 
L 306.861113 -43.45308 
L 304.018236 -44.074402 
L 301.175358 -44.619405 
L 298.33248 -44.680726 
L 295.489603 -44.254209 
L 292.646725 -43.422095 
L 289.803848 -42.313586 
L 286.96097 -41.183117 
L 284.118092 -40.407741 
L 281.275215 -40.382504 
L 278.432337 -41.412052 
L 275.58946 -43.407662 
L 272.746582 -45.470492 
L 269.903704 -46.337724 
L 267.060827 -45.787704 
L 264.217949 -44.982941 
L 261.375072 -44.84051 
L 258.532194 -44.811345 
L 255.689316 -43.928687 
L 252.846439 -42.314229 
L 250.003561 -40.882813 
L 247.160684 -40.184579 
L 244.317806 -40.223024 
L 241.474928 -40.995145 
L 238.632051 -42.710296 
L 235.789173 -45.531634 
L 232.946296 -49.108502 
L 230.103418 -52.189091 
L 227.26054 -53.119636 
L 224.417663 -51.408224 
L 221.574785 -48.32989 
L 218.731908 -45.448222 
L 215.88903 -43.31594 
L 213.046152 -41.836158 
L 210.203275 -40.945162 
L 207.360397 -40.686777 
L 204.51752 -41.17115 
L 201.674642 -42.704314 
L 198.831764 -45.885825 
L 195.988887 -51.549221 
L 193.146009 -60.347217 
L 190.303132 -71.854506 
L 187.460254 -84.176624 
L 184.617377 -95.332932 
L 181.774499 -104.972775 
L 178.931621 -113.510901 
L 176.088744 -119.613387 
L 173.245866 -120.234605 
L 170.402989 -113.973665 
L 167.560111 -103.159369 
L 164.717233 -91.710132 
L 161.874356 -82.028317 
L 159.031478 -74.503006 
L 156.188601 -68.982357 
L 153.345723 -66.077368 
L 150.502845 -67.083282 
L 147.659968 -72.458888 
L 144.81709 -80.563088 
L 141.974213 -88.551003 
L 139.131335 -94.197404 
L 136.288457 -96.435712 
L 133.44558 -95.062558 
L 130.602702 -90.683162 
L 127.759825 -84.555697 
L 124.916947 -78.094773 
L 122.074069 -72.432215 
L 119.231192 -68.095208 
L 116.388314 -65.103263 
L 113.545437 -63.558134 
L 110.702559 -63.849521 
L 107.859681 -66.12698 
L 105.016804 -69.62256 
L 102.173926 -72.603444 
L 99.331049 -73.576932 
L 96.488171 -72.448384 
L 93.645293 -69.74029 
L 90.802416 -65.246345 
L 87.959538 -58.617989 
L 85.116661 -51.027051 
L 82.273783 -44.81496 
L 79.430906 -41.2676 
L 76.588028 -39.855777 
L 73.74515 -39.462014 
L 70.902273 -39.384926 
z
" id="mcffb206692" style="stroke:#ffffff;stroke-opacity:0.25;"/>
    </defs>
    <g clip-path="url(#p8d3b73db6e)">
     <use style="fill:#ff7f0e;fill-opacity:0.25;stroke:#ffffff;stroke-opacity:0.25;" x="0" xlink:href="#mcffb206692" y="345.6"/>
    </g>
   </g>
   <g id="PolyCollection_3">
    <defs>
     <path d="M 190.465196 -39.533419 
L 190.465196 -39.3725 
L 190.999746 -39.3725 
L 191.534296 -39.3725 
L 192.068847 -39.3725 
L 192.603397 -39.3725 
L 193.137947 -39.3725 
L 193.672497 -39.3725 
L 194.207048 -39.3725 
L 194.741598 -39.3725 
L 195.276148 -39.3725 
L 195.810698 -39.3725 
L 196.345249 -39.3725 
L 196.879799 -39.3725 
L 197.414349 -39.3725 
L 197.948899 -39.3725 
L 198.48345 -39.3725 
L 199.018 -39.3725 
L 199.55255 -39.3725 
L 200.0871 -39.3725 
L 200.62165 -39.3725 
L 201.156201 -39.3725 
L 201.690751 -39.3725 
L 202.225301 -39.3725 
L 202.759851 -39.3725 
L 203.294402 -39.3725 
L 203.828952 -39.3725 
L 204.363502 -39.3725 
L 204.898052 -39.3725 
L 205.432603 -39.3725 
L 205.967153 -39.3725 
L 206.501703 -39.3725 
L 207.036253 -39.3725 
L 207.570804 -39.3725 
L 208.105354 -39.3725 
L 208.639904 -39.3725 
L 209.174454 -39.3725 
L 209.709005 -39.3725 
L 210.243555 -39.3725 
L 210.778105 -39.3725 
L 211.312655 -39.3725 
L 211.847206 -39.3725 
L 212.381756 -39.3725 
L 212.916306 -39.3725 
L 213.450856 -39.3725 
L 213.985407 -39.3725 
L 214.519957 -39.3725 
L 215.054507 -39.3725 
L 215.589057 -39.3725 
L 216.123607 -39.3725 
L 216.658158 -39.3725 
L 217.192708 -39.3725 
L 217.727258 -39.3725 
L 218.261808 -39.3725 
L 218.796359 -39.3725 
L 219.330909 -39.3725 
L 219.865459 -39.3725 
L 220.400009 -39.3725 
L 220.93456 -39.3725 
L 221.46911 -39.3725 
L 222.00366 -39.3725 
L 222.53821 -39.3725 
L 223.072761 -39.3725 
L 223.607311 -39.3725 
L 224.141861 -39.3725 
L 224.676411 -39.3725 
L 225.210962 -39.3725 
L 225.745512 -39.3725 
L 226.280062 -39.3725 
L 226.814612 -39.3725 
L 227.349163 -39.3725 
L 227.883713 -39.3725 
L 228.418263 -39.3725 
L 228.952813 -39.3725 
L 229.487364 -39.3725 
L 230.021914 -39.3725 
L 230.556464 -39.3725 
L 231.091014 -39.3725 
L 231.625564 -39.3725 
L 232.160115 -39.3725 
L 232.694665 -39.3725 
L 233.229215 -39.3725 
L 233.763765 -39.3725 
L 234.298316 -39.3725 
L 234.832866 -39.3725 
L 235.367416 -39.3725 
L 235.901966 -39.3725 
L 236.436517 -39.3725 
L 236.971067 -39.3725 
L 237.505617 -39.3725 
L 238.040167 -39.3725 
L 238.574718 -39.3725 
L 239.109268 -39.3725 
L 239.643818 -39.3725 
L 240.178368 -39.3725 
L 240.712919 -39.3725 
L 241.247469 -39.3725 
L 241.782019 -39.3725 
L 242.316569 -39.3725 
L 242.85112 -39.3725 
L 243.38567 -39.3725 
L 243.92022 -39.3725 
L 244.45477 -39.3725 
L 244.98932 -39.3725 
L 245.523871 -39.3725 
L 246.058421 -39.3725 
L 246.592971 -39.3725 
L 247.127521 -39.3725 
L 247.662072 -39.3725 
L 248.196622 -39.3725 
L 248.731172 -39.3725 
L 249.265722 -39.3725 
L 249.800273 -39.3725 
L 250.334823 -39.3725 
L 250.869373 -39.3725 
L 251.403923 -39.3725 
L 251.938474 -39.3725 
L 252.473024 -39.3725 
L 253.007574 -39.3725 
L 253.542124 -39.3725 
L 254.076675 -39.3725 
L 254.611225 -39.3725 
L 255.145775 -39.3725 
L 255.680325 -39.3725 
L 256.214876 -39.3725 
L 256.749426 -39.3725 
L 257.283976 -39.3725 
L 257.818526 -39.3725 
L 258.353077 -39.3725 
L 258.353077 -39.518713 
L 258.353077 -39.518713 
L 257.818526 -39.526025 
L 257.283976 -39.555287 
L 256.749426 -39.608555 
L 256.214876 -39.689964 
L 255.680325 -39.80576 
L 255.145775 -39.964393 
L 254.611225 -40.17664 
L 254.076675 -40.455735 
L 253.542124 -40.817486 
L 253.007574 -41.280343 
L 252.473024 -41.865396 
L 251.938474 -42.596268 
L 251.403923 -43.498894 
L 250.869373 -44.601143 
L 250.334823 -45.932299 
L 249.800273 -47.522376 
L 249.265722 -49.401281 
L 248.731172 -51.597855 
L 248.196622 -54.138811 
L 247.662072 -57.047631 
L 247.127521 -60.34349 
L 246.592971 -64.04028 
L 246.058421 -68.145835 
L 245.523871 -72.661444 
L 244.98932 -77.581747 
L 244.45477 -82.895093 
L 243.92022 -88.584394 
L 243.38567 -94.628491 
L 242.85112 -101.003974 
L 242.316569 -107.687348 
L 241.782019 -114.65736 
L 241.247469 -121.897257 
L 240.712919 -129.396705 
L 240.178368 -137.153063 
L 239.643818 -145.171745 
L 239.109268 -153.465447 
L 238.574718 -162.052123 
L 238.040167 -170.951689 
L 237.505617 -180.181623 
L 236.971067 -189.751752 
L 236.436517 -199.658644 
L 235.901966 -209.880172 
L 235.367416 -220.370799 
L 234.832866 -231.058184 
L 234.298316 -241.841568 
L 233.763765 -252.592297 
L 233.229215 -263.156617 
L 232.694665 -273.360664 
L 232.160115 -283.017346 
L 231.625564 -291.934612 
L 231.091014 -299.924478 
L 230.556464 -306.812084 
L 230.021914 -312.444082 
L 229.487364 -316.695729 
L 228.952813 -319.476226 
L 228.418263 -320.732024 
L 227.883713 -320.448038 
L 227.349163 -318.646938 
L 226.814612 -315.386812 
L 226.280062 -310.75765 
L 225.745512 -304.877125 
L 225.210962 -297.886127 
L 224.676411 -289.944428 
L 224.141861 -281.226739 
L 223.607311 -271.919265 
L 223.072761 -262.216721 
L 222.53821 -252.319656 
L 222.00366 -242.431844 
L 221.46911 -232.757462 
L 220.93456 -223.497783 
L 220.400009 -214.847205 
L 219.865459 -206.988483 
L 219.330909 -200.087218 
L 218.796359 -194.285748 
L 218.261808 -189.696733 
L 217.727258 -186.396835 
L 217.192708 -184.420983 
L 216.658158 -183.757712 
L 216.123607 -184.346118 
L 215.589057 -186.074859 
L 215.054507 -188.783549 
L 214.519957 -192.266774 
L 213.985407 -196.28073 
L 213.450856 -200.552341 
L 212.916306 -204.790493 
L 212.381756 -208.69882 
L 211.847206 -211.989356 
L 211.312655 -214.396221 
L 210.778105 -215.68849 
L 210.243555 -215.681387 
L 209.709005 -214.245055 
L 209.174454 -211.310302 
L 208.639904 -206.870938 
L 208.105354 -200.98257 
L 207.570804 -193.75798 
L 207.036253 -185.359476 
L 206.501703 -175.98881 
L 205.967153 -165.875439 
L 205.432603 -155.263963 
L 204.898052 -144.40164 
L 204.363502 -133.526749 
L 203.828952 -122.858527 
L 203.294402 -112.589141 
L 202.759851 -102.878045 
L 202.225301 -93.848777 
L 201.690751 -85.588129 
L 201.156201 -78.147407 
L 200.62165 -71.545411 
L 200.0871 -65.772679 
L 199.55255 -60.796529 
L 199.018 -56.56643 
L 198.48345 -53.019329 
L 197.948899 -50.084595 
L 197.414349 -47.688359 
L 196.879799 -45.757115 
L 196.345249 -44.220514 
L 195.810698 -43.013377 
L 195.276148 -42.07698 
L 194.741598 -41.359722 
L 194.207048 -40.817286 
L 193.672497 -40.412424 
L 193.137947 -40.114479 
L 192.603397 -39.898752 
L 192.068847 -39.745793 
L 191.534296 -39.640702 
L 190.999746 -39.572473 
L 190.465196 -39.533419 
z
" id="md5bd6865b0" style="stroke:#ffffff;stroke-opacity:0.25;"/>
    </defs>
    <g clip-path="url(#p8d3b73db6e)">
     <use style="fill:#2ca02c;fill-opacity:0.25;stroke:#ffffff;stroke-opacity:0.25;" x="0" xlink:href="#md5bd6865b0" y="345.6"/>
    </g>
   </g>
   <g id="line2d_17">
    <path clip-path="url(#p8d3b73db6e)" d="M 73.229923 306.206405 
L 75.970031 306.085057 
L 78.710139 305.509618 
L 81.450247 303.571343 
L 84.190354 298.974844 
L 86.930462 291.42647 
L 89.67057 283.029111 
L 92.410678 276.768263 
L 95.150786 273.175151 
L 97.890893 270.492881 
L 100.631001 268.443443 
L 103.371109 269.2964 
L 106.111217 274.310884 
L 108.851324 281.210258 
L 111.591432 286.298988 
L 114.33154 287.579048 
L 117.071648 285.223112 
L 119.811756 280.443061 
L 122.551863 274.474657 
L 125.291971 268.110436 
L 128.032079 262.053702 
L 130.772187 257.38408 
L 133.512294 254.978698 
L 136.252402 254.635742 
L 138.99251 255.346209 
L 144.472726 257.330241 
L 147.212833 257.956226 
L 149.952941 257.330671 
L 152.693049 254.695272 
L 155.433157 250.091776 
L 158.173265 244.226319 
L 160.913372 237.935958 
L 163.65348 232.358495 
L 166.393588 229.331169 
L 169.133696 230.215002 
L 171.873803 234.392235 
L 174.613911 240.322914 
L 177.354019 247.24938 
L 180.094127 254.859993 
L 182.834235 262.863696 
L 191.054558 288.107113 
L 193.794666 295.097851 
L 196.534773 300.201897 
L 199.274881 303.277953 
L 202.014989 304.806709 
L 204.755097 305.473972 
L 207.495205 305.760874 
L 212.97542 305.954342 
L 226.675959 305.993477 
L 275.997899 305.950087 
L 278.738007 305.882433 
L 281.478115 305.677644 
L 284.218222 305.174618 
L 286.95833 304.186429 
L 289.698438 302.636563 
L 292.438546 300.797378 
L 295.178654 299.335122 
L 297.918761 298.819934 
L 300.658869 299.176655 
L 303.398977 299.84119 
L 306.139085 300.13445 
L 308.879192 299.1295 
L 311.6193 295.713648 
L 314.359408 289.673412 
L 317.099516 282.918766 
L 319.839624 278.796588 
L 322.579731 279.546867 
L 325.319839 284.739065 
L 328.059947 291.869178 
L 330.800055 297.914232 
L 333.540163 300.947424 
L 336.28027 300.800257 
L 339.020378 298.095107 
L 341.760486 292.776782 
L 344.500594 284.291779 
L 347.240701 274.014375 
L 349.980809 266.507843 
L 352.720917 266.002769 
L 355.461025 271.577314 
L 358.201133 277.770557 
L 360.94124 279.906988 
L 363.681348 277.595386 
L 369.161564 269.413698 
L 371.901671 265.323159 
L 374.641779 260.813464 
L 377.381887 257.703533 
L 380.121995 258.640317 
L 382.862103 263.898278 
L 385.60221 270.6624 
L 388.342318 275.337777 
L 391.082426 276.424999 
L 393.822534 275.936887 
L 396.562641 277.788765 
L 399.302749 283.829116 
L 402.042857 292.013155 
L 404.782965 298.971705 
L 407.523073 303.169797 
L 410.26318 305.12066 
L 413.003288 305.876676 
L 415.743396 306.132913 
L 421.223612 306.221938 
L 421.223612 306.221938 
" style="fill:none;stroke:#1f77b4;stroke-linecap:round;stroke-width:1.5;"/>
   </g>
   <g id="line2d_18">
    <path clip-path="url(#p8d3b73db6e)" d="M 70.902273 306.215074 
L 73.74515 306.137986 
L 76.588028 305.744223 
L 79.430906 304.3324 
L 82.273783 300.78504 
L 85.116661 294.572949 
L 87.959538 286.982011 
L 90.802416 280.353655 
L 93.645293 275.85971 
L 96.488171 273.151616 
L 99.331049 272.023068 
L 102.173926 272.996556 
L 105.016804 275.97744 
L 107.859681 279.47302 
L 110.702559 281.750479 
L 113.545437 282.041866 
L 116.388314 280.496737 
L 119.231192 277.504792 
L 122.074069 273.167785 
L 124.916947 267.505227 
L 127.759825 261.044303 
L 130.602702 254.916838 
L 133.44558 250.537442 
L 136.288457 249.164288 
L 139.131335 251.402596 
L 141.974213 257.048997 
L 147.659968 273.141112 
L 150.502845 278.516718 
L 153.345723 279.522632 
L 156.188601 276.617643 
L 159.031478 271.096994 
L 161.874356 263.571683 
L 164.717233 253.889868 
L 167.560111 242.440631 
L 170.402989 231.626335 
L 173.245866 225.365395 
L 176.088744 225.986613 
L 178.931621 232.089099 
L 181.774499 240.627225 
L 184.617377 250.267068 
L 187.460254 261.423376 
L 190.303132 273.745494 
L 193.146009 285.252783 
L 195.988887 294.050779 
L 198.831764 299.714175 
L 201.674642 302.895686 
L 204.51752 304.42885 
L 207.360397 304.913223 
L 210.203275 304.654838 
L 213.046152 303.763842 
L 215.88903 302.28406 
L 218.731908 300.151778 
L 221.574785 297.27011 
L 224.417663 294.191776 
L 227.26054 292.480364 
L 230.103418 293.410909 
L 232.946296 296.491498 
L 235.789173 300.068366 
L 238.632051 302.889704 
L 241.474928 304.604855 
L 244.317806 305.376976 
L 247.160684 305.415421 
L 250.003561 304.717187 
L 252.846439 303.285771 
L 255.689316 301.671313 
L 258.532194 300.788655 
L 261.375072 300.75949 
L 264.217949 300.617059 
L 267.060827 299.812296 
L 269.903704 299.262276 
L 272.746582 300.129508 
L 278.432337 304.187948 
L 281.275215 305.217496 
L 284.118092 305.192259 
L 286.96097 304.416883 
L 292.646725 302.177905 
L 295.489603 301.345791 
L 298.33248 300.919274 
L 301.175358 300.980595 
L 306.861113 302.14692 
L 309.703991 301.784751 
L 312.546868 299.285094 
L 315.389746 294.663969 
L 318.232623 289.763518 
L 321.075501 287.095402 
L 323.918379 287.959132 
L 326.761256 291.909513 
L 329.604134 297.254664 
L 332.447011 301.899833 
L 335.289889 304.669816 
L 338.132767 305.805226 
L 340.975644 306.082295 
L 343.818522 305.956389 
L 346.661399 305.379044 
L 349.504277 303.727336 
L 352.347155 299.540816 
L 355.190032 290.920618 
L 358.03291 277.687445 
L 360.875787 263.614694 
L 363.718665 254.625768 
L 366.561543 253.067505 
L 369.40442 254.850185 
L 372.247298 254.475991 
L 375.090175 252.194477 
L 377.933053 253.218631 
L 380.775931 260.644512 
L 386.461686 284.009557 
L 389.304563 292.196449 
L 392.147441 295.560965 
L 394.990319 294.835699 
L 397.833196 291.545221 
L 400.676074 286.614845 
L 403.518951 281.196617 
L 406.361829 278.034095 
L 409.204707 279.913159 
L 412.047584 286.557664 
L 414.890462 294.594257 
L 417.733339 300.773286 
L 420.576217 304.180004 
L 423.419094 305.606921 
L 426.261972 306.076388 
L 431.947727 306.222111 
L 431.947727 306.222111 
" style="fill:none;stroke:#ff7f0e;stroke-linecap:round;stroke-width:1.5;"/>
   </g>
   <g id="line2d_19">
    <path clip-path="url(#p8d3b73db6e)" d="M 190.465196 306.066581 
L 192.068847 305.854207 
L 193.137947 305.485521 
L 194.207048 304.782714 
L 194.741598 304.240278 
L 195.276148 303.52302 
L 195.810698 302.586623 
L 196.345249 301.379486 
L 196.879799 299.842885 
L 197.414349 297.911641 
L 197.948899 295.515405 
L 199.018 289.03357 
L 200.0871 279.827321 
L 201.156201 267.452593 
L 202.225301 251.751223 
L 203.294402 233.010859 
L 207.570804 151.84202 
L 208.639904 138.729062 
L 209.174454 134.289698 
L 209.709005 131.354945 
L 210.243555 129.918613 
L 210.778105 129.91151 
L 211.312655 131.203779 
L 211.847206 133.610644 
L 212.916306 140.809507 
L 214.519957 153.333226 
L 215.054507 156.816451 
L 215.589057 159.525141 
L 216.123607 161.253882 
L 216.658158 161.842288 
L 217.192708 161.179017 
L 217.727258 159.203165 
L 218.261808 155.903267 
L 218.796359 151.314252 
L 219.865459 138.611517 
L 220.93456 122.102217 
L 223.072761 83.383279 
L 224.676411 55.655572 
L 225.745512 40.722875 
L 226.280062 34.84235 
L 226.814612 30.213188 
L 227.349163 26.953062 
L 227.883713 25.151962 
L 228.418263 24.867976 
L 228.952813 26.123774 
L 229.487364 28.904271 
L 230.021914 33.155918 
L 230.556464 38.787916 
L 231.625564 53.665388 
L 232.694665 72.239336 
L 235.367416 125.229201 
L 237.505617 165.418377 
L 239.643818 200.428255 
L 241.782019 230.94264 
L 243.38567 250.971509 
L 244.98932 268.018253 
L 246.058421 277.454165 
L 247.127521 285.25651 
L 248.196622 291.461189 
L 249.265722 296.198719 
L 250.334823 299.667701 
L 251.403923 302.101106 
L 252.473024 303.734604 
L 253.542124 304.782514 
L 254.611225 305.42336 
L 255.680325 305.79424 
L 257.283976 306.044713 
L 258.353077 306.081287 
L 258.353077 306.081287 
" style="fill:none;stroke:#2ca02c;stroke-linecap:round;stroke-width:1.5;"/>
   </g>
   <g id="patch_3">
    <path d="M 52.85 306.2275 
L 52.85 10.8 
" style="fill:none;stroke:#cccccc;stroke-linecap:square;stroke-linejoin:miter;stroke-width:0.8;"/>
   </g>
   <g id="patch_4">
    <path d="M 450 306.2275 
L 450 10.8 
" style="fill:none;stroke:#cccccc;stroke-linecap:square;stroke-linejoin:miter;stroke-width:0.8;"/>
   </g>
   <g id="patch_5">
    <path d="M 52.85 306.2275 
L 450 306.2275 
" style="fill:none;stroke:#cccccc;stroke-linecap:square;stroke-linejoin:miter;stroke-width:0.8;"/>
   </g>
   <g id="patch_6">
    <path d="M 52.85 10.8 
L 450 10.8 
" style="fill:none;stroke:#cccccc;stroke-linecap:square;stroke-linejoin:miter;stroke-width:0.8;"/>
   </g>
   <g id="legend_1">
    <g id="patch_7">
     <path d="M 301.1 47.090625 
L 443 47.090625 
Q 445 47.090625 445 45.090625 
L 445 17.8 
Q 445 15.8 443 15.8 
L 301.1 15.8 
Q 299.1 15.8 299.1 17.8 
L 299.1 45.090625 
Q 299.1 47.090625 301.1 47.090625 
z
" style="fill:#ffffff;opacity:0.8;stroke:#cccccc;stroke-linejoin:miter;"/>
    </g>
    <g id="patch_8">
     <path d="M 303.1 26.957813 
L 323.1 26.957813 
L 323.1 19.957813 
L 303.1 19.957813 
z
" style="fill:#1f77b4;opacity:0.25;stroke:#ffffff;stroke-linejoin:miter;"/>
    </g>
    <g id="text_19">
     <!-- x -->
     <defs>
      <path d="M 0.734375 0 
L 19.671875 26.953125 
L 2.15625 51.859375 
L 13.140625 51.859375 
L 21.09375 39.703125 
Q 23.34375 36.234375 24.703125 33.890625 
Q 26.859375 37.109375 28.65625 39.59375 
L 37.40625 51.859375 
L 47.90625 51.859375 
L 29.984375 27.4375 
L 49.265625 0 
L 38.484375 0 
L 27.828125 16.109375 
L 25 20.453125 
L 11.375 0 
z
" id="ArialMT-120"/>
     </defs>
     <g style="fill:#262626;" transform="translate(331.1 26.957813)scale(0.1 -0.1)">
      <use xlink:href="#ArialMT-120"/>
     </g>
    </g>
    <g id="patch_9">
     <path d="M 303.1 41.103125 
L 323.1 41.103125 
L 323.1 34.103125 
L 303.1 34.103125 
z
" style="fill:#ff7f0e;opacity:0.25;stroke:#ffffff;stroke-linejoin:miter;"/>
    </g>
    <g id="text_20">
     <!-- x'-RNN -->
     <defs>
      <path d="M 6.640625 46.234375 
L 4.390625 59.625 
L 4.390625 71.578125 
L 14.40625 71.578125 
L 14.40625 59.625 
L 12.0625 46.234375 
z
" id="ArialMT-39"/>
      <path d="M 3.171875 21.484375 
L 3.171875 30.328125 
L 30.171875 30.328125 
L 30.171875 21.484375 
z
" id="ArialMT-45"/>
      <path d="M 7.859375 0 
L 7.859375 71.578125 
L 39.59375 71.578125 
Q 49.171875 71.578125 54.140625 69.640625 
Q 59.125 67.71875 62.109375 62.828125 
Q 65.09375 57.953125 65.09375 52.046875 
Q 65.09375 44.4375 60.15625 39.203125 
Q 55.21875 33.984375 44.921875 32.5625 
Q 48.6875 30.765625 50.640625 29 
Q 54.78125 25.203125 58.5 19.484375 
L 70.953125 0 
L 59.03125 0 
L 49.5625 14.890625 
Q 45.40625 21.34375 42.71875 24.75 
Q 40.046875 28.171875 37.921875 29.53125 
Q 35.796875 30.90625 33.59375 31.453125 
Q 31.984375 31.78125 28.328125 31.78125 
L 17.328125 31.78125 
L 17.328125 0 
z
M 17.328125 39.984375 
L 37.703125 39.984375 
Q 44.1875 39.984375 47.84375 41.328125 
Q 51.515625 42.671875 53.421875 45.625 
Q 55.328125 48.578125 55.328125 52.046875 
Q 55.328125 57.125 51.640625 60.390625 
Q 47.953125 63.671875 39.984375 63.671875 
L 17.328125 63.671875 
z
" id="ArialMT-82"/>
      <path d="M 7.625 0 
L 7.625 71.578125 
L 17.328125 71.578125 
L 54.9375 15.375 
L 54.9375 71.578125 
L 64.015625 71.578125 
L 64.015625 0 
L 54.296875 0 
L 16.703125 56.25 
L 16.703125 0 
z
" id="ArialMT-78"/>
     </defs>
     <g style="fill:#262626;" transform="translate(331.1 41.103125)scale(0.1 -0.1)">
      <use xlink:href="#ArialMT-120"/>
      <use x="50" xlink:href="#ArialMT-39"/>
      <use x="69.091797" xlink:href="#ArialMT-45"/>
      <use x="102.392578" xlink:href="#ArialMT-82"/>
      <use x="174.609375" xlink:href="#ArialMT-78"/>
      <use x="246.826172" xlink:href="#ArialMT-78"/>
     </g>
    </g>
    <g id="patch_10">
     <path d="M 383.004688 26.957813 
L 403.004688 26.957813 
L 403.004688 19.957813 
L 383.004688 19.957813 
z
" style="fill:#2ca02c;opacity:0.25;stroke:#ffffff;stroke-linejoin:miter;"/>
    </g>
    <g id="text_21">
     <!-- z-RNN -->
     <defs>
      <path d="M 1.953125 0 
L 1.953125 7.125 
L 34.96875 45.015625 
Q 29.34375 44.734375 25.046875 44.734375 
L 3.90625 44.734375 
L 3.90625 51.859375 
L 46.296875 51.859375 
L 46.296875 46.046875 
L 18.21875 13.140625 
L 12.796875 7.125 
Q 18.703125 7.5625 23.875 7.5625 
L 47.859375 7.5625 
L 47.859375 0 
z
" id="ArialMT-122"/>
     </defs>
     <g style="fill:#262626;" transform="translate(411.004688 26.957813)scale(0.1 -0.1)">
      <use xlink:href="#ArialMT-122"/>
      <use x="50" xlink:href="#ArialMT-45"/>
      <use x="83.300781" xlink:href="#ArialMT-82"/>
      <use x="155.517578" xlink:href="#ArialMT-78"/>
      <use x="227.734375" xlink:href="#ArialMT-78"/>
     </g>
    </g>
   </g>
  </g>
 </g>
 <defs>
  <clipPath id="p8d3b73db6e">
   <rect height="295.4275" width="397.15" x="52.85" y="10.8"/>
  </clipPath>
 </defs>
</svg>
