<?xml version="1.0" encoding="utf-8" standalone="no"?>
<!DOCTYPE svg PUBLIC "-//W3C//DTD SVG 1.1//EN"
  "http://www.w3.org/Graphics/SVG/1.1/DTD/svg11.dtd">
<!-- Created with matplotlib (https://matplotlib.org/) -->
<svg height="345.6pt" version="1.1" viewBox="0 0 460.8 345.6" width="460.8pt" xmlns="http://www.w3.org/2000/svg" xmlns:xlink="http://www.w3.org/1999/xlink">
 <defs>
  <style type="text/css">
*{stroke-linecap:butt;stroke-linejoin:round;}
  </style>
 </defs>
 <g id="figure_1">
  <g id="patch_1">
   <path d="M 0 345.6 
L 460.8 345.6 
L 460.8 0 
L 0 0 
z
" style="fill:#ffffff;"/>
  </g>
  <g id="axes_1">
   <g id="patch_2">
    <path d="M 52.85 306.2275 
L 450 306.2275 
L 450 10.838719 
L 52.85 10.838719 
z
" style="fill:#ffffff;"/>
   </g>
   <g id="matplotlib.axis_1">
    <g id="xtick_1">
     <g id="line2d_1">
      <path clip-path="url(#pb69864aed5)" d="M 56.883175 306.2275 
L 56.883175 10.838719 
" style="fill:none;stroke:#cccccc;stroke-linecap:round;stroke-width:0.8;"/>
     </g>
     <g id="text_1">
      <!-- −10 -->
      <defs>
       <path d="M 52.828125 31.203125 
L 5.5625 31.203125 
L 5.5625 39.40625 
L 52.828125 39.40625 
z
" id="ArialMT-8722"/>
       <path d="M 37.25 0 
L 28.46875 0 
L 28.46875 56 
Q 25.296875 52.984375 20.140625 49.953125 
Q 14.984375 46.921875 10.890625 45.40625 
L 10.890625 53.90625 
Q 18.265625 57.375 23.78125 62.296875 
Q 29.296875 67.234375 31.59375 71.875 
L 37.25 71.875 
z
" id="ArialMT-49"/>
       <path d="M 4.15625 35.296875 
Q 4.15625 48 6.765625 55.734375 
Q 9.375 63.484375 14.515625 67.671875 
Q 19.671875 71.875 27.484375 71.875 
Q 33.25 71.875 37.59375 69.546875 
Q 41.9375 67.234375 44.765625 62.859375 
Q 47.609375 58.5 49.21875 52.21875 
Q 50.828125 45.953125 50.828125 35.296875 
Q 50.828125 22.703125 48.234375 14.96875 
Q 45.65625 7.234375 40.5 3 
Q 35.359375 -1.21875 27.484375 -1.21875 
Q 17.140625 -1.21875 11.234375 6.203125 
Q 4.15625 15.140625 4.15625 35.296875 
z
M 13.1875 35.296875 
Q 13.1875 17.671875 17.3125 11.828125 
Q 21.4375 6 27.484375 6 
Q 33.546875 6 37.671875 11.859375 
Q 41.796875 17.71875 41.796875 35.296875 
Q 41.796875 52.984375 37.671875 58.78125 
Q 33.546875 64.59375 27.390625 64.59375 
Q 21.34375 64.59375 17.71875 59.46875 
Q 13.1875 52.9375 13.1875 35.296875 
z
" id="ArialMT-48"/>
      </defs>
      <g style="fill:#262626;" transform="translate(48.401925 320.385312)scale(0.1 -0.1)">
       <use xlink:href="#ArialMT-8722"/>
       <use x="58.398438" xlink:href="#ArialMT-49"/>
       <use x="114.013672" xlink:href="#ArialMT-48"/>
      </g>
     </g>
    </g>
    <g id="xtick_2">
     <g id="line2d_2">
      <path clip-path="url(#pb69864aed5)" d="M 117.894557 306.2275 
L 117.894557 10.838719 
" style="fill:none;stroke:#cccccc;stroke-linecap:round;stroke-width:0.8;"/>
     </g>
     <g id="text_2">
      <!-- −5 -->
      <defs>
       <path d="M 4.15625 18.75 
L 13.375 19.53125 
Q 14.40625 12.796875 18.140625 9.390625 
Q 21.875 6 27.15625 6 
Q 33.5 6 37.890625 10.78125 
Q 42.28125 15.578125 42.28125 23.484375 
Q 42.28125 31 38.0625 35.34375 
Q 33.84375 39.703125 27 39.703125 
Q 22.75 39.703125 19.328125 37.765625 
Q 15.921875 35.84375 13.96875 32.765625 
L 5.71875 33.84375 
L 12.640625 70.609375 
L 48.25 70.609375 
L 48.25 62.203125 
L 19.671875 62.203125 
L 15.828125 42.96875 
Q 22.265625 47.46875 29.34375 47.46875 
Q 38.71875 47.46875 45.15625 40.96875 
Q 51.609375 34.46875 51.609375 24.265625 
Q 51.609375 14.546875 45.953125 7.46875 
Q 39.0625 -1.21875 27.15625 -1.21875 
Q 17.390625 -1.21875 11.203125 4.25 
Q 5.03125 9.71875 4.15625 18.75 
z
" id="ArialMT-53"/>
      </defs>
      <g style="fill:#262626;" transform="translate(112.193776 320.385312)scale(0.1 -0.1)">
       <use xlink:href="#ArialMT-8722"/>
       <use x="58.398438" xlink:href="#ArialMT-53"/>
      </g>
     </g>
    </g>
    <g id="xtick_3">
     <g id="line2d_3">
      <path clip-path="url(#pb69864aed5)" d="M 178.90594 306.2275 
L 178.90594 10.838719 
" style="fill:none;stroke:#cccccc;stroke-linecap:round;stroke-width:0.8;"/>
     </g>
     <g id="text_3">
      <!-- 0 -->
      <g style="fill:#262626;" transform="translate(176.125471 320.385312)scale(0.1 -0.1)">
       <use xlink:href="#ArialMT-48"/>
      </g>
     </g>
    </g>
    <g id="xtick_4">
     <g id="line2d_4">
      <path clip-path="url(#pb69864aed5)" d="M 239.917322 306.2275 
L 239.917322 10.838719 
" style="fill:none;stroke:#cccccc;stroke-linecap:round;stroke-width:0.8;"/>
     </g>
     <g id="text_4">
      <!-- 5 -->
      <g style="fill:#262626;" transform="translate(237.136853 320.385312)scale(0.1 -0.1)">
       <use xlink:href="#ArialMT-53"/>
      </g>
     </g>
    </g>
    <g id="xtick_5">
     <g id="line2d_5">
      <path clip-path="url(#pb69864aed5)" d="M 300.928704 306.2275 
L 300.928704 10.838719 
" style="fill:none;stroke:#cccccc;stroke-linecap:round;stroke-width:0.8;"/>
     </g>
     <g id="text_5">
      <!-- 10 -->
      <g style="fill:#262626;" transform="translate(295.367767 320.385312)scale(0.1 -0.1)">
       <use xlink:href="#ArialMT-49"/>
       <use x="55.615234" xlink:href="#ArialMT-48"/>
      </g>
     </g>
    </g>
    <g id="xtick_6">
     <g id="line2d_6">
      <path clip-path="url(#pb69864aed5)" d="M 361.940087 306.2275 
L 361.940087 10.838719 
" style="fill:none;stroke:#cccccc;stroke-linecap:round;stroke-width:0.8;"/>
     </g>
     <g id="text_6">
      <!-- 15 -->
      <g style="fill:#262626;" transform="translate(356.379149 320.385312)scale(0.1 -0.1)">
       <use xlink:href="#ArialMT-49"/>
       <use x="55.615234" xlink:href="#ArialMT-53"/>
      </g>
     </g>
    </g>
    <g id="xtick_7">
     <g id="line2d_7">
      <path clip-path="url(#pb69864aed5)" d="M 422.951469 306.2275 
L 422.951469 10.838719 
" style="fill:none;stroke:#cccccc;stroke-linecap:round;stroke-width:0.8;"/>
     </g>
     <g id="text_7">
      <!-- 20 -->
      <defs>
       <path d="M 50.34375 8.453125 
L 50.34375 0 
L 3.03125 0 
Q 2.9375 3.171875 4.046875 6.109375 
Q 5.859375 10.9375 9.828125 15.625 
Q 13.8125 20.3125 21.34375 26.46875 
Q 33.015625 36.03125 37.109375 41.625 
Q 41.21875 47.21875 41.21875 52.203125 
Q 41.21875 57.421875 37.46875 61 
Q 33.734375 64.59375 27.734375 64.59375 
Q 21.390625 64.59375 17.578125 60.78125 
Q 13.765625 56.984375 13.71875 50.25 
L 4.6875 51.171875 
Q 5.609375 61.28125 11.65625 66.578125 
Q 17.71875 71.875 27.9375 71.875 
Q 38.234375 71.875 44.234375 66.15625 
Q 50.25 60.453125 50.25 52 
Q 50.25 47.703125 48.484375 43.546875 
Q 46.734375 39.40625 42.65625 34.8125 
Q 38.578125 30.21875 29.109375 22.21875 
Q 21.1875 15.578125 18.9375 13.203125 
Q 16.703125 10.84375 15.234375 8.453125 
z
" id="ArialMT-50"/>
      </defs>
      <g style="fill:#262626;" transform="translate(417.390531 320.385312)scale(0.1 -0.1)">
       <use xlink:href="#ArialMT-50"/>
       <use x="55.615234" xlink:href="#ArialMT-48"/>
      </g>
     </g>
    </g>
    <g id="text_8">
     <!-- Component values -->
     <defs>
      <path d="M 58.796875 25.09375 
L 68.265625 22.703125 
Q 65.28125 11.03125 57.546875 4.90625 
Q 49.8125 -1.21875 38.625 -1.21875 
Q 27.046875 -1.21875 19.796875 3.484375 
Q 12.546875 8.203125 8.765625 17.140625 
Q 4.984375 26.078125 4.984375 36.328125 
Q 4.984375 47.515625 9.25 55.828125 
Q 13.53125 64.15625 21.40625 68.46875 
Q 29.296875 72.796875 38.765625 72.796875 
Q 49.515625 72.796875 56.828125 67.328125 
Q 64.15625 61.859375 67.046875 51.953125 
L 57.71875 49.75 
Q 55.21875 57.5625 50.484375 61.125 
Q 45.75 64.703125 38.578125 64.703125 
Q 30.328125 64.703125 24.78125 60.734375 
Q 19.234375 56.78125 16.984375 50.109375 
Q 14.75 43.453125 14.75 36.375 
Q 14.75 27.25 17.40625 20.4375 
Q 20.0625 13.625 25.671875 10.25 
Q 31.296875 6.890625 37.84375 6.890625 
Q 45.796875 6.890625 51.3125 11.46875 
Q 56.84375 16.0625 58.796875 25.09375 
z
" id="ArialMT-67"/>
      <path d="M 3.328125 25.921875 
Q 3.328125 40.328125 11.328125 47.265625 
Q 18.015625 53.03125 27.640625 53.03125 
Q 38.328125 53.03125 45.109375 46.015625 
Q 51.90625 39.015625 51.90625 26.65625 
Q 51.90625 16.65625 48.90625 10.90625 
Q 45.90625 5.171875 40.15625 2 
Q 34.421875 -1.171875 27.640625 -1.171875 
Q 16.75 -1.171875 10.03125 5.8125 
Q 3.328125 12.796875 3.328125 25.921875 
z
M 12.359375 25.921875 
Q 12.359375 15.96875 16.703125 11.015625 
Q 21.046875 6.0625 27.640625 6.0625 
Q 34.1875 6.0625 38.53125 11.03125 
Q 42.875 16.015625 42.875 26.21875 
Q 42.875 35.84375 38.5 40.796875 
Q 34.125 45.75 27.640625 45.75 
Q 21.046875 45.75 16.703125 40.8125 
Q 12.359375 35.890625 12.359375 25.921875 
z
" id="ArialMT-111"/>
      <path d="M 6.59375 0 
L 6.59375 51.859375 
L 14.453125 51.859375 
L 14.453125 44.578125 
Q 16.890625 48.390625 20.9375 50.703125 
Q 25 53.03125 30.171875 53.03125 
Q 35.9375 53.03125 39.625 50.640625 
Q 43.3125 48.25 44.828125 43.953125 
Q 50.984375 53.03125 60.84375 53.03125 
Q 68.5625 53.03125 72.703125 48.75 
Q 76.859375 44.484375 76.859375 35.59375 
L 76.859375 0 
L 68.109375 0 
L 68.109375 32.671875 
Q 68.109375 37.9375 67.25 40.25 
Q 66.40625 42.578125 64.15625 43.984375 
Q 61.921875 45.40625 58.890625 45.40625 
Q 53.421875 45.40625 49.796875 41.765625 
Q 46.1875 38.140625 46.1875 30.125 
L 46.1875 0 
L 37.40625 0 
L 37.40625 33.6875 
Q 37.40625 39.546875 35.25 42.46875 
Q 33.109375 45.40625 28.21875 45.40625 
Q 24.515625 45.40625 21.359375 43.453125 
Q 18.21875 41.5 16.796875 37.734375 
Q 15.375 33.984375 15.375 26.90625 
L 15.375 0 
z
" id="ArialMT-109"/>
      <path d="M 6.59375 -19.875 
L 6.59375 51.859375 
L 14.59375 51.859375 
L 14.59375 45.125 
Q 17.4375 49.078125 21 51.046875 
Q 24.5625 53.03125 29.640625 53.03125 
Q 36.28125 53.03125 41.359375 49.609375 
Q 46.4375 46.1875 49.015625 39.953125 
Q 51.609375 33.734375 51.609375 26.3125 
Q 51.609375 18.359375 48.75 11.984375 
Q 45.90625 5.609375 40.453125 2.21875 
Q 35.015625 -1.171875 29 -1.171875 
Q 24.609375 -1.171875 21.109375 0.6875 
Q 17.625 2.546875 15.375 5.375 
L 15.375 -19.875 
z
M 14.546875 25.640625 
Q 14.546875 15.625 18.59375 10.84375 
Q 22.65625 6.0625 28.421875 6.0625 
Q 34.28125 6.0625 38.453125 11.015625 
Q 42.625 15.96875 42.625 26.375 
Q 42.625 36.28125 38.546875 41.203125 
Q 34.46875 46.140625 28.8125 46.140625 
Q 23.1875 46.140625 18.859375 40.890625 
Q 14.546875 35.640625 14.546875 25.640625 
z
" id="ArialMT-112"/>
      <path d="M 6.59375 0 
L 6.59375 51.859375 
L 14.5 51.859375 
L 14.5 44.484375 
Q 20.21875 53.03125 31 53.03125 
Q 35.6875 53.03125 39.625 51.34375 
Q 43.5625 49.65625 45.515625 46.921875 
Q 47.46875 44.1875 48.25 40.4375 
Q 48.734375 37.984375 48.734375 31.890625 
L 48.734375 0 
L 39.9375 0 
L 39.9375 31.546875 
Q 39.9375 36.921875 38.90625 39.578125 
Q 37.890625 42.234375 35.28125 43.8125 
Q 32.671875 45.40625 29.15625 45.40625 
Q 23.53125 45.40625 19.453125 41.84375 
Q 15.375 38.28125 15.375 28.328125 
L 15.375 0 
z
" id="ArialMT-110"/>
      <path d="M 42.09375 16.703125 
L 51.171875 15.578125 
Q 49.03125 7.625 43.21875 3.21875 
Q 37.40625 -1.171875 28.375 -1.171875 
Q 17 -1.171875 10.328125 5.828125 
Q 3.65625 12.84375 3.65625 25.484375 
Q 3.65625 38.578125 10.390625 45.796875 
Q 17.140625 53.03125 27.875 53.03125 
Q 38.28125 53.03125 44.875 45.953125 
Q 51.46875 38.875 51.46875 26.03125 
Q 51.46875 25.25 51.421875 23.6875 
L 12.75 23.6875 
Q 13.234375 15.140625 17.578125 10.59375 
Q 21.921875 6.0625 28.421875 6.0625 
Q 33.25 6.0625 36.671875 8.59375 
Q 40.09375 11.140625 42.09375 16.703125 
z
M 13.234375 30.90625 
L 42.1875 30.90625 
Q 41.609375 37.453125 38.875 40.71875 
Q 34.671875 45.796875 27.984375 45.796875 
Q 21.921875 45.796875 17.796875 41.75 
Q 13.671875 37.703125 13.234375 30.90625 
z
" id="ArialMT-101"/>
      <path d="M 25.78125 7.859375 
L 27.046875 0.09375 
Q 23.34375 -0.6875 20.40625 -0.6875 
Q 15.625 -0.6875 12.984375 0.828125 
Q 10.359375 2.34375 9.28125 4.8125 
Q 8.203125 7.28125 8.203125 15.1875 
L 8.203125 45.015625 
L 1.765625 45.015625 
L 1.765625 51.859375 
L 8.203125 51.859375 
L 8.203125 64.703125 
L 16.9375 69.96875 
L 16.9375 51.859375 
L 25.78125 51.859375 
L 25.78125 45.015625 
L 16.9375 45.015625 
L 16.9375 14.703125 
Q 16.9375 10.9375 17.40625 9.859375 
Q 17.875 8.796875 18.921875 8.15625 
Q 19.96875 7.515625 21.921875 7.515625 
Q 23.390625 7.515625 25.78125 7.859375 
z
" id="ArialMT-116"/>
      <path id="ArialMT-32"/>
      <path d="M 21 0 
L 1.265625 51.859375 
L 10.546875 51.859375 
L 21.6875 20.796875 
Q 23.484375 15.765625 25 10.359375 
Q 26.171875 14.453125 28.265625 20.21875 
L 39.796875 51.859375 
L 48.828125 51.859375 
L 29.203125 0 
z
" id="ArialMT-118"/>
      <path d="M 40.4375 6.390625 
Q 35.546875 2.25 31.03125 0.53125 
Q 26.515625 -1.171875 21.34375 -1.171875 
Q 12.796875 -1.171875 8.203125 3 
Q 3.609375 7.171875 3.609375 13.671875 
Q 3.609375 17.484375 5.34375 20.625 
Q 7.078125 23.78125 9.890625 25.6875 
Q 12.703125 27.59375 16.21875 28.5625 
Q 18.796875 29.25 24.03125 29.890625 
Q 34.671875 31.15625 39.703125 32.90625 
Q 39.75 34.71875 39.75 35.203125 
Q 39.75 40.578125 37.25 42.78125 
Q 33.890625 45.75 27.25 45.75 
Q 21.046875 45.75 18.09375 43.578125 
Q 15.140625 41.40625 13.71875 35.890625 
L 5.125 37.0625 
Q 6.296875 42.578125 8.984375 45.96875 
Q 11.671875 49.359375 16.75 51.1875 
Q 21.828125 53.03125 28.515625 53.03125 
Q 35.15625 53.03125 39.296875 51.46875 
Q 43.453125 49.90625 45.40625 47.53125 
Q 47.359375 45.171875 48.140625 41.546875 
Q 48.578125 39.3125 48.578125 33.453125 
L 48.578125 21.734375 
Q 48.578125 9.46875 49.140625 6.21875 
Q 49.703125 2.984375 51.375 0 
L 42.1875 0 
Q 40.828125 2.734375 40.4375 6.390625 
z
M 39.703125 26.03125 
Q 34.90625 24.078125 25.34375 22.703125 
Q 19.921875 21.921875 17.671875 20.9375 
Q 15.4375 19.96875 14.203125 18.09375 
Q 12.984375 16.21875 12.984375 13.921875 
Q 12.984375 10.40625 15.640625 8.0625 
Q 18.3125 5.71875 23.4375 5.71875 
Q 28.515625 5.71875 32.46875 7.9375 
Q 36.421875 10.15625 38.28125 14.015625 
Q 39.703125 17 39.703125 22.796875 
z
" id="ArialMT-97"/>
      <path d="M 6.390625 0 
L 6.390625 71.578125 
L 15.1875 71.578125 
L 15.1875 0 
z
" id="ArialMT-108"/>
      <path d="M 40.578125 0 
L 40.578125 7.625 
Q 34.515625 -1.171875 24.125 -1.171875 
Q 19.53125 -1.171875 15.546875 0.578125 
Q 11.578125 2.34375 9.640625 5 
Q 7.71875 7.671875 6.9375 11.53125 
Q 6.390625 14.109375 6.390625 19.734375 
L 6.390625 51.859375 
L 15.1875 51.859375 
L 15.1875 23.09375 
Q 15.1875 16.21875 15.71875 13.8125 
Q 16.546875 10.359375 19.234375 8.375 
Q 21.921875 6.390625 25.875 6.390625 
Q 29.828125 6.390625 33.296875 8.421875 
Q 36.765625 10.453125 38.203125 13.9375 
Q 39.65625 17.4375 39.65625 24.078125 
L 39.65625 51.859375 
L 48.4375 51.859375 
L 48.4375 0 
z
" id="ArialMT-117"/>
      <path d="M 3.078125 15.484375 
L 11.765625 16.84375 
Q 12.5 11.625 15.84375 8.84375 
Q 19.1875 6.0625 25.203125 6.0625 
Q 31.25 6.0625 34.171875 8.515625 
Q 37.109375 10.984375 37.109375 14.3125 
Q 37.109375 17.28125 34.515625 19 
Q 32.71875 20.171875 25.53125 21.96875 
Q 15.875 24.421875 12.140625 26.203125 
Q 8.40625 27.984375 6.46875 31.125 
Q 4.546875 34.28125 4.546875 38.09375 
Q 4.546875 41.546875 6.125 44.5 
Q 7.71875 47.46875 10.453125 49.421875 
Q 12.5 50.921875 16.03125 51.96875 
Q 19.578125 53.03125 23.640625 53.03125 
Q 29.734375 53.03125 34.34375 51.265625 
Q 38.96875 49.515625 41.15625 46.5 
Q 43.359375 43.5 44.1875 38.484375 
L 35.59375 37.3125 
Q 35.015625 41.3125 32.203125 43.546875 
Q 29.390625 45.796875 24.265625 45.796875 
Q 18.21875 45.796875 15.625 43.796875 
Q 13.03125 41.796875 13.03125 39.109375 
Q 13.03125 37.40625 14.109375 36.03125 
Q 15.1875 34.625 17.484375 33.6875 
Q 18.796875 33.203125 25.25 31.453125 
Q 34.578125 28.953125 38.25 27.359375 
Q 41.9375 25.78125 44.03125 22.75 
Q 46.140625 19.734375 46.140625 15.234375 
Q 46.140625 10.84375 43.578125 6.953125 
Q 41.015625 3.078125 36.171875 0.953125 
Q 31.34375 -1.171875 25.25 -1.171875 
Q 15.140625 -1.171875 9.84375 3.03125 
Q 4.546875 7.234375 3.078125 15.484375 
z
" id="ArialMT-115"/>
     </defs>
     <g style="fill:#262626;" transform="translate(209.735938 333.6525)scale(0.1 -0.1)">
      <use xlink:href="#ArialMT-67"/>
      <use x="72.216797" xlink:href="#ArialMT-111"/>
      <use x="127.832031" xlink:href="#ArialMT-109"/>
      <use x="211.132812" xlink:href="#ArialMT-112"/>
      <use x="266.748047" xlink:href="#ArialMT-111"/>
      <use x="322.363281" xlink:href="#ArialMT-110"/>
      <use x="377.978516" xlink:href="#ArialMT-101"/>
      <use x="433.59375" xlink:href="#ArialMT-110"/>
      <use x="489.208984" xlink:href="#ArialMT-116"/>
      <use x="516.992188" xlink:href="#ArialMT-32"/>
      <use x="544.775391" xlink:href="#ArialMT-118"/>
      <use x="594.775391" xlink:href="#ArialMT-97"/>
      <use x="650.390625" xlink:href="#ArialMT-108"/>
      <use x="672.607422" xlink:href="#ArialMT-117"/>
      <use x="728.222656" xlink:href="#ArialMT-101"/>
      <use x="783.837891" xlink:href="#ArialMT-115"/>
     </g>
    </g>
   </g>
   <g id="matplotlib.axis_2">
    <g id="ytick_1">
     <g id="line2d_8">
      <path clip-path="url(#pb69864aed5)" d="M 52.85 306.2275 
L 450 306.2275 
" style="fill:none;stroke:#cccccc;stroke-linecap:round;stroke-width:0.8;"/>
     </g>
     <g id="text_9">
      <!-- 0.00 -->
      <defs>
       <path d="M 9.078125 0 
L 9.078125 10.015625 
L 19.09375 10.015625 
L 19.09375 0 
z
" id="ArialMT-46"/>
      </defs>
      <g style="fill:#262626;" transform="translate(26.389063 309.806406)scale(0.1 -0.1)">
       <use xlink:href="#ArialMT-48"/>
       <use x="55.615234" xlink:href="#ArialMT-46"/>
       <use x="83.398438" xlink:href="#ArialMT-48"/>
       <use x="139.013672" xlink:href="#ArialMT-48"/>
      </g>
     </g>
    </g>
    <g id="ytick_2">
     <g id="line2d_9">
      <path clip-path="url(#pb69864aed5)" d="M 52.85 269.748087 
L 450 269.748087 
" style="fill:none;stroke:#cccccc;stroke-linecap:round;stroke-width:0.8;"/>
     </g>
     <g id="text_10">
      <!-- 0.05 -->
      <g style="fill:#262626;" transform="translate(26.389063 273.326993)scale(0.1 -0.1)">
       <use xlink:href="#ArialMT-48"/>
       <use x="55.615234" xlink:href="#ArialMT-46"/>
       <use x="83.398438" xlink:href="#ArialMT-48"/>
       <use x="139.013672" xlink:href="#ArialMT-53"/>
      </g>
     </g>
    </g>
    <g id="ytick_3">
     <g id="line2d_10">
      <path clip-path="url(#pb69864aed5)" d="M 52.85 233.268674 
L 450 233.268674 
" style="fill:none;stroke:#cccccc;stroke-linecap:round;stroke-width:0.8;"/>
     </g>
     <g id="text_11">
      <!-- 0.10 -->
      <g style="fill:#262626;" transform="translate(26.389063 236.84758)scale(0.1 -0.1)">
       <use xlink:href="#ArialMT-48"/>
       <use x="55.615234" xlink:href="#ArialMT-46"/>
       <use x="83.398438" xlink:href="#ArialMT-49"/>
       <use x="139.013672" xlink:href="#ArialMT-48"/>
      </g>
     </g>
    </g>
    <g id="ytick_4">
     <g id="line2d_11">
      <path clip-path="url(#pb69864aed5)" d="M 52.85 196.78926 
L 450 196.78926 
" style="fill:none;stroke:#cccccc;stroke-linecap:round;stroke-width:0.8;"/>
     </g>
     <g id="text_12">
      <!-- 0.15 -->
      <g style="fill:#262626;" transform="translate(26.389063 200.368167)scale(0.1 -0.1)">
       <use xlink:href="#ArialMT-48"/>
       <use x="55.615234" xlink:href="#ArialMT-46"/>
       <use x="83.398438" xlink:href="#ArialMT-49"/>
       <use x="139.013672" xlink:href="#ArialMT-53"/>
      </g>
     </g>
    </g>
    <g id="ytick_5">
     <g id="line2d_12">
      <path clip-path="url(#pb69864aed5)" d="M 52.85 160.309847 
L 450 160.309847 
" style="fill:none;stroke:#cccccc;stroke-linecap:round;stroke-width:0.8;"/>
     </g>
     <g id="text_13">
      <!-- 0.20 -->
      <g style="fill:#262626;" transform="translate(26.389063 163.888754)scale(0.1 -0.1)">
       <use xlink:href="#ArialMT-48"/>
       <use x="55.615234" xlink:href="#ArialMT-46"/>
       <use x="83.398438" xlink:href="#ArialMT-50"/>
       <use x="139.013672" xlink:href="#ArialMT-48"/>
      </g>
     </g>
    </g>
    <g id="ytick_6">
     <g id="line2d_13">
      <path clip-path="url(#pb69864aed5)" d="M 52.85 123.830434 
L 450 123.830434 
" style="fill:none;stroke:#cccccc;stroke-linecap:round;stroke-width:0.8;"/>
     </g>
     <g id="text_14">
      <!-- 0.25 -->
      <g style="fill:#262626;" transform="translate(26.389063 127.40934)scale(0.1 -0.1)">
       <use xlink:href="#ArialMT-48"/>
       <use x="55.615234" xlink:href="#ArialMT-46"/>
       <use x="83.398438" xlink:href="#ArialMT-50"/>
       <use x="139.013672" xlink:href="#ArialMT-53"/>
      </g>
     </g>
    </g>
    <g id="ytick_7">
     <g id="line2d_14">
      <path clip-path="url(#pb69864aed5)" d="M 52.85 87.351021 
L 450 87.351021 
" style="fill:none;stroke:#cccccc;stroke-linecap:round;stroke-width:0.8;"/>
     </g>
     <g id="text_15">
      <!-- 0.30 -->
      <defs>
       <path d="M 4.203125 18.890625 
L 12.984375 20.0625 
Q 14.5 12.59375 18.140625 9.296875 
Q 21.78125 6 27 6 
Q 33.203125 6 37.46875 10.296875 
Q 41.75 14.59375 41.75 20.953125 
Q 41.75 27 37.796875 30.921875 
Q 33.84375 34.859375 27.734375 34.859375 
Q 25.25 34.859375 21.53125 33.890625 
L 22.515625 41.609375 
Q 23.390625 41.5 23.921875 41.5 
Q 29.546875 41.5 34.03125 44.421875 
Q 38.53125 47.359375 38.53125 53.46875 
Q 38.53125 58.296875 35.25 61.46875 
Q 31.984375 64.65625 26.8125 64.65625 
Q 21.6875 64.65625 18.265625 61.421875 
Q 14.84375 58.203125 13.875 51.765625 
L 5.078125 53.328125 
Q 6.6875 62.15625 12.390625 67.015625 
Q 18.109375 71.875 26.609375 71.875 
Q 32.46875 71.875 37.390625 69.359375 
Q 42.328125 66.84375 44.9375 62.5 
Q 47.5625 58.15625 47.5625 53.265625 
Q 47.5625 48.640625 45.0625 44.828125 
Q 42.578125 41.015625 37.703125 38.765625 
Q 44.046875 37.3125 47.5625 32.6875 
Q 51.078125 28.078125 51.078125 21.140625 
Q 51.078125 11.765625 44.234375 5.25 
Q 37.40625 -1.265625 26.953125 -1.265625 
Q 17.53125 -1.265625 11.296875 4.34375 
Q 5.078125 9.96875 4.203125 18.890625 
z
" id="ArialMT-51"/>
      </defs>
      <g style="fill:#262626;" transform="translate(26.389063 90.929927)scale(0.1 -0.1)">
       <use xlink:href="#ArialMT-48"/>
       <use x="55.615234" xlink:href="#ArialMT-46"/>
       <use x="83.398438" xlink:href="#ArialMT-51"/>
       <use x="139.013672" xlink:href="#ArialMT-48"/>
      </g>
     </g>
    </g>
    <g id="ytick_8">
     <g id="line2d_15">
      <path clip-path="url(#pb69864aed5)" d="M 52.85 50.871608 
L 450 50.871608 
" style="fill:none;stroke:#cccccc;stroke-linecap:round;stroke-width:0.8;"/>
     </g>
     <g id="text_16">
      <!-- 0.35 -->
      <g style="fill:#262626;" transform="translate(26.389063 54.450514)scale(0.1 -0.1)">
       <use xlink:href="#ArialMT-48"/>
       <use x="55.615234" xlink:href="#ArialMT-46"/>
       <use x="83.398438" xlink:href="#ArialMT-51"/>
       <use x="139.013672" xlink:href="#ArialMT-53"/>
      </g>
     </g>
    </g>
    <g id="ytick_9">
     <g id="line2d_16">
      <path clip-path="url(#pb69864aed5)" d="M 52.85 14.392195 
L 450 14.392195 
" style="fill:none;stroke:#cccccc;stroke-linecap:round;stroke-width:0.8;"/>
     </g>
     <g id="text_17">
      <!-- 0.40 -->
      <defs>
       <path d="M 32.328125 0 
L 32.328125 17.140625 
L 1.265625 17.140625 
L 1.265625 25.203125 
L 33.9375 71.578125 
L 41.109375 71.578125 
L 41.109375 25.203125 
L 50.78125 25.203125 
L 50.78125 17.140625 
L 41.109375 17.140625 
L 41.109375 0 
z
M 32.328125 25.203125 
L 32.328125 57.46875 
L 9.90625 25.203125 
z
" id="ArialMT-52"/>
      </defs>
      <g style="fill:#262626;" transform="translate(26.389063 17.971101)scale(0.1 -0.1)">
       <use xlink:href="#ArialMT-48"/>
       <use x="55.615234" xlink:href="#ArialMT-46"/>
       <use x="83.398438" xlink:href="#ArialMT-52"/>
       <use x="139.013672" xlink:href="#ArialMT-48"/>
      </g>
     </g>
    </g>
    <g id="text_18">
     <!-- $P(x)$ -->
     <defs>
      <path d="M 16.890625 72.90625 
L 39.703125 72.90625 
Q 49.65625 72.90625 54.875 68.265625 
Q 60.109375 63.625 60.109375 54.6875 
Q 60.109375 42.671875 52.390625 35.984375 
Q 44.671875 29.296875 30.71875 29.296875 
L 18.3125 29.296875 
L 12.59375 0 
L 2.6875 0 
z
M 25.203125 64.796875 
L 19.921875 37.40625 
L 32.328125 37.40625 
Q 40.71875 37.40625 45.203125 41.703125 
Q 49.703125 46 49.703125 54 
Q 49.703125 59.125 46.65625 61.953125 
Q 43.609375 64.796875 38.09375 64.796875 
z
" id="DejaVuSans-Oblique-80"/>
      <path d="M 31 75.875 
Q 24.46875 64.65625 21.28125 53.65625 
Q 18.109375 42.671875 18.109375 31.390625 
Q 18.109375 20.125 21.3125 9.0625 
Q 24.515625 -2 31 -13.1875 
L 23.1875 -13.1875 
Q 15.875 -1.703125 12.234375 9.375 
Q 8.59375 20.453125 8.59375 31.390625 
Q 8.59375 42.28125 12.203125 53.3125 
Q 15.828125 64.359375 23.1875 75.875 
z
" id="DejaVuSans-40"/>
      <path d="M 60.015625 54.6875 
L 34.90625 27.875 
L 50.296875 0 
L 39.984375 0 
L 28.421875 21.6875 
L 8.296875 0 
L -2.59375 0 
L 24.3125 28.8125 
L 10.015625 54.6875 
L 20.3125 54.6875 
L 30.8125 34.90625 
L 49.125 54.6875 
z
" id="DejaVuSans-Oblique-120"/>
      <path d="M 8.015625 75.875 
L 15.828125 75.875 
Q 23.140625 64.359375 26.78125 53.3125 
Q 30.421875 42.28125 30.421875 31.390625 
Q 30.421875 20.453125 26.78125 9.375 
Q 23.140625 -1.703125 15.828125 -13.1875 
L 8.015625 -13.1875 
Q 14.5 -2 17.703125 9.0625 
Q 20.90625 20.125 20.90625 31.390625 
Q 20.90625 42.671875 17.703125 53.65625 
Q 14.5 64.65625 8.015625 75.875 
z
" id="DejaVuSans-41"/>
     </defs>
     <g style="fill:#262626;" transform="translate(20.401563 168.43311)rotate(-90)scale(0.1 -0.1)">
      <use transform="translate(0 0.125)" xlink:href="#DejaVuSans-Oblique-80"/>
      <use transform="translate(60.302734 0.125)" xlink:href="#DejaVuSans-40"/>
      <use transform="translate(99.316406 0.125)" xlink:href="#DejaVuSans-Oblique-120"/>
      <use transform="translate(158.496094 0.125)" xlink:href="#DejaVuSans-41"/>
     </g>
    </g>
   </g>
   <g id="PolyCollection_1">
    <defs>
     <path d="M 70.902273 -39.396734 
L 70.902273 -39.3725 
L 73.74515 -39.3725 
L 76.588028 -39.3725 
L 79.430906 -39.3725 
L 82.273783 -39.3725 
L 85.116661 -39.3725 
L 87.959538 -39.3725 
L 90.802416 -39.3725 
L 93.645293 -39.3725 
L 96.488171 -39.3725 
L 99.331049 -39.3725 
L 102.173926 -39.3725 
L 105.016804 -39.3725 
L 107.859681 -39.3725 
L 110.702559 -39.3725 
L 113.545437 -39.3725 
L 116.388314 -39.3725 
L 119.231192 -39.3725 
L 122.074069 -39.3725 
L 124.916947 -39.3725 
L 127.759825 -39.3725 
L 130.602702 -39.3725 
L 133.44558 -39.3725 
L 136.288457 -39.3725 
L 139.131335 -39.3725 
L 141.974213 -39.3725 
L 144.81709 -39.3725 
L 147.659968 -39.3725 
L 150.502845 -39.3725 
L 153.345723 -39.3725 
L 156.188601 -39.3725 
L 159.031478 -39.3725 
L 161.874356 -39.3725 
L 164.717233 -39.3725 
L 167.560111 -39.3725 
L 170.402989 -39.3725 
L 173.245866 -39.3725 
L 176.088744 -39.3725 
L 178.931621 -39.3725 
L 181.774499 -39.3725 
L 184.617377 -39.3725 
L 187.460254 -39.3725 
L 190.303132 -39.3725 
L 193.146009 -39.3725 
L 195.988887 -39.3725 
L 198.831764 -39.3725 
L 201.674642 -39.3725 
L 204.51752 -39.3725 
L 207.360397 -39.3725 
L 210.203275 -39.3725 
L 213.046152 -39.3725 
L 215.88903 -39.3725 
L 218.731908 -39.3725 
L 221.574785 -39.3725 
L 224.417663 -39.3725 
L 227.26054 -39.3725 
L 230.103418 -39.3725 
L 232.946296 -39.3725 
L 235.789173 -39.3725 
L 238.632051 -39.3725 
L 241.474928 -39.3725 
L 244.317806 -39.3725 
L 247.160684 -39.3725 
L 250.003561 -39.3725 
L 252.846439 -39.3725 
L 255.689316 -39.3725 
L 258.532194 -39.3725 
L 261.375072 -39.3725 
L 264.217949 -39.3725 
L 267.060827 -39.3725 
L 269.903704 -39.3725 
L 272.746582 -39.3725 
L 275.58946 -39.3725 
L 278.432337 -39.3725 
L 281.275215 -39.3725 
L 284.118092 -39.3725 
L 286.96097 -39.3725 
L 289.803848 -39.3725 
L 292.646725 -39.3725 
L 295.489603 -39.3725 
L 298.33248 -39.3725 
L 301.175358 -39.3725 
L 304.018236 -39.3725 
L 306.861113 -39.3725 
L 309.703991 -39.3725 
L 312.546868 -39.3725 
L 315.389746 -39.3725 
L 318.232623 -39.3725 
L 321.075501 -39.3725 
L 323.918379 -39.3725 
L 326.761256 -39.3725 
L 329.604134 -39.3725 
L 332.447011 -39.3725 
L 335.289889 -39.3725 
L 338.132767 -39.3725 
L 340.975644 -39.3725 
L 343.818522 -39.3725 
L 346.661399 -39.3725 
L 349.504277 -39.3725 
L 352.347155 -39.3725 
L 355.190032 -39.3725 
L 358.03291 -39.3725 
L 360.875787 -39.3725 
L 363.718665 -39.3725 
L 366.561543 -39.3725 
L 369.40442 -39.3725 
L 372.247298 -39.3725 
L 375.090175 -39.3725 
L 377.933053 -39.3725 
L 380.775931 -39.3725 
L 383.618808 -39.3725 
L 386.461686 -39.3725 
L 389.304563 -39.3725 
L 392.147441 -39.3725 
L 394.990319 -39.3725 
L 397.833196 -39.3725 
L 400.676074 -39.3725 
L 403.518951 -39.3725 
L 406.361829 -39.3725 
L 409.204707 -39.3725 
L 412.047584 -39.3725 
L 414.890462 -39.3725 
L 417.733339 -39.3725 
L 420.576217 -39.3725 
L 423.419094 -39.3725 
L 426.261972 -39.3725 
L 429.10485 -39.3725 
L 431.947727 -39.3725 
L 431.947727 -39.377628 
L 431.947727 -39.377628 
L 429.10485 -39.375721 
L 426.261972 -39.381212 
L 423.419094 -39.398246 
L 420.576217 -39.441504 
L 417.733339 -39.541668 
L 414.890462 -39.753135 
L 412.047584 -40.152544 
L 409.204707 -40.81367 
L 406.361829 -41.759128 
L 403.518951 -42.91675 
L 400.676074 -44.118227 
L 397.833196 -45.152381 
L 394.990319 -45.840688 
L 392.147441 -46.078413 
L 389.304563 -45.826112 
L 386.461686 -45.105782 
L 383.618808 -44.033127 
L 380.775931 -42.822744 
L 377.933053 -41.711371 
L 375.090175 -40.855794 
L 372.247298 -40.293031 
L 369.40442 -39.972356 
L 366.561543 -39.812032 
L 363.718665 -39.742805 
L 360.875787 -39.725414 
L 358.03291 -39.744509 
L 355.190032 -39.79087 
L 352.347155 -39.847709 
L 349.504277 -39.891001 
L 346.661399 -39.900964 
L 343.818522 -39.872441 
L 340.975644 -39.814571 
L 338.132767 -39.741614 
L 335.289889 -39.664528 
L 332.447011 -39.589603 
L 329.604134 -39.521911 
L 326.761256 -39.467633 
L 323.918379 -39.432419 
L 321.075501 -39.417973 
L 318.232623 -39.421189 
L 315.389746 -39.43949 
L 312.546868 -39.486212 
L 309.703991 -39.622717 
L 306.861113 -40.011765 
L 304.018236 -40.971426 
L 301.175358 -42.955816 
L 298.33248 -46.37189 
L 295.489603 -51.269833 
L 292.646725 -57.160552 
L 289.803848 -63.190006 
L 286.96097 -68.519002 
L 284.118092 -72.535189 
L 281.275215 -74.851694 
L 278.432337 -75.362897 
L 275.58946 -74.389324 
L 272.746582 -72.653346 
L 269.903704 -70.969395 
L 267.060827 -69.758504 
L 264.217949 -68.65213 
L 261.375072 -66.669404 
L 258.532194 -63.177614 
L 255.689316 -58.846845 
L 252.846439 -55.429487 
L 250.003561 -54.357222 
L 247.160684 -55.488734 
L 244.317806 -57.203149 
L 241.474928 -57.701219 
L 238.632051 -56.294032 
L 235.789173 -53.600517 
L 232.946296 -50.714738 
L 230.103418 -48.310993 
L 227.26054 -46.433938 
L 224.417663 -44.873656 
L 221.574785 -43.586393 
L 218.731908 -42.830996 
L 215.88903 -43.06591 
L 213.046152 -44.79131 
L 210.203275 -48.454213 
L 207.360397 -54.478991 
L 204.51752 -63.433209 
L 201.674642 -76.078927 
L 198.831764 -92.798116 
L 195.988887 -112.344247 
L 193.146009 -131.039557 
L 190.303132 -143.838197 
L 187.460254 -147.025031 
L 184.617377 -140.422311 
L 181.774499 -127.292947 
L 178.931621 -112.229719 
L 176.088744 -98.786175 
L 173.245866 -88.399179 
L 170.402989 -80.971993 
L 167.560111 -76.263823 
L 164.717233 -74.730427 
L 161.874356 -77.124113 
L 159.031478 -83.445617 
L 156.188601 -92.418994 
L 153.345723 -101.941783 
L 150.502845 -109.92017 
L 147.659968 -114.802543 
L 144.81709 -115.836162 
L 141.974213 -113.393603 
L 139.131335 -109.238236 
L 136.288457 -106.159432 
L 133.44558 -106.719157 
L 130.602702 -111.652541 
L 127.759825 -119.014909 
L 124.916947 -124.897493 
L 122.074069 -125.479511 
L 119.231192 -119.144265 
L 116.388314 -107.29482 
L 113.545437 -93.453553 
L 110.702559 -81.374691 
L 107.859681 -73.353228 
L 105.016804 -69.540201 
L 102.173926 -68.369723 
L 99.331049 -67.64346 
L 96.488171 -65.614623 
L 93.645293 -61.615526 
L 90.802416 -56.12771 
L 87.959538 -50.364852 
L 85.116661 -45.55206 
L 82.273783 -42.311235 
L 79.430906 -40.543287 
L 76.588028 -39.760531 
L 73.74515 -39.478984 
L 70.902273 -39.396734 
z
" id="m6009605d41" style="stroke:#ffffff;stroke-opacity:0.25;"/>
    </defs>
    <g clip-path="url(#pb69864aed5)">
     <use style="fill:#1f77b4;fill-opacity:0.25;stroke:#ffffff;stroke-opacity:0.25;" x="0" xlink:href="#m6009605d41" y="345.6"/>
    </g>
   </g>
   <g id="PolyCollection_2">
    <defs>
     <path d="M 137.654697 -39.515962 
L 137.654697 -39.3725 
L 138.357621 -39.3725 
L 139.060544 -39.3725 
L 139.763468 -39.3725 
L 140.466391 -39.3725 
L 141.169315 -39.3725 
L 141.872238 -39.3725 
L 142.575162 -39.3725 
L 143.278085 -39.3725 
L 143.981009 -39.3725 
L 144.683932 -39.3725 
L 145.386856 -39.3725 
L 146.08978 -39.3725 
L 146.792703 -39.3725 
L 147.495627 -39.3725 
L 148.19855 -39.3725 
L 148.901474 -39.3725 
L 149.604397 -39.3725 
L 150.307321 -39.3725 
L 151.010244 -39.3725 
L 151.713168 -39.3725 
L 152.416091 -39.3725 
L 153.119015 -39.3725 
L 153.821938 -39.3725 
L 154.524862 -39.3725 
L 155.227785 -39.3725 
L 155.930709 -39.3725 
L 156.633632 -39.3725 
L 157.336556 -39.3725 
L 158.039479 -39.3725 
L 158.742403 -39.3725 
L 159.445326 -39.3725 
L 160.14825 -39.3725 
L 160.851173 -39.3725 
L 161.554097 -39.3725 
L 162.25702 -39.3725 
L 162.959944 -39.3725 
L 163.662867 -39.3725 
L 164.365791 -39.3725 
L 165.068714 -39.3725 
L 165.771638 -39.3725 
L 166.474561 -39.3725 
L 167.177485 -39.3725 
L 167.880408 -39.3725 
L 168.583332 -39.3725 
L 169.286255 -39.3725 
L 169.989179 -39.3725 
L 170.692102 -39.3725 
L 171.395026 -39.3725 
L 172.097949 -39.3725 
L 172.800873 -39.3725 
L 173.503796 -39.3725 
L 174.20672 -39.3725 
L 174.909643 -39.3725 
L 175.612567 -39.3725 
L 176.31549 -39.3725 
L 177.018414 -39.3725 
L 177.721337 -39.3725 
L 178.424261 -39.3725 
L 179.127184 -39.3725 
L 179.830108 -39.3725 
L 180.533031 -39.3725 
L 181.235955 -39.3725 
L 181.938878 -39.3725 
L 182.641802 -39.3725 
L 183.344725 -39.3725 
L 184.047649 -39.3725 
L 184.750572 -39.3725 
L 185.453496 -39.3725 
L 186.156419 -39.3725 
L 186.859343 -39.3725 
L 187.562266 -39.3725 
L 188.26519 -39.3725 
L 188.968113 -39.3725 
L 189.671037 -39.3725 
L 190.37396 -39.3725 
L 191.076884 -39.3725 
L 191.779807 -39.3725 
L 192.482731 -39.3725 
L 193.185654 -39.3725 
L 193.888578 -39.3725 
L 194.591501 -39.3725 
L 195.294425 -39.3725 
L 195.997348 -39.3725 
L 196.700272 -39.3725 
L 197.403195 -39.3725 
L 198.106119 -39.3725 
L 198.809042 -39.3725 
L 199.511966 -39.3725 
L 200.214889 -39.3725 
L 200.917813 -39.3725 
L 201.620736 -39.3725 
L 202.32366 -39.3725 
L 203.026583 -39.3725 
L 203.729507 -39.3725 
L 204.43243 -39.3725 
L 205.135354 -39.3725 
L 205.838277 -39.3725 
L 206.541201 -39.3725 
L 207.244124 -39.3725 
L 207.947048 -39.3725 
L 208.649971 -39.3725 
L 209.352895 -39.3725 
L 210.055818 -39.3725 
L 210.758742 -39.3725 
L 211.461665 -39.3725 
L 212.164589 -39.3725 
L 212.867512 -39.3725 
L 213.570436 -39.3725 
L 214.273359 -39.3725 
L 214.976283 -39.3725 
L 215.679206 -39.3725 
L 216.38213 -39.3725 
L 217.085053 -39.3725 
L 217.787977 -39.3725 
L 218.4909 -39.3725 
L 219.193824 -39.3725 
L 219.896747 -39.3725 
L 220.599671 -39.3725 
L 221.302594 -39.3725 
L 222.005518 -39.3725 
L 222.708441 -39.3725 
L 223.411365 -39.3725 
L 224.114288 -39.3725 
L 224.817212 -39.3725 
L 225.520135 -39.3725 
L 226.223059 -39.3725 
L 226.925982 -39.3725 
L 226.925982 -39.513657 
L 226.925982 -39.513657 
L 226.223059 -39.532673 
L 225.520135 -39.575176 
L 224.817212 -39.645642 
L 224.114288 -39.751075 
L 223.411365 -39.901303 
L 222.708441 -40.109347 
L 222.005518 -40.391801 
L 221.302594 -40.769227 
L 220.599671 -41.266476 
L 219.896747 -41.912899 
L 219.193824 -42.742376 
L 218.4909 -43.793075 
L 217.787977 -45.106898 
L 217.085053 -46.728513 
L 216.38213 -48.703963 
L 215.679206 -51.078804 
L 214.976283 -53.8958 
L 214.273359 -57.192237 
L 213.570436 -60.996957 
L 212.867512 -65.327283 
L 212.164589 -70.186026 
L 211.461665 -75.558827 
L 210.758742 -81.412077 
L 210.055818 -87.691681 
L 209.352895 -94.322867 
L 208.649971 -101.211219 
L 207.947048 -108.245009 
L 207.244124 -115.298804 
L 206.541201 -122.238226 
L 205.838277 -128.925621 
L 205.135354 -135.226307 
L 204.43243 -141.014985 
L 203.729507 -146.181886 
L 203.026583 -150.638193 
L 202.32366 -154.320359 
L 201.620736 -157.192992 
L 200.917813 -159.250119 
L 200.214889 -160.514757 
L 199.511966 -161.036871 
L 198.809042 -160.889924 
L 198.106119 -160.166331 
L 197.403195 -158.972226 
L 196.700272 -157.421961 
L 195.997348 -155.632784 
L 195.294425 -153.72007 
L 194.591501 -151.793423 
L 193.888578 -149.953872 
L 193.185654 -148.292231 
L 192.482731 -146.888631 
L 191.779807 -145.813068 
L 191.076884 -145.126765 
L 190.37396 -144.884048 
L 189.671037 -145.134413 
L 188.968113 -145.924466 
L 188.26519 -147.299417 
L 187.562266 -149.303883 
L 186.859343 -151.981829 
L 186.156419 -155.375553 
L 185.453496 -159.523718 
L 184.750572 -164.458562 
L 184.047649 -170.202458 
L 183.344725 -176.764105 
L 182.641802 -184.134668 
L 181.938878 -192.284214 
L 181.235955 -201.158768 
L 180.533031 -210.67831 
L 179.830108 -220.73595 
L 179.127184 -231.198431 
L 178.424261 -241.908044 
L 177.721337 -252.685898 
L 177.018414 -263.336421 
L 176.31549 -273.652869 
L 175.612567 -283.423551 
L 174.909643 -292.438448 
L 174.20672 -300.49588 
L 173.503796 -307.408894 
L 172.800873 -313.011087 
L 172.097949 -317.161611 
L 171.395026 -319.749209 
L 170.692102 -320.695148 
L 169.989179 -319.955023 
L 169.286255 -317.519427 
L 168.583332 -313.413551 
L 167.880408 -307.695787 
L 167.177485 -300.455435 
L 166.474561 -291.809638 
L 165.771638 -281.899658 
L 165.068714 -270.88663 
L 164.365791 -258.946924 
L 163.662867 -246.267257 
L 162.959944 -233.039712 
L 162.25702 -219.456816 
L 161.554097 -205.706822 
L 160.851173 -191.969368 
L 160.14825 -178.411627 
L 159.445326 -165.18508 
L 158.742403 -152.422981 
L 158.039479 -140.238578 
L 157.336556 -128.72409 
L 156.633632 -117.950428 
L 155.930709 -107.967587 
L 155.227785 -98.805636 
L 154.524862 -90.476208 
L 153.821938 -82.974361 
L 153.119015 -76.280719 
L 152.416091 -70.363756 
L 151.713168 -65.182157 
L 151.010244 -60.687137 
L 150.307321 -56.82466 
L 149.604397 -53.537506 
L 148.901474 -50.767121 
L 148.19855 -48.455244 
L 147.495627 -46.545268 
L 146.792703 -44.983351 
L 146.08978 -43.719254 
L 145.386856 -42.70694 
L 144.683932 -41.90494 
L 143.981009 -41.276517 
L 143.278085 -40.789652 
L 142.575162 -40.416895 
L 141.872238 -40.135108 
L 141.169315 -39.925137 
L 140.466391 -39.771451 
L 139.763468 -39.661777 
L 139.060544 -39.586746 
L 138.357621 -39.539603 
L 137.654697 -39.515962 
z
" id="m215d6ebc14" style="stroke:#ffffff;stroke-opacity:0.25;"/>
    </defs>
    <g clip-path="url(#pb69864aed5)">
     <use style="fill:#ff7f0e;fill-opacity:0.25;stroke:#ffffff;stroke-opacity:0.25;" x="0" xlink:href="#m215d6ebc14" y="345.6"/>
    </g>
   </g>
   <g id="line2d_17">
    <path clip-path="url(#pb69864aed5)" d="M 70.902273 306.203266 
L 73.74515 306.121016 
L 76.588028 305.839469 
L 79.430906 305.056713 
L 82.273783 303.288765 
L 85.116661 300.04794 
L 87.959538 295.235148 
L 90.802416 289.47229 
L 93.645293 283.984474 
L 96.488171 279.985377 
L 99.331049 277.95654 
L 102.173926 277.230277 
L 105.016804 276.059799 
L 107.859681 272.246772 
L 110.702559 264.225309 
L 113.545437 252.146447 
L 116.388314 238.30518 
L 119.231192 226.455735 
L 122.074069 220.120489 
L 124.916947 220.702507 
L 127.759825 226.585091 
L 130.602702 233.947459 
L 133.44558 238.880843 
L 136.288457 239.440568 
L 139.131335 236.361764 
L 141.974213 232.206397 
L 144.81709 229.763838 
L 147.659968 230.797457 
L 150.502845 235.67983 
L 153.345723 243.658217 
L 156.188601 253.181006 
L 159.031478 262.154383 
L 161.874356 268.475887 
L 164.717233 270.869573 
L 167.560111 269.336177 
L 170.402989 264.628007 
L 173.245866 257.200821 
L 176.088744 246.813825 
L 178.931621 233.370281 
L 181.774499 218.307053 
L 184.617377 205.177689 
L 187.460254 198.574969 
L 190.303132 201.761803 
L 193.146009 214.560443 
L 195.988887 233.255753 
L 198.831764 252.801884 
L 201.674642 269.521073 
L 204.51752 282.166791 
L 207.360397 291.121009 
L 210.203275 297.145787 
L 213.046152 300.80869 
L 215.88903 302.53409 
L 218.731908 302.769004 
L 221.574785 302.013607 
L 224.417663 300.726344 
L 227.26054 299.166062 
L 230.103418 297.289007 
L 232.946296 294.885262 
L 235.789173 291.999483 
L 238.632051 289.305968 
L 241.474928 287.898781 
L 244.317806 288.396851 
L 247.160684 290.111266 
L 250.003561 291.242778 
L 252.846439 290.170513 
L 255.689316 286.753155 
L 258.532194 282.422386 
L 261.375072 278.930596 
L 264.217949 276.94787 
L 269.903704 274.630605 
L 275.58946 271.210676 
L 278.432337 270.237103 
L 281.275215 270.748306 
L 284.118092 273.064811 
L 286.96097 277.080998 
L 289.803848 282.409994 
L 295.489603 294.330167 
L 298.33248 299.22811 
L 301.175358 302.644184 
L 304.018236 304.628574 
L 306.861113 305.588235 
L 309.703991 305.977283 
L 315.389746 306.16051 
L 326.761256 306.132367 
L 352.347155 305.752291 
L 360.875787 305.874586 
L 366.561543 305.787968 
L 369.40442 305.627644 
L 372.247298 305.306969 
L 375.090175 304.744206 
L 377.933053 303.888629 
L 386.461686 300.494218 
L 389.304563 299.773888 
L 392.147441 299.521587 
L 394.990319 299.759312 
L 397.833196 300.447619 
L 400.676074 301.481773 
L 406.361829 303.840872 
L 409.204707 304.78633 
L 412.047584 305.447456 
L 414.890462 305.846865 
L 420.576217 306.158496 
L 431.947727 306.222372 
L 431.947727 306.222372 
" style="fill:none;stroke:#1f77b4;stroke-linecap:round;stroke-width:1.5;"/>
   </g>
   <g id="line2d_18">
    <path clip-path="url(#pb69864aed5)" d="M 137.654697 306.084038 
L 139.763468 305.938223 
L 141.169315 305.674863 
L 142.575162 305.183105 
L 143.981009 304.323483 
L 144.683932 303.69506 
L 145.386856 302.89306 
L 146.08978 301.880746 
L 146.792703 300.616649 
L 147.495627 299.054732 
L 148.19855 297.144756 
L 148.901474 294.832879 
L 149.604397 292.062494 
L 150.307321 288.77534 
L 151.010244 284.912863 
L 152.416091 275.236244 
L 153.821938 262.625639 
L 155.227785 246.794364 
L 156.633632 227.649572 
L 158.039479 205.361422 
L 160.14825 167.188373 
L 164.365791 86.653076 
L 165.771638 63.700342 
L 167.177485 45.144565 
L 167.880408 37.904213 
L 168.583332 32.186449 
L 169.286255 28.080573 
L 169.989179 25.644977 
L 170.692102 24.904852 
L 171.395026 25.850791 
L 172.097949 28.438389 
L 172.800873 32.588913 
L 173.503796 38.191106 
L 174.20672 45.10412 
L 175.612567 62.176449 
L 177.721337 92.914102 
L 180.533031 134.92169 
L 181.938878 153.315786 
L 183.344725 168.835895 
L 184.750572 181.141438 
L 186.156419 190.224447 
L 186.859343 193.618171 
L 187.562266 196.296117 
L 188.26519 198.300583 
L 188.968113 199.675534 
L 189.671037 200.465587 
L 190.37396 200.715952 
L 191.076884 200.473235 
L 191.779807 199.786932 
L 192.482731 198.711369 
L 193.185654 197.307769 
L 194.591501 193.806577 
L 196.700272 188.178039 
L 197.403195 186.627774 
L 198.106119 185.433669 
L 198.809042 184.710076 
L 199.511966 184.563129 
L 200.214889 185.085243 
L 200.917813 186.349881 
L 201.620736 188.407008 
L 202.32366 191.279641 
L 203.026583 194.961807 
L 204.43243 204.585015 
L 205.838277 216.674379 
L 208.649971 244.388781 
L 210.758742 264.187923 
L 212.164589 275.413974 
L 213.570436 284.603043 
L 214.976283 291.7042 
L 216.38213 296.896037 
L 217.085053 298.871487 
L 217.787977 300.493102 
L 218.4909 301.806925 
L 219.193824 302.857624 
L 219.896747 303.687101 
L 221.302594 304.830773 
L 222.708441 305.490653 
L 224.114288 305.848925 
L 226.223059 306.067327 
L 226.925982 306.086343 
L 226.925982 306.086343 
" style="fill:none;stroke:#ff7f0e;stroke-linecap:round;stroke-width:1.5;"/>
   </g>
   <g id="patch_3">
    <path d="M 52.85 306.2275 
L 52.85 10.838719 
" style="fill:none;stroke:#cccccc;stroke-linecap:square;stroke-linejoin:miter;stroke-width:0.8;"/>
   </g>
   <g id="patch_4">
    <path d="M 450 306.2275 
L 450 10.838719 
" style="fill:none;stroke:#cccccc;stroke-linecap:square;stroke-linejoin:miter;stroke-width:0.8;"/>
   </g>
   <g id="patch_5">
    <path d="M 52.85 306.2275 
L 450 306.2275 
" style="fill:none;stroke:#cccccc;stroke-linecap:square;stroke-linejoin:miter;stroke-width:0.8;"/>
   </g>
   <g id="patch_6">
    <path d="M 52.85 10.838719 
L 450 10.838719 
" style="fill:none;stroke:#cccccc;stroke-linecap:square;stroke-linejoin:miter;stroke-width:0.8;"/>
   </g>
   <g id="legend_1">
    <g id="patch_7">
     <path d="M 247.429688 32.984032 
L 443 32.984032 
Q 445 32.984032 445 30.984032 
L 445 17.838719 
Q 445 15.838719 443 15.838719 
L 247.429688 15.838719 
Q 245.429688 15.838719 245.429688 17.838719 
L 245.429688 30.984032 
Q 245.429688 32.984032 247.429688 32.984032 
z
" style="fill:#ffffff;opacity:0.8;stroke:#cccccc;stroke-linejoin:miter;"/>
    </g>
    <g id="patch_8">
     <path d="M 249.429688 26.996532 
L 269.429688 26.996532 
L 269.429688 19.996532 
L 249.429688 19.996532 
z
" style="fill:#1f77b4;opacity:0.25;stroke:#ffffff;stroke-linejoin:miter;"/>
    </g>
    <g id="text_19">
     <!-- x -->
     <defs>
      <path d="M 0.734375 0 
L 19.671875 26.953125 
L 2.15625 51.859375 
L 13.140625 51.859375 
L 21.09375 39.703125 
Q 23.34375 36.234375 24.703125 33.890625 
Q 26.859375 37.109375 28.65625 39.59375 
L 37.40625 51.859375 
L 47.90625 51.859375 
L 29.984375 27.4375 
L 49.265625 0 
L 38.484375 0 
L 27.828125 16.109375 
L 25 20.453125 
L 11.375 0 
z
" id="ArialMT-120"/>
     </defs>
     <g style="fill:#262626;" transform="translate(277.429688 26.996532)scale(0.1 -0.1)">
      <use xlink:href="#ArialMT-120"/>
     </g>
    </g>
    <g id="patch_9">
     <path d="M 302.429688 26.996532 
L 322.429688 26.996532 
L 322.429688 19.996532 
L 302.429688 19.996532 
z
" style="fill:#ff7f0e;opacity:0.25;stroke:#ffffff;stroke-linejoin:miter;"/>
    </g>
    <g id="text_20">
     <!-- z-TRAINABLE-AE-LSTM -->
     <defs>
      <path d="M 1.953125 0 
L 1.953125 7.125 
L 34.96875 45.015625 
Q 29.34375 44.734375 25.046875 44.734375 
L 3.90625 44.734375 
L 3.90625 51.859375 
L 46.296875 51.859375 
L 46.296875 46.046875 
L 18.21875 13.140625 
L 12.796875 7.125 
Q 18.703125 7.5625 23.875 7.5625 
L 47.859375 7.5625 
L 47.859375 0 
z
" id="ArialMT-122"/>
      <path d="M 3.171875 21.484375 
L 3.171875 30.328125 
L 30.171875 30.328125 
L 30.171875 21.484375 
z
" id="ArialMT-45"/>
      <path d="M 25.921875 0 
L 25.921875 63.140625 
L 2.34375 63.140625 
L 2.34375 71.578125 
L 59.078125 71.578125 
L 59.078125 63.140625 
L 35.40625 63.140625 
L 35.40625 0 
z
" id="ArialMT-84"/>
      <path d="M 7.859375 0 
L 7.859375 71.578125 
L 39.59375 71.578125 
Q 49.171875 71.578125 54.140625 69.640625 
Q 59.125 67.71875 62.109375 62.828125 
Q 65.09375 57.953125 65.09375 52.046875 
Q 65.09375 44.4375 60.15625 39.203125 
Q 55.21875 33.984375 44.921875 32.5625 
Q 48.6875 30.765625 50.640625 29 
Q 54.78125 25.203125 58.5 19.484375 
L 70.953125 0 
L 59.03125 0 
L 49.5625 14.890625 
Q 45.40625 21.34375 42.71875 24.75 
Q 40.046875 28.171875 37.921875 29.53125 
Q 35.796875 30.90625 33.59375 31.453125 
Q 31.984375 31.78125 28.328125 31.78125 
L 17.328125 31.78125 
L 17.328125 0 
z
M 17.328125 39.984375 
L 37.703125 39.984375 
Q 44.1875 39.984375 47.84375 41.328125 
Q 51.515625 42.671875 53.421875 45.625 
Q 55.328125 48.578125 55.328125 52.046875 
Q 55.328125 57.125 51.640625 60.390625 
Q 47.953125 63.671875 39.984375 63.671875 
L 17.328125 63.671875 
z
" id="ArialMT-82"/>
      <path d="M -0.140625 0 
L 27.34375 71.578125 
L 37.546875 71.578125 
L 66.84375 0 
L 56.0625 0 
L 47.703125 21.6875 
L 17.78125 21.6875 
L 9.90625 0 
z
M 20.515625 29.390625 
L 44.78125 29.390625 
L 37.3125 49.21875 
Q 33.890625 58.25 32.234375 64.0625 
Q 30.859375 57.171875 28.375 50.390625 
z
" id="ArialMT-65"/>
      <path d="M 9.328125 0 
L 9.328125 71.578125 
L 18.796875 71.578125 
L 18.796875 0 
z
" id="ArialMT-73"/>
      <path d="M 7.625 0 
L 7.625 71.578125 
L 17.328125 71.578125 
L 54.9375 15.375 
L 54.9375 71.578125 
L 64.015625 71.578125 
L 64.015625 0 
L 54.296875 0 
L 16.703125 56.25 
L 16.703125 0 
z
" id="ArialMT-78"/>
      <path d="M 7.328125 0 
L 7.328125 71.578125 
L 34.1875 71.578125 
Q 42.390625 71.578125 47.34375 69.40625 
Q 52.296875 67.234375 55.09375 62.71875 
Q 57.90625 58.203125 57.90625 53.265625 
Q 57.90625 48.6875 55.421875 44.625 
Q 52.9375 40.578125 47.90625 38.09375 
Q 54.390625 36.1875 57.875 31.59375 
Q 61.375 27 61.375 20.75 
Q 61.375 15.71875 59.25 11.390625 
Q 57.125 7.078125 54 4.734375 
Q 50.875 2.390625 46.15625 1.1875 
Q 41.453125 0 34.625 0 
z
M 16.796875 41.5 
L 32.28125 41.5 
Q 38.578125 41.5 41.3125 42.328125 
Q 44.921875 43.40625 46.75 45.890625 
Q 48.578125 48.390625 48.578125 52.15625 
Q 48.578125 55.71875 46.875 58.421875 
Q 45.171875 61.140625 41.984375 62.140625 
Q 38.8125 63.140625 31.109375 63.140625 
L 16.796875 63.140625 
z
M 16.796875 8.453125 
L 34.625 8.453125 
Q 39.203125 8.453125 41.0625 8.796875 
Q 44.34375 9.375 46.53125 10.734375 
Q 48.734375 12.109375 50.140625 14.71875 
Q 51.5625 17.328125 51.5625 20.75 
Q 51.5625 24.75 49.515625 27.703125 
Q 47.46875 30.671875 43.828125 31.859375 
Q 40.1875 33.0625 33.34375 33.0625 
L 16.796875 33.0625 
z
" id="ArialMT-66"/>
      <path d="M 7.328125 0 
L 7.328125 71.578125 
L 16.796875 71.578125 
L 16.796875 8.453125 
L 52.046875 8.453125 
L 52.046875 0 
z
" id="ArialMT-76"/>
      <path d="M 7.90625 0 
L 7.90625 71.578125 
L 59.671875 71.578125 
L 59.671875 63.140625 
L 17.390625 63.140625 
L 17.390625 41.21875 
L 56.984375 41.21875 
L 56.984375 32.8125 
L 17.390625 32.8125 
L 17.390625 8.453125 
L 61.328125 8.453125 
L 61.328125 0 
z
" id="ArialMT-69"/>
      <path d="M 4.5 23 
L 13.421875 23.78125 
Q 14.0625 18.40625 16.375 14.96875 
Q 18.703125 11.53125 23.578125 9.40625 
Q 28.46875 7.28125 34.578125 7.28125 
Q 39.984375 7.28125 44.140625 8.890625 
Q 48.296875 10.5 50.3125 13.296875 
Q 52.34375 16.109375 52.34375 19.4375 
Q 52.34375 22.796875 50.390625 25.3125 
Q 48.4375 27.828125 43.953125 29.546875 
Q 41.0625 30.671875 31.203125 33.03125 
Q 21.34375 35.40625 17.390625 37.5 
Q 12.25 40.1875 9.734375 44.15625 
Q 7.234375 48.140625 7.234375 53.078125 
Q 7.234375 58.5 10.296875 63.203125 
Q 13.375 67.921875 19.28125 70.359375 
Q 25.203125 72.796875 32.421875 72.796875 
Q 40.375 72.796875 46.453125 70.234375 
Q 52.546875 67.671875 55.8125 62.6875 
Q 59.078125 57.71875 59.328125 51.421875 
L 50.25 50.734375 
Q 49.515625 57.515625 45.28125 60.984375 
Q 41.0625 64.453125 32.8125 64.453125 
Q 24.21875 64.453125 20.28125 61.296875 
Q 16.359375 58.15625 16.359375 53.71875 
Q 16.359375 49.859375 19.140625 47.359375 
Q 21.875 44.875 33.421875 42.265625 
Q 44.96875 39.65625 49.265625 37.703125 
Q 55.515625 34.8125 58.484375 30.390625 
Q 61.46875 25.984375 61.46875 20.21875 
Q 61.46875 14.5 58.203125 9.4375 
Q 54.9375 4.390625 48.796875 1.578125 
Q 42.671875 -1.21875 35.015625 -1.21875 
Q 25.296875 -1.21875 18.71875 1.609375 
Q 12.15625 4.4375 8.421875 10.125 
Q 4.6875 15.828125 4.5 23 
z
" id="ArialMT-83"/>
      <path d="M 7.421875 0 
L 7.421875 71.578125 
L 21.6875 71.578125 
L 38.625 20.90625 
Q 40.96875 13.8125 42.046875 10.296875 
Q 43.265625 14.203125 45.84375 21.78125 
L 62.984375 71.578125 
L 75.734375 71.578125 
L 75.734375 0 
L 66.609375 0 
L 66.609375 59.90625 
L 45.796875 0 
L 37.25 0 
L 16.546875 60.9375 
L 16.546875 0 
z
" id="ArialMT-77"/>
     </defs>
     <g style="fill:#262626;" transform="translate(330.429688 26.996532)scale(0.1 -0.1)">
      <use xlink:href="#ArialMT-122"/>
      <use x="50" xlink:href="#ArialMT-45"/>
      <use x="83.300781" xlink:href="#ArialMT-84"/>
      <use x="144.384766" xlink:href="#ArialMT-82"/>
      <use x="216.601562" xlink:href="#ArialMT-65"/>
      <use x="283.300781" xlink:href="#ArialMT-73"/>
      <use x="311.083984" xlink:href="#ArialMT-78"/>
      <use x="383.300781" xlink:href="#ArialMT-65"/>
      <use x="450" xlink:href="#ArialMT-66"/>
      <use x="516.699219" xlink:href="#ArialMT-76"/>
      <use x="572.314453" xlink:href="#ArialMT-69"/>
      <use x="639.013672" xlink:href="#ArialMT-45"/>
      <use x="672.314453" xlink:href="#ArialMT-65"/>
      <use x="739.013672" xlink:href="#ArialMT-69"/>
      <use x="805.712891" xlink:href="#ArialMT-45"/>
      <use x="839.013672" xlink:href="#ArialMT-76"/>
      <use x="894.628906" xlink:href="#ArialMT-83"/>
      <use x="961.328125" xlink:href="#ArialMT-84"/>
      <use x="1022.412109" xlink:href="#ArialMT-77"/>
     </g>
    </g>
   </g>
  </g>
 </g>
 <defs>
  <clipPath id="pb69864aed5">
   <rect height="295.388781" width="397.15" x="52.85" y="10.838719"/>
  </clipPath>
 </defs>
</svg>
