<?xml version="1.0" encoding="utf-8" standalone="no"?>
<!DOCTYPE svg PUBLIC "-//W3C//DTD SVG 1.1//EN"
  "http://www.w3.org/Graphics/SVG/1.1/DTD/svg11.dtd">
<!-- Created with matplotlib (https://matplotlib.org/) -->
<svg height="345.6pt" version="1.1" viewBox="0 0 460.8 345.6" width="460.8pt" xmlns="http://www.w3.org/2000/svg" xmlns:xlink="http://www.w3.org/1999/xlink">
 <defs>
  <style type="text/css">
*{stroke-linecap:butt;stroke-linejoin:round;}
  </style>
 </defs>
 <g id="figure_1">
  <g id="patch_1">
   <path d="M 0 345.6 
L 460.8 345.6 
L 460.8 0 
L 0 0 
z
" style="fill:#ffffff;"/>
  </g>
  <g id="axes_1">
   <g id="patch_2">
    <path d="M 52.85 306.2275 
L 450 306.2275 
L 450 10.8 
L 52.85 10.8 
z
" style="fill:#ffffff;"/>
   </g>
   <g id="matplotlib.axis_1">
    <g id="xtick_1">
     <g id="line2d_1">
      <path clip-path="url(#p06d35145d7)" d="M 109.067816 306.2275 
L 109.067816 10.8 
" style="fill:none;stroke:#cccccc;stroke-linecap:round;stroke-width:0.8;"/>
     </g>
     <g id="text_1">
      <!-- −10 -->
      <defs>
       <path d="M 52.828125 31.203125 
L 5.5625 31.203125 
L 5.5625 39.40625 
L 52.828125 39.40625 
z
" id="ArialMT-8722"/>
       <path d="M 37.25 0 
L 28.46875 0 
L 28.46875 56 
Q 25.296875 52.984375 20.140625 49.953125 
Q 14.984375 46.921875 10.890625 45.40625 
L 10.890625 53.90625 
Q 18.265625 57.375 23.78125 62.296875 
Q 29.296875 67.234375 31.59375 71.875 
L 37.25 71.875 
z
" id="ArialMT-49"/>
       <path d="M 4.15625 35.296875 
Q 4.15625 48 6.765625 55.734375 
Q 9.375 63.484375 14.515625 67.671875 
Q 19.671875 71.875 27.484375 71.875 
Q 33.25 71.875 37.59375 69.546875 
Q 41.9375 67.234375 44.765625 62.859375 
Q 47.609375 58.5 49.21875 52.21875 
Q 50.828125 45.953125 50.828125 35.296875 
Q 50.828125 22.703125 48.234375 14.96875 
Q 45.65625 7.234375 40.5 3 
Q 35.359375 -1.21875 27.484375 -1.21875 
Q 17.140625 -1.21875 11.234375 6.203125 
Q 4.15625 15.140625 4.15625 35.296875 
z
M 13.1875 35.296875 
Q 13.1875 17.671875 17.3125 11.828125 
Q 21.4375 6 27.484375 6 
Q 33.546875 6 37.671875 11.859375 
Q 41.796875 17.71875 41.796875 35.296875 
Q 41.796875 52.984375 37.671875 58.78125 
Q 33.546875 64.59375 27.390625 64.59375 
Q 21.34375 64.59375 17.71875 59.46875 
Q 13.1875 52.9375 13.1875 35.296875 
z
" id="ArialMT-48"/>
      </defs>
      <g style="fill:#262626;" transform="translate(100.586566 320.385312)scale(0.1 -0.1)">
       <use xlink:href="#ArialMT-8722"/>
       <use x="58.398438" xlink:href="#ArialMT-49"/>
       <use x="114.013672" xlink:href="#ArialMT-48"/>
      </g>
     </g>
    </g>
    <g id="xtick_2">
     <g id="line2d_2">
      <path clip-path="url(#p06d35145d7)" d="M 167.771962 306.2275 
L 167.771962 10.8 
" style="fill:none;stroke:#cccccc;stroke-linecap:round;stroke-width:0.8;"/>
     </g>
     <g id="text_2">
      <!-- −5 -->
      <defs>
       <path d="M 4.15625 18.75 
L 13.375 19.53125 
Q 14.40625 12.796875 18.140625 9.390625 
Q 21.875 6 27.15625 6 
Q 33.5 6 37.890625 10.78125 
Q 42.28125 15.578125 42.28125 23.484375 
Q 42.28125 31 38.0625 35.34375 
Q 33.84375 39.703125 27 39.703125 
Q 22.75 39.703125 19.328125 37.765625 
Q 15.921875 35.84375 13.96875 32.765625 
L 5.71875 33.84375 
L 12.640625 70.609375 
L 48.25 70.609375 
L 48.25 62.203125 
L 19.671875 62.203125 
L 15.828125 42.96875 
Q 22.265625 47.46875 29.34375 47.46875 
Q 38.71875 47.46875 45.15625 40.96875 
Q 51.609375 34.46875 51.609375 24.265625 
Q 51.609375 14.546875 45.953125 7.46875 
Q 39.0625 -1.21875 27.15625 -1.21875 
Q 17.390625 -1.21875 11.203125 4.25 
Q 5.03125 9.71875 4.15625 18.75 
z
" id="ArialMT-53"/>
      </defs>
      <g style="fill:#262626;" transform="translate(162.071181 320.385312)scale(0.1 -0.1)">
       <use xlink:href="#ArialMT-8722"/>
       <use x="58.398438" xlink:href="#ArialMT-53"/>
      </g>
     </g>
    </g>
    <g id="xtick_3">
     <g id="line2d_3">
      <path clip-path="url(#p06d35145d7)" d="M 226.476108 306.2275 
L 226.476108 10.8 
" style="fill:none;stroke:#cccccc;stroke-linecap:round;stroke-width:0.8;"/>
     </g>
     <g id="text_3">
      <!-- 0 -->
      <g style="fill:#262626;" transform="translate(223.695639 320.385312)scale(0.1 -0.1)">
       <use xlink:href="#ArialMT-48"/>
      </g>
     </g>
    </g>
    <g id="xtick_4">
     <g id="line2d_4">
      <path clip-path="url(#p06d35145d7)" d="M 285.180254 306.2275 
L 285.180254 10.8 
" style="fill:none;stroke:#cccccc;stroke-linecap:round;stroke-width:0.8;"/>
     </g>
     <g id="text_4">
      <!-- 5 -->
      <g style="fill:#262626;" transform="translate(282.399785 320.385312)scale(0.1 -0.1)">
       <use xlink:href="#ArialMT-53"/>
      </g>
     </g>
    </g>
    <g id="xtick_5">
     <g id="line2d_5">
      <path clip-path="url(#p06d35145d7)" d="M 343.8844 306.2275 
L 343.8844 10.8 
" style="fill:none;stroke:#cccccc;stroke-linecap:round;stroke-width:0.8;"/>
     </g>
     <g id="text_5">
      <!-- 10 -->
      <g style="fill:#262626;" transform="translate(338.323462 320.385312)scale(0.1 -0.1)">
       <use xlink:href="#ArialMT-49"/>
       <use x="55.615234" xlink:href="#ArialMT-48"/>
      </g>
     </g>
    </g>
    <g id="xtick_6">
     <g id="line2d_6">
      <path clip-path="url(#p06d35145d7)" d="M 402.588545 306.2275 
L 402.588545 10.8 
" style="fill:none;stroke:#cccccc;stroke-linecap:round;stroke-width:0.8;"/>
     </g>
     <g id="text_6">
      <!-- 15 -->
      <g style="fill:#262626;" transform="translate(397.027608 320.385312)scale(0.1 -0.1)">
       <use xlink:href="#ArialMT-49"/>
       <use x="55.615234" xlink:href="#ArialMT-53"/>
      </g>
     </g>
    </g>
    <g id="text_7">
     <!-- Component values -->
     <defs>
      <path d="M 58.796875 25.09375 
L 68.265625 22.703125 
Q 65.28125 11.03125 57.546875 4.90625 
Q 49.8125 -1.21875 38.625 -1.21875 
Q 27.046875 -1.21875 19.796875 3.484375 
Q 12.546875 8.203125 8.765625 17.140625 
Q 4.984375 26.078125 4.984375 36.328125 
Q 4.984375 47.515625 9.25 55.828125 
Q 13.53125 64.15625 21.40625 68.46875 
Q 29.296875 72.796875 38.765625 72.796875 
Q 49.515625 72.796875 56.828125 67.328125 
Q 64.15625 61.859375 67.046875 51.953125 
L 57.71875 49.75 
Q 55.21875 57.5625 50.484375 61.125 
Q 45.75 64.703125 38.578125 64.703125 
Q 30.328125 64.703125 24.78125 60.734375 
Q 19.234375 56.78125 16.984375 50.109375 
Q 14.75 43.453125 14.75 36.375 
Q 14.75 27.25 17.40625 20.4375 
Q 20.0625 13.625 25.671875 10.25 
Q 31.296875 6.890625 37.84375 6.890625 
Q 45.796875 6.890625 51.3125 11.46875 
Q 56.84375 16.0625 58.796875 25.09375 
z
" id="ArialMT-67"/>
      <path d="M 3.328125 25.921875 
Q 3.328125 40.328125 11.328125 47.265625 
Q 18.015625 53.03125 27.640625 53.03125 
Q 38.328125 53.03125 45.109375 46.015625 
Q 51.90625 39.015625 51.90625 26.65625 
Q 51.90625 16.65625 48.90625 10.90625 
Q 45.90625 5.171875 40.15625 2 
Q 34.421875 -1.171875 27.640625 -1.171875 
Q 16.75 -1.171875 10.03125 5.8125 
Q 3.328125 12.796875 3.328125 25.921875 
z
M 12.359375 25.921875 
Q 12.359375 15.96875 16.703125 11.015625 
Q 21.046875 6.0625 27.640625 6.0625 
Q 34.1875 6.0625 38.53125 11.03125 
Q 42.875 16.015625 42.875 26.21875 
Q 42.875 35.84375 38.5 40.796875 
Q 34.125 45.75 27.640625 45.75 
Q 21.046875 45.75 16.703125 40.8125 
Q 12.359375 35.890625 12.359375 25.921875 
z
" id="ArialMT-111"/>
      <path d="M 6.59375 0 
L 6.59375 51.859375 
L 14.453125 51.859375 
L 14.453125 44.578125 
Q 16.890625 48.390625 20.9375 50.703125 
Q 25 53.03125 30.171875 53.03125 
Q 35.9375 53.03125 39.625 50.640625 
Q 43.3125 48.25 44.828125 43.953125 
Q 50.984375 53.03125 60.84375 53.03125 
Q 68.5625 53.03125 72.703125 48.75 
Q 76.859375 44.484375 76.859375 35.59375 
L 76.859375 0 
L 68.109375 0 
L 68.109375 32.671875 
Q 68.109375 37.9375 67.25 40.25 
Q 66.40625 42.578125 64.15625 43.984375 
Q 61.921875 45.40625 58.890625 45.40625 
Q 53.421875 45.40625 49.796875 41.765625 
Q 46.1875 38.140625 46.1875 30.125 
L 46.1875 0 
L 37.40625 0 
L 37.40625 33.6875 
Q 37.40625 39.546875 35.25 42.46875 
Q 33.109375 45.40625 28.21875 45.40625 
Q 24.515625 45.40625 21.359375 43.453125 
Q 18.21875 41.5 16.796875 37.734375 
Q 15.375 33.984375 15.375 26.90625 
L 15.375 0 
z
" id="ArialMT-109"/>
      <path d="M 6.59375 -19.875 
L 6.59375 51.859375 
L 14.59375 51.859375 
L 14.59375 45.125 
Q 17.4375 49.078125 21 51.046875 
Q 24.5625 53.03125 29.640625 53.03125 
Q 36.28125 53.03125 41.359375 49.609375 
Q 46.4375 46.1875 49.015625 39.953125 
Q 51.609375 33.734375 51.609375 26.3125 
Q 51.609375 18.359375 48.75 11.984375 
Q 45.90625 5.609375 40.453125 2.21875 
Q 35.015625 -1.171875 29 -1.171875 
Q 24.609375 -1.171875 21.109375 0.6875 
Q 17.625 2.546875 15.375 5.375 
L 15.375 -19.875 
z
M 14.546875 25.640625 
Q 14.546875 15.625 18.59375 10.84375 
Q 22.65625 6.0625 28.421875 6.0625 
Q 34.28125 6.0625 38.453125 11.015625 
Q 42.625 15.96875 42.625 26.375 
Q 42.625 36.28125 38.546875 41.203125 
Q 34.46875 46.140625 28.8125 46.140625 
Q 23.1875 46.140625 18.859375 40.890625 
Q 14.546875 35.640625 14.546875 25.640625 
z
" id="ArialMT-112"/>
      <path d="M 6.59375 0 
L 6.59375 51.859375 
L 14.5 51.859375 
L 14.5 44.484375 
Q 20.21875 53.03125 31 53.03125 
Q 35.6875 53.03125 39.625 51.34375 
Q 43.5625 49.65625 45.515625 46.921875 
Q 47.46875 44.1875 48.25 40.4375 
Q 48.734375 37.984375 48.734375 31.890625 
L 48.734375 0 
L 39.9375 0 
L 39.9375 31.546875 
Q 39.9375 36.921875 38.90625 39.578125 
Q 37.890625 42.234375 35.28125 43.8125 
Q 32.671875 45.40625 29.15625 45.40625 
Q 23.53125 45.40625 19.453125 41.84375 
Q 15.375 38.28125 15.375 28.328125 
L 15.375 0 
z
" id="ArialMT-110"/>
      <path d="M 42.09375 16.703125 
L 51.171875 15.578125 
Q 49.03125 7.625 43.21875 3.21875 
Q 37.40625 -1.171875 28.375 -1.171875 
Q 17 -1.171875 10.328125 5.828125 
Q 3.65625 12.84375 3.65625 25.484375 
Q 3.65625 38.578125 10.390625 45.796875 
Q 17.140625 53.03125 27.875 53.03125 
Q 38.28125 53.03125 44.875 45.953125 
Q 51.46875 38.875 51.46875 26.03125 
Q 51.46875 25.25 51.421875 23.6875 
L 12.75 23.6875 
Q 13.234375 15.140625 17.578125 10.59375 
Q 21.921875 6.0625 28.421875 6.0625 
Q 33.25 6.0625 36.671875 8.59375 
Q 40.09375 11.140625 42.09375 16.703125 
z
M 13.234375 30.90625 
L 42.1875 30.90625 
Q 41.609375 37.453125 38.875 40.71875 
Q 34.671875 45.796875 27.984375 45.796875 
Q 21.921875 45.796875 17.796875 41.75 
Q 13.671875 37.703125 13.234375 30.90625 
z
" id="ArialMT-101"/>
      <path d="M 25.78125 7.859375 
L 27.046875 0.09375 
Q 23.34375 -0.6875 20.40625 -0.6875 
Q 15.625 -0.6875 12.984375 0.828125 
Q 10.359375 2.34375 9.28125 4.8125 
Q 8.203125 7.28125 8.203125 15.1875 
L 8.203125 45.015625 
L 1.765625 45.015625 
L 1.765625 51.859375 
L 8.203125 51.859375 
L 8.203125 64.703125 
L 16.9375 69.96875 
L 16.9375 51.859375 
L 25.78125 51.859375 
L 25.78125 45.015625 
L 16.9375 45.015625 
L 16.9375 14.703125 
Q 16.9375 10.9375 17.40625 9.859375 
Q 17.875 8.796875 18.921875 8.15625 
Q 19.96875 7.515625 21.921875 7.515625 
Q 23.390625 7.515625 25.78125 7.859375 
z
" id="ArialMT-116"/>
      <path id="ArialMT-32"/>
      <path d="M 21 0 
L 1.265625 51.859375 
L 10.546875 51.859375 
L 21.6875 20.796875 
Q 23.484375 15.765625 25 10.359375 
Q 26.171875 14.453125 28.265625 20.21875 
L 39.796875 51.859375 
L 48.828125 51.859375 
L 29.203125 0 
z
" id="ArialMT-118"/>
      <path d="M 40.4375 6.390625 
Q 35.546875 2.25 31.03125 0.53125 
Q 26.515625 -1.171875 21.34375 -1.171875 
Q 12.796875 -1.171875 8.203125 3 
Q 3.609375 7.171875 3.609375 13.671875 
Q 3.609375 17.484375 5.34375 20.625 
Q 7.078125 23.78125 9.890625 25.6875 
Q 12.703125 27.59375 16.21875 28.5625 
Q 18.796875 29.25 24.03125 29.890625 
Q 34.671875 31.15625 39.703125 32.90625 
Q 39.75 34.71875 39.75 35.203125 
Q 39.75 40.578125 37.25 42.78125 
Q 33.890625 45.75 27.25 45.75 
Q 21.046875 45.75 18.09375 43.578125 
Q 15.140625 41.40625 13.71875 35.890625 
L 5.125 37.0625 
Q 6.296875 42.578125 8.984375 45.96875 
Q 11.671875 49.359375 16.75 51.1875 
Q 21.828125 53.03125 28.515625 53.03125 
Q 35.15625 53.03125 39.296875 51.46875 
Q 43.453125 49.90625 45.40625 47.53125 
Q 47.359375 45.171875 48.140625 41.546875 
Q 48.578125 39.3125 48.578125 33.453125 
L 48.578125 21.734375 
Q 48.578125 9.46875 49.140625 6.21875 
Q 49.703125 2.984375 51.375 0 
L 42.1875 0 
Q 40.828125 2.734375 40.4375 6.390625 
z
M 39.703125 26.03125 
Q 34.90625 24.078125 25.34375 22.703125 
Q 19.921875 21.921875 17.671875 20.9375 
Q 15.4375 19.96875 14.203125 18.09375 
Q 12.984375 16.21875 12.984375 13.921875 
Q 12.984375 10.40625 15.640625 8.0625 
Q 18.3125 5.71875 23.4375 5.71875 
Q 28.515625 5.71875 32.46875 7.9375 
Q 36.421875 10.15625 38.28125 14.015625 
Q 39.703125 17 39.703125 22.796875 
z
" id="ArialMT-97"/>
      <path d="M 6.390625 0 
L 6.390625 71.578125 
L 15.1875 71.578125 
L 15.1875 0 
z
" id="ArialMT-108"/>
      <path d="M 40.578125 0 
L 40.578125 7.625 
Q 34.515625 -1.171875 24.125 -1.171875 
Q 19.53125 -1.171875 15.546875 0.578125 
Q 11.578125 2.34375 9.640625 5 
Q 7.71875 7.671875 6.9375 11.53125 
Q 6.390625 14.109375 6.390625 19.734375 
L 6.390625 51.859375 
L 15.1875 51.859375 
L 15.1875 23.09375 
Q 15.1875 16.21875 15.71875 13.8125 
Q 16.546875 10.359375 19.234375 8.375 
Q 21.921875 6.390625 25.875 6.390625 
Q 29.828125 6.390625 33.296875 8.421875 
Q 36.765625 10.453125 38.203125 13.9375 
Q 39.65625 17.4375 39.65625 24.078125 
L 39.65625 51.859375 
L 48.4375 51.859375 
L 48.4375 0 
z
" id="ArialMT-117"/>
      <path d="M 3.078125 15.484375 
L 11.765625 16.84375 
Q 12.5 11.625 15.84375 8.84375 
Q 19.1875 6.0625 25.203125 6.0625 
Q 31.25 6.0625 34.171875 8.515625 
Q 37.109375 10.984375 37.109375 14.3125 
Q 37.109375 17.28125 34.515625 19 
Q 32.71875 20.171875 25.53125 21.96875 
Q 15.875 24.421875 12.140625 26.203125 
Q 8.40625 27.984375 6.46875 31.125 
Q 4.546875 34.28125 4.546875 38.09375 
Q 4.546875 41.546875 6.125 44.5 
Q 7.71875 47.46875 10.453125 49.421875 
Q 12.5 50.921875 16.03125 51.96875 
Q 19.578125 53.03125 23.640625 53.03125 
Q 29.734375 53.03125 34.34375 51.265625 
Q 38.96875 49.515625 41.15625 46.5 
Q 43.359375 43.5 44.1875 38.484375 
L 35.59375 37.3125 
Q 35.015625 41.3125 32.203125 43.546875 
Q 29.390625 45.796875 24.265625 45.796875 
Q 18.21875 45.796875 15.625 43.796875 
Q 13.03125 41.796875 13.03125 39.109375 
Q 13.03125 37.40625 14.109375 36.03125 
Q 15.1875 34.625 17.484375 33.6875 
Q 18.796875 33.203125 25.25 31.453125 
Q 34.578125 28.953125 38.25 27.359375 
Q 41.9375 25.78125 44.03125 22.75 
Q 46.140625 19.734375 46.140625 15.234375 
Q 46.140625 10.84375 43.578125 6.953125 
Q 41.015625 3.078125 36.171875 0.953125 
Q 31.34375 -1.171875 25.25 -1.171875 
Q 15.140625 -1.171875 9.84375 3.03125 
Q 4.546875 7.234375 3.078125 15.484375 
z
" id="ArialMT-115"/>
     </defs>
     <g style="fill:#262626;" transform="translate(209.735938 333.6525)scale(0.1 -0.1)">
      <use xlink:href="#ArialMT-67"/>
      <use x="72.216797" xlink:href="#ArialMT-111"/>
      <use x="127.832031" xlink:href="#ArialMT-109"/>
      <use x="211.132812" xlink:href="#ArialMT-112"/>
      <use x="266.748047" xlink:href="#ArialMT-111"/>
      <use x="322.363281" xlink:href="#ArialMT-110"/>
      <use x="377.978516" xlink:href="#ArialMT-101"/>
      <use x="433.59375" xlink:href="#ArialMT-110"/>
      <use x="489.208984" xlink:href="#ArialMT-116"/>
      <use x="516.992188" xlink:href="#ArialMT-32"/>
      <use x="544.775391" xlink:href="#ArialMT-118"/>
      <use x="594.775391" xlink:href="#ArialMT-97"/>
      <use x="650.390625" xlink:href="#ArialMT-108"/>
      <use x="672.607422" xlink:href="#ArialMT-117"/>
      <use x="728.222656" xlink:href="#ArialMT-101"/>
      <use x="783.837891" xlink:href="#ArialMT-115"/>
     </g>
    </g>
   </g>
   <g id="matplotlib.axis_2">
    <g id="ytick_1">
     <g id="line2d_7">
      <path clip-path="url(#p06d35145d7)" d="M 52.85 306.2275 
L 450 306.2275 
" style="fill:none;stroke:#cccccc;stroke-linecap:round;stroke-width:0.8;"/>
     </g>
     <g id="text_8">
      <!-- 0.00 -->
      <defs>
       <path d="M 9.078125 0 
L 9.078125 10.015625 
L 19.09375 10.015625 
L 19.09375 0 
z
" id="ArialMT-46"/>
      </defs>
      <g style="fill:#262626;" transform="translate(26.389063 309.806406)scale(0.1 -0.1)">
       <use xlink:href="#ArialMT-48"/>
       <use x="55.615234" xlink:href="#ArialMT-46"/>
       <use x="83.398438" xlink:href="#ArialMT-48"/>
       <use x="139.013672" xlink:href="#ArialMT-48"/>
      </g>
     </g>
    </g>
    <g id="ytick_2">
     <g id="line2d_8">
      <path clip-path="url(#p06d35145d7)" d="M 52.85 268.313645 
L 450 268.313645 
" style="fill:none;stroke:#cccccc;stroke-linecap:round;stroke-width:0.8;"/>
     </g>
     <g id="text_9">
      <!-- 0.05 -->
      <g style="fill:#262626;" transform="translate(26.389063 271.892551)scale(0.1 -0.1)">
       <use xlink:href="#ArialMT-48"/>
       <use x="55.615234" xlink:href="#ArialMT-46"/>
       <use x="83.398438" xlink:href="#ArialMT-48"/>
       <use x="139.013672" xlink:href="#ArialMT-53"/>
      </g>
     </g>
    </g>
    <g id="ytick_3">
     <g id="line2d_9">
      <path clip-path="url(#p06d35145d7)" d="M 52.85 230.39979 
L 450 230.39979 
" style="fill:none;stroke:#cccccc;stroke-linecap:round;stroke-width:0.8;"/>
     </g>
     <g id="text_10">
      <!-- 0.10 -->
      <g style="fill:#262626;" transform="translate(26.389063 233.978697)scale(0.1 -0.1)">
       <use xlink:href="#ArialMT-48"/>
       <use x="55.615234" xlink:href="#ArialMT-46"/>
       <use x="83.398438" xlink:href="#ArialMT-49"/>
       <use x="139.013672" xlink:href="#ArialMT-48"/>
      </g>
     </g>
    </g>
    <g id="ytick_4">
     <g id="line2d_10">
      <path clip-path="url(#p06d35145d7)" d="M 52.85 192.485935 
L 450 192.485935 
" style="fill:none;stroke:#cccccc;stroke-linecap:round;stroke-width:0.8;"/>
     </g>
     <g id="text_11">
      <!-- 0.15 -->
      <g style="fill:#262626;" transform="translate(26.389063 196.064842)scale(0.1 -0.1)">
       <use xlink:href="#ArialMT-48"/>
       <use x="55.615234" xlink:href="#ArialMT-46"/>
       <use x="83.398438" xlink:href="#ArialMT-49"/>
       <use x="139.013672" xlink:href="#ArialMT-53"/>
      </g>
     </g>
    </g>
    <g id="ytick_5">
     <g id="line2d_11">
      <path clip-path="url(#p06d35145d7)" d="M 52.85 154.572081 
L 450 154.572081 
" style="fill:none;stroke:#cccccc;stroke-linecap:round;stroke-width:0.8;"/>
     </g>
     <g id="text_12">
      <!-- 0.20 -->
      <defs>
       <path d="M 50.34375 8.453125 
L 50.34375 0 
L 3.03125 0 
Q 2.9375 3.171875 4.046875 6.109375 
Q 5.859375 10.9375 9.828125 15.625 
Q 13.8125 20.3125 21.34375 26.46875 
Q 33.015625 36.03125 37.109375 41.625 
Q 41.21875 47.21875 41.21875 52.203125 
Q 41.21875 57.421875 37.46875 61 
Q 33.734375 64.59375 27.734375 64.59375 
Q 21.390625 64.59375 17.578125 60.78125 
Q 13.765625 56.984375 13.71875 50.25 
L 4.6875 51.171875 
Q 5.609375 61.28125 11.65625 66.578125 
Q 17.71875 71.875 27.9375 71.875 
Q 38.234375 71.875 44.234375 66.15625 
Q 50.25 60.453125 50.25 52 
Q 50.25 47.703125 48.484375 43.546875 
Q 46.734375 39.40625 42.65625 34.8125 
Q 38.578125 30.21875 29.109375 22.21875 
Q 21.1875 15.578125 18.9375 13.203125 
Q 16.703125 10.84375 15.234375 8.453125 
z
" id="ArialMT-50"/>
      </defs>
      <g style="fill:#262626;" transform="translate(26.389063 158.150987)scale(0.1 -0.1)">
       <use xlink:href="#ArialMT-48"/>
       <use x="55.615234" xlink:href="#ArialMT-46"/>
       <use x="83.398438" xlink:href="#ArialMT-50"/>
       <use x="139.013672" xlink:href="#ArialMT-48"/>
      </g>
     </g>
    </g>
    <g id="ytick_6">
     <g id="line2d_12">
      <path clip-path="url(#p06d35145d7)" d="M 52.85 116.658226 
L 450 116.658226 
" style="fill:none;stroke:#cccccc;stroke-linecap:round;stroke-width:0.8;"/>
     </g>
     <g id="text_13">
      <!-- 0.25 -->
      <g style="fill:#262626;" transform="translate(26.389063 120.237132)scale(0.1 -0.1)">
       <use xlink:href="#ArialMT-48"/>
       <use x="55.615234" xlink:href="#ArialMT-46"/>
       <use x="83.398438" xlink:href="#ArialMT-50"/>
       <use x="139.013672" xlink:href="#ArialMT-53"/>
      </g>
     </g>
    </g>
    <g id="ytick_7">
     <g id="line2d_13">
      <path clip-path="url(#p06d35145d7)" d="M 52.85 78.744371 
L 450 78.744371 
" style="fill:none;stroke:#cccccc;stroke-linecap:round;stroke-width:0.8;"/>
     </g>
     <g id="text_14">
      <!-- 0.30 -->
      <defs>
       <path d="M 4.203125 18.890625 
L 12.984375 20.0625 
Q 14.5 12.59375 18.140625 9.296875 
Q 21.78125 6 27 6 
Q 33.203125 6 37.46875 10.296875 
Q 41.75 14.59375 41.75 20.953125 
Q 41.75 27 37.796875 30.921875 
Q 33.84375 34.859375 27.734375 34.859375 
Q 25.25 34.859375 21.53125 33.890625 
L 22.515625 41.609375 
Q 23.390625 41.5 23.921875 41.5 
Q 29.546875 41.5 34.03125 44.421875 
Q 38.53125 47.359375 38.53125 53.46875 
Q 38.53125 58.296875 35.25 61.46875 
Q 31.984375 64.65625 26.8125 64.65625 
Q 21.6875 64.65625 18.265625 61.421875 
Q 14.84375 58.203125 13.875 51.765625 
L 5.078125 53.328125 
Q 6.6875 62.15625 12.390625 67.015625 
Q 18.109375 71.875 26.609375 71.875 
Q 32.46875 71.875 37.390625 69.359375 
Q 42.328125 66.84375 44.9375 62.5 
Q 47.5625 58.15625 47.5625 53.265625 
Q 47.5625 48.640625 45.0625 44.828125 
Q 42.578125 41.015625 37.703125 38.765625 
Q 44.046875 37.3125 47.5625 32.6875 
Q 51.078125 28.078125 51.078125 21.140625 
Q 51.078125 11.765625 44.234375 5.25 
Q 37.40625 -1.265625 26.953125 -1.265625 
Q 17.53125 -1.265625 11.296875 4.34375 
Q 5.078125 9.96875 4.203125 18.890625 
z
" id="ArialMT-51"/>
      </defs>
      <g style="fill:#262626;" transform="translate(26.389063 82.323277)scale(0.1 -0.1)">
       <use xlink:href="#ArialMT-48"/>
       <use x="55.615234" xlink:href="#ArialMT-46"/>
       <use x="83.398438" xlink:href="#ArialMT-51"/>
       <use x="139.013672" xlink:href="#ArialMT-48"/>
      </g>
     </g>
    </g>
    <g id="ytick_8">
     <g id="line2d_14">
      <path clip-path="url(#p06d35145d7)" d="M 52.85 40.830516 
L 450 40.830516 
" style="fill:none;stroke:#cccccc;stroke-linecap:round;stroke-width:0.8;"/>
     </g>
     <g id="text_15">
      <!-- 0.35 -->
      <g style="fill:#262626;" transform="translate(26.389063 44.409422)scale(0.1 -0.1)">
       <use xlink:href="#ArialMT-48"/>
       <use x="55.615234" xlink:href="#ArialMT-46"/>
       <use x="83.398438" xlink:href="#ArialMT-51"/>
       <use x="139.013672" xlink:href="#ArialMT-53"/>
      </g>
     </g>
    </g>
    <g id="text_16">
     <!-- $P(x)$ -->
     <defs>
      <path d="M 16.890625 72.90625 
L 39.703125 72.90625 
Q 49.65625 72.90625 54.875 68.265625 
Q 60.109375 63.625 60.109375 54.6875 
Q 60.109375 42.671875 52.390625 35.984375 
Q 44.671875 29.296875 30.71875 29.296875 
L 18.3125 29.296875 
L 12.59375 0 
L 2.6875 0 
z
M 25.203125 64.796875 
L 19.921875 37.40625 
L 32.328125 37.40625 
Q 40.71875 37.40625 45.203125 41.703125 
Q 49.703125 46 49.703125 54 
Q 49.703125 59.125 46.65625 61.953125 
Q 43.609375 64.796875 38.09375 64.796875 
z
" id="DejaVuSans-Oblique-80"/>
      <path d="M 31 75.875 
Q 24.46875 64.65625 21.28125 53.65625 
Q 18.109375 42.671875 18.109375 31.390625 
Q 18.109375 20.125 21.3125 9.0625 
Q 24.515625 -2 31 -13.1875 
L 23.1875 -13.1875 
Q 15.875 -1.703125 12.234375 9.375 
Q 8.59375 20.453125 8.59375 31.390625 
Q 8.59375 42.28125 12.203125 53.3125 
Q 15.828125 64.359375 23.1875 75.875 
z
" id="DejaVuSans-40"/>
      <path d="M 60.015625 54.6875 
L 34.90625 27.875 
L 50.296875 0 
L 39.984375 0 
L 28.421875 21.6875 
L 8.296875 0 
L -2.59375 0 
L 24.3125 28.8125 
L 10.015625 54.6875 
L 20.3125 54.6875 
L 30.8125 34.90625 
L 49.125 54.6875 
z
" id="DejaVuSans-Oblique-120"/>
      <path d="M 8.015625 75.875 
L 15.828125 75.875 
Q 23.140625 64.359375 26.78125 53.3125 
Q 30.421875 42.28125 30.421875 31.390625 
Q 30.421875 20.453125 26.78125 9.375 
Q 23.140625 -1.703125 15.828125 -13.1875 
L 8.015625 -13.1875 
Q 14.5 -2 17.703125 9.0625 
Q 20.90625 20.125 20.90625 31.390625 
Q 20.90625 42.671875 17.703125 53.65625 
Q 14.5 64.65625 8.015625 75.875 
z
" id="DejaVuSans-41"/>
     </defs>
     <g style="fill:#262626;" transform="translate(20.401563 168.41375)rotate(-90)scale(0.1 -0.1)">
      <use transform="translate(0 0.125)" xlink:href="#DejaVuSans-Oblique-80"/>
      <use transform="translate(60.302734 0.125)" xlink:href="#DejaVuSans-40"/>
      <use transform="translate(99.316406 0.125)" xlink:href="#DejaVuSans-Oblique-120"/>
      <use transform="translate(158.496094 0.125)" xlink:href="#DejaVuSans-41"/>
     </g>
    </g>
   </g>
   <g id="PolyCollection_1">
    <defs>
     <path d="M 70.902273 -39.40001 
L 70.902273 -39.3725 
L 73.73507 -39.3725 
L 76.567868 -39.3725 
L 79.400666 -39.3725 
L 82.233464 -39.3725 
L 85.066261 -39.3725 
L 87.899059 -39.3725 
L 90.731857 -39.3725 
L 93.564655 -39.3725 
L 96.397453 -39.3725 
L 99.23025 -39.3725 
L 102.063048 -39.3725 
L 104.895846 -39.3725 
L 107.728644 -39.3725 
L 110.561441 -39.3725 
L 113.394239 -39.3725 
L 116.227037 -39.3725 
L 119.059835 -39.3725 
L 121.892632 -39.3725 
L 124.72543 -39.3725 
L 127.558228 -39.3725 
L 130.391026 -39.3725 
L 133.223823 -39.3725 
L 136.056621 -39.3725 
L 138.889419 -39.3725 
L 141.722217 -39.3725 
L 144.555014 -39.3725 
L 147.387812 -39.3725 
L 150.22061 -39.3725 
L 153.053408 -39.3725 
L 155.886205 -39.3725 
L 158.719003 -39.3725 
L 161.551801 -39.3725 
L 164.384599 -39.3725 
L 167.217396 -39.3725 
L 170.050194 -39.3725 
L 172.882992 -39.3725 
L 175.71579 -39.3725 
L 178.548587 -39.3725 
L 181.381385 -39.3725 
L 184.214183 -39.3725 
L 187.046981 -39.3725 
L 189.879778 -39.3725 
L 192.712576 -39.3725 
L 195.545374 -39.3725 
L 198.378172 -39.3725 
L 201.210969 -39.3725 
L 204.043767 -39.3725 
L 206.876565 -39.3725 
L 209.709363 -39.3725 
L 212.54216 -39.3725 
L 215.374958 -39.3725 
L 218.207756 -39.3725 
L 221.040554 -39.3725 
L 223.873351 -39.3725 
L 226.706149 -39.3725 
L 229.538947 -39.3725 
L 232.371745 -39.3725 
L 235.204542 -39.3725 
L 238.03734 -39.3725 
L 240.870138 -39.3725 
L 243.702936 -39.3725 
L 246.535733 -39.3725 
L 249.368531 -39.3725 
L 252.201329 -39.3725 
L 255.034127 -39.3725 
L 257.866924 -39.3725 
L 260.699722 -39.3725 
L 263.53252 -39.3725 
L 266.365318 -39.3725 
L 269.198115 -39.3725 
L 272.030913 -39.3725 
L 274.863711 -39.3725 
L 277.696509 -39.3725 
L 280.529306 -39.3725 
L 283.362104 -39.3725 
L 286.194902 -39.3725 
L 289.0277 -39.3725 
L 291.860498 -39.3725 
L 294.693295 -39.3725 
L 297.526093 -39.3725 
L 300.358891 -39.3725 
L 303.191689 -39.3725 
L 306.024486 -39.3725 
L 308.857284 -39.3725 
L 311.690082 -39.3725 
L 314.52288 -39.3725 
L 317.355677 -39.3725 
L 320.188475 -39.3725 
L 323.021273 -39.3725 
L 325.854071 -39.3725 
L 328.686868 -39.3725 
L 331.519666 -39.3725 
L 334.352464 -39.3725 
L 337.185262 -39.3725 
L 340.018059 -39.3725 
L 342.850857 -39.3725 
L 345.683655 -39.3725 
L 348.516453 -39.3725 
L 351.34925 -39.3725 
L 354.182048 -39.3725 
L 357.014846 -39.3725 
L 359.847644 -39.3725 
L 362.680441 -39.3725 
L 365.513239 -39.3725 
L 368.346037 -39.3725 
L 371.178835 -39.3725 
L 374.011632 -39.3725 
L 376.84443 -39.3725 
L 379.677228 -39.3725 
L 382.510026 -39.3725 
L 385.342823 -39.3725 
L 388.175621 -39.3725 
L 391.008419 -39.3725 
L 393.841217 -39.3725 
L 396.674014 -39.3725 
L 399.506812 -39.3725 
L 402.33961 -39.3725 
L 405.172408 -39.3725 
L 408.005205 -39.3725 
L 410.838003 -39.3725 
L 413.670801 -39.3725 
L 416.503599 -39.3725 
L 419.336396 -39.3725 
L 422.169194 -39.3725 
L 425.001992 -39.3725 
L 427.83479 -39.3725 
L 430.667587 -39.3725 
L 430.667587 -39.380006 
L 430.667587 -39.380006 
L 427.83479 -39.386085 
L 425.001992 -39.420657 
L 422.169194 -39.528477 
L 419.336396 -39.827517 
L 416.503599 -40.583306 
L 413.670801 -42.291584 
L 410.838003 -45.622693 
L 408.005205 -51.028509 
L 405.172408 -58.113204 
L 402.33961 -65.426848 
L 399.506812 -71.303293 
L 396.674014 -75.234318 
L 393.841217 -78.294222 
L 391.008419 -81.935177 
L 388.175621 -86.347207 
L 385.342823 -90.138344 
L 382.510026 -91.6431 
L 379.677228 -90.436366 
L 376.84443 -87.501663 
L 374.011632 -84.08276 
L 371.178835 -80.727048 
L 368.346037 -77.612569 
L 365.513239 -75.461929 
L 362.680441 -75.478285 
L 359.847644 -77.946974 
L 357.014846 -81.041997 
L 354.182048 -81.591682 
L 351.34925 -77.490628 
L 348.516453 -69.410864 
L 345.683655 -60.162447 
L 342.850857 -52.676832 
L 340.018059 -48.684912 
L 337.185262 -48.698466 
L 334.352464 -52.347343 
L 331.519666 -58.342163 
L 328.686868 -64.433305 
L 325.854071 -68.062582 
L 323.021273 -67.637781 
L 320.188475 -63.483933 
L 317.355677 -57.575832 
L 314.52288 -52.205854 
L 311.690082 -48.712965 
L 308.857284 -47.175148 
L 306.024486 -46.908559 
L 303.191689 -47.060707 
L 300.358891 -46.93667 
L 297.526093 -46.164732 
L 294.693295 -44.787581 
L 291.860498 -43.17102 
L 289.0277 -41.7305 
L 286.194902 -40.6964 
L 283.362104 -40.077977 
L 280.529306 -39.764313 
L 277.696509 -39.628828 
L 274.863711 -39.579368 
L 272.030913 -39.564195 
L 269.198115 -39.559877 
L 266.365318 -39.558236 
L 263.53252 -39.557708 
L 260.699722 -39.558473 
L 257.866924 -39.560588 
L 255.034127 -39.563851 
L 252.201329 -39.56746 
L 249.368531 -39.570027 
L 246.535733 -39.570824 
L 243.702936 -39.570017 
L 240.870138 -39.567136 
L 238.03734 -39.561393 
L 235.204542 -39.554493 
L 232.371745 -39.551326 
L 229.538947 -39.557051 
L 226.706149 -39.57506 
L 223.873351 -39.608892 
L 221.040554 -39.665569 
L 218.207756 -39.757039 
L 215.374958 -39.902838 
L 212.54216 -40.14775 
L 209.709363 -40.610651 
L 206.876565 -41.553447 
L 204.043767 -43.407133 
L 201.210969 -46.677663 
L 198.378172 -51.739127 
L 195.545374 -58.644637 
L 192.712576 -67.080782 
L 189.879778 -76.464674 
L 187.046981 -86.145936 
L 184.214183 -95.665623 
L 181.381385 -104.836444 
L 178.548587 -113.420831 
L 175.71579 -120.680269 
L 172.882992 -125.377237 
L 170.050194 -126.408467 
L 167.217396 -123.584798 
L 164.384599 -117.866632 
L 161.551801 -110.900517 
L 158.719003 -104.367901 
L 155.886205 -99.576408 
L 153.053408 -97.21101 
L 150.22061 -97.147347 
L 147.387812 -98.54378 
L 144.555014 -100.285341 
L 141.722217 -101.422586 
L 138.889419 -101.277985 
L 136.056621 -99.358943 
L 133.223823 -95.431577 
L 130.391026 -89.752591 
L 127.558228 -83.079683 
L 124.72543 -76.360917 
L 121.892632 -70.507403 
L 119.059835 -66.456807 
L 116.227037 -65.145691 
L 113.394239 -67.030793 
L 110.561441 -71.440128 
L 107.728644 -76.506159 
L 104.895846 -80.101632 
L 102.063048 -81.09479 
L 99.23025 -79.611187 
L 96.397453 -76.096884 
L 93.564655 -70.600767 
L 90.731857 -63.301904 
L 87.899059 -55.315505 
L 85.066261 -48.355924 
L 82.233464 -43.57711 
L 79.400666 -40.98963 
L 76.567868 -39.880433 
L 73.73507 -39.502407 
L 70.902273 -39.40001 
z
" id="mabeb8b03aa" style="stroke:#ffffff;stroke-opacity:0.25;"/>
    </defs>
    <g clip-path="url(#p06d35145d7)">
     <use style="fill:#1f77b4;fill-opacity:0.25;stroke:#ffffff;stroke-opacity:0.25;" x="0" xlink:href="#mabeb8b03aa" y="345.6"/>
    </g>
   </g>
   <g id="PolyCollection_2">
    <defs>
     <path d="M 77.357196 -39.39436 
L 77.357196 -39.3725 
L 80.149247 -39.3725 
L 82.941299 -39.3725 
L 85.73335 -39.3725 
L 88.525402 -39.3725 
L 91.317453 -39.3725 
L 94.109504 -39.3725 
L 96.901556 -39.3725 
L 99.693607 -39.3725 
L 102.485659 -39.3725 
L 105.27771 -39.3725 
L 108.069762 -39.3725 
L 110.861813 -39.3725 
L 113.653864 -39.3725 
L 116.445916 -39.3725 
L 119.237967 -39.3725 
L 122.030019 -39.3725 
L 124.82207 -39.3725 
L 127.614122 -39.3725 
L 130.406173 -39.3725 
L 133.198224 -39.3725 
L 135.990276 -39.3725 
L 138.782327 -39.3725 
L 141.574379 -39.3725 
L 144.36643 -39.3725 
L 147.158482 -39.3725 
L 149.950533 -39.3725 
L 152.742584 -39.3725 
L 155.534636 -39.3725 
L 158.326687 -39.3725 
L 161.118739 -39.3725 
L 163.91079 -39.3725 
L 166.702842 -39.3725 
L 169.494893 -39.3725 
L 172.286944 -39.3725 
L 175.078996 -39.3725 
L 177.871047 -39.3725 
L 180.663099 -39.3725 
L 183.45515 -39.3725 
L 186.247202 -39.3725 
L 189.039253 -39.3725 
L 191.831304 -39.3725 
L 194.623356 -39.3725 
L 197.415407 -39.3725 
L 200.207459 -39.3725 
L 202.99951 -39.3725 
L 205.791562 -39.3725 
L 208.583613 -39.3725 
L 211.375664 -39.3725 
L 214.167716 -39.3725 
L 216.959767 -39.3725 
L 219.751819 -39.3725 
L 222.54387 -39.3725 
L 225.335922 -39.3725 
L 228.127973 -39.3725 
L 230.920024 -39.3725 
L 233.712076 -39.3725 
L 236.504127 -39.3725 
L 239.296179 -39.3725 
L 242.08823 -39.3725 
L 244.880282 -39.3725 
L 247.672333 -39.3725 
L 250.464384 -39.3725 
L 253.256436 -39.3725 
L 256.048487 -39.3725 
L 258.840539 -39.3725 
L 261.63259 -39.3725 
L 264.424642 -39.3725 
L 267.216693 -39.3725 
L 270.008744 -39.3725 
L 272.800796 -39.3725 
L 275.592847 -39.3725 
L 278.384899 -39.3725 
L 281.17695 -39.3725 
L 283.969002 -39.3725 
L 286.761053 -39.3725 
L 289.553104 -39.3725 
L 292.345156 -39.3725 
L 295.137207 -39.3725 
L 297.929259 -39.3725 
L 300.72131 -39.3725 
L 303.513362 -39.3725 
L 306.305413 -39.3725 
L 309.097464 -39.3725 
L 311.889516 -39.3725 
L 314.681567 -39.3725 
L 317.473619 -39.3725 
L 320.26567 -39.3725 
L 323.057722 -39.3725 
L 325.849773 -39.3725 
L 328.641824 -39.3725 
L 331.433876 -39.3725 
L 334.225927 -39.3725 
L 337.017979 -39.3725 
L 339.81003 -39.3725 
L 342.602082 -39.3725 
L 345.394133 -39.3725 
L 348.186184 -39.3725 
L 350.978236 -39.3725 
L 353.770287 -39.3725 
L 356.562339 -39.3725 
L 359.35439 -39.3725 
L 362.146442 -39.3725 
L 364.938493 -39.3725 
L 367.730544 -39.3725 
L 370.522596 -39.3725 
L 373.314647 -39.3725 
L 376.106699 -39.3725 
L 378.89875 -39.3725 
L 381.690802 -39.3725 
L 384.482853 -39.3725 
L 387.274904 -39.3725 
L 390.066956 -39.3725 
L 392.859007 -39.3725 
L 395.651059 -39.3725 
L 398.44311 -39.3725 
L 401.235162 -39.3725 
L 404.027213 -39.3725 
L 406.819264 -39.3725 
L 409.611316 -39.3725 
L 412.403367 -39.3725 
L 415.195419 -39.3725 
L 417.98747 -39.3725 
L 420.779522 -39.3725 
L 423.571573 -39.3725 
L 426.363624 -39.3725 
L 429.155676 -39.3725 
L 431.947727 -39.3725 
L 431.947727 -39.395229 
L 431.947727 -39.395229 
L 429.155676 -39.460117 
L 426.363624 -39.692307 
L 423.571573 -40.335041 
L 420.779522 -41.756451 
L 417.98747 -44.257671 
L 415.195419 -47.74349 
L 412.403367 -51.603523 
L 409.611316 -55.116921 
L 406.819264 -58.053757 
L 404.027213 -60.722911 
L 401.235162 -63.388956 
L 398.44311 -65.902042 
L 395.651059 -68.069257 
L 392.859007 -70.20813 
L 390.066956 -73.154089 
L 387.274904 -77.807782 
L 384.482853 -84.670378 
L 381.690802 -93.414668 
L 378.89875 -102.480226 
L 376.106699 -109.18623 
L 373.314647 -110.83306 
L 370.522596 -106.326796 
L 367.730544 -97.026556 
L 364.938493 -85.882246 
L 362.146442 -75.461055 
L 359.35439 -66.654149 
L 356.562339 -59.114833 
L 353.770287 -52.534836 
L 350.978236 -47.222576 
L 348.186184 -43.723435 
L 345.394133 -42.36022 
L 342.602082 -43.20987 
L 339.81003 -46.165819 
L 337.017979 -50.689867 
L 334.225927 -55.515861 
L 331.433876 -58.899367 
L 328.641824 -59.491623 
L 325.849773 -57.168249 
L 323.057722 -53.087515 
L 320.26567 -48.936133 
L 317.473619 -45.979669 
L 314.681567 -44.577193 
L 311.889516 -44.341432 
L 309.097464 -44.628833 
L 306.305413 -44.920022 
L 303.513362 -44.916283 
L 300.72131 -44.493743 
L 297.929259 -43.680681 
L 295.137207 -42.642503 
L 292.345156 -41.60408 
L 289.553104 -40.741919 
L 286.761053 -40.127958 
L 283.969002 -39.745407 
L 281.17695 -39.535504 
L 278.384899 -39.435402 
L 275.592847 -39.39822 
L 272.800796 -39.404675 
L 270.008744 -39.479 
L 267.216693 -39.715235 
L 264.424642 -40.29194 
L 261.63259 -41.41084 
L 258.840539 -43.112884 
L 256.048487 -45.080296 
L 253.256436 -46.690538 
L 250.464384 -47.420528 
L 247.672333 -47.243926 
L 244.880282 -46.570942 
L 242.08823 -45.836297 
L 239.296179 -45.26044 
L 236.504127 -44.953173 
L 233.712076 -45.016439 
L 230.920024 -45.417401 
L 228.127973 -45.863151 
L 225.335922 -45.969807 
L 222.54387 -45.615175 
L 219.751819 -45.107261 
L 216.959767 -45.020049 
L 214.167716 -45.883998 
L 211.375664 -47.97174 
L 208.583613 -51.258261 
L 205.791562 -55.542295 
L 202.99951 -60.706978 
L 200.207459 -66.929457 
L 197.415407 -74.498025 
L 194.623356 -83.310049 
L 191.831304 -92.690598 
L 189.039253 -101.773735 
L 186.247202 -109.796071 
L 183.45515 -115.900824 
L 180.663099 -119.086653 
L 177.871047 -118.794563 
L 175.078996 -115.440605 
L 172.286944 -110.102539 
L 169.494893 -103.774787 
L 166.702842 -97.098339 
L 163.91079 -90.656365 
L 161.118739 -85.294923 
L 158.326687 -82.149474 
L 155.534636 -82.344831 
L 152.742584 -86.396018 
L 149.950533 -93.59791 
L 147.158482 -101.962511 
L 144.36643 -108.939981 
L 141.574379 -112.488615 
L 138.782327 -111.831805 
L 135.990276 -107.556244 
L 133.198224 -101.119264 
L 130.406173 -94.124896 
L 127.614122 -87.8058 
L 124.82207 -82.915844 
L 122.030019 -79.858135 
L 119.237967 -78.696023 
L 116.445916 -78.94681 
L 113.653864 -79.527527 
L 110.861813 -79.215549 
L 108.069762 -77.298686 
L 105.27771 -73.726997 
L 102.485659 -68.744204 
L 99.693607 -62.663199 
L 96.901556 -56.061511 
L 94.109504 -49.887099 
L 91.317453 -45.066619 
L 88.525402 -41.980557 
L 85.73335 -40.372244 
L 82.941299 -39.691177 
L 80.149247 -39.457096 
L 77.357196 -39.39436 
z
" id="ma6e991a038" style="stroke:#ffffff;stroke-opacity:0.25;"/>
    </defs>
    <g clip-path="url(#p06d35145d7)">
     <use style="fill:#ff7f0e;fill-opacity:0.25;stroke:#ffffff;stroke-opacity:0.25;" x="0" xlink:href="#ma6e991a038" y="345.6"/>
    </g>
   </g>
   <g id="PolyCollection_3">
    <defs>
     <path d="M 184.992447 -39.676744 
L 184.992447 -39.3725 
L 185.737822 -39.3725 
L 186.483196 -39.3725 
L 187.228571 -39.3725 
L 187.973946 -39.3725 
L 188.719321 -39.3725 
L 189.464696 -39.3725 
L 190.21007 -39.3725 
L 190.955445 -39.3725 
L 191.70082 -39.3725 
L 192.446195 -39.3725 
L 193.19157 -39.3725 
L 193.936944 -39.3725 
L 194.682319 -39.3725 
L 195.427694 -39.3725 
L 196.173069 -39.3725 
L 196.918444 -39.3725 
L 197.663819 -39.3725 
L 198.409193 -39.3725 
L 199.154568 -39.3725 
L 199.899943 -39.3725 
L 200.645318 -39.3725 
L 201.390693 -39.3725 
L 202.136067 -39.3725 
L 202.881442 -39.3725 
L 203.626817 -39.3725 
L 204.372192 -39.3725 
L 205.117567 -39.3725 
L 205.862941 -39.3725 
L 206.608316 -39.3725 
L 207.353691 -39.3725 
L 208.099066 -39.3725 
L 208.844441 -39.3725 
L 209.589816 -39.3725 
L 210.33519 -39.3725 
L 211.080565 -39.3725 
L 211.82594 -39.3725 
L 212.571315 -39.3725 
L 213.31669 -39.3725 
L 214.062064 -39.3725 
L 214.807439 -39.3725 
L 215.552814 -39.3725 
L 216.298189 -39.3725 
L 217.043564 -39.3725 
L 217.788938 -39.3725 
L 218.534313 -39.3725 
L 219.279688 -39.3725 
L 220.025063 -39.3725 
L 220.770438 -39.3725 
L 221.515812 -39.3725 
L 222.261187 -39.3725 
L 223.006562 -39.3725 
L 223.751937 -39.3725 
L 224.497312 -39.3725 
L 225.242687 -39.3725 
L 225.988061 -39.3725 
L 226.733436 -39.3725 
L 227.478811 -39.3725 
L 228.224186 -39.3725 
L 228.969561 -39.3725 
L 229.714935 -39.3725 
L 230.46031 -39.3725 
L 231.205685 -39.3725 
L 231.95106 -39.3725 
L 232.696435 -39.3725 
L 233.441809 -39.3725 
L 234.187184 -39.3725 
L 234.932559 -39.3725 
L 235.677934 -39.3725 
L 236.423309 -39.3725 
L 237.168684 -39.3725 
L 237.914058 -39.3725 
L 238.659433 -39.3725 
L 239.404808 -39.3725 
L 240.150183 -39.3725 
L 240.895558 -39.3725 
L 241.640932 -39.3725 
L 242.386307 -39.3725 
L 243.131682 -39.3725 
L 243.877057 -39.3725 
L 244.622432 -39.3725 
L 245.367806 -39.3725 
L 246.113181 -39.3725 
L 246.858556 -39.3725 
L 247.603931 -39.3725 
L 248.349306 -39.3725 
L 249.09468 -39.3725 
L 249.840055 -39.3725 
L 250.58543 -39.3725 
L 251.330805 -39.3725 
L 252.07618 -39.3725 
L 252.821555 -39.3725 
L 253.566929 -39.3725 
L 254.312304 -39.3725 
L 255.057679 -39.3725 
L 255.803054 -39.3725 
L 256.548429 -39.3725 
L 257.293803 -39.3725 
L 258.039178 -39.3725 
L 258.784553 -39.3725 
L 259.529928 -39.3725 
L 260.275303 -39.3725 
L 261.020677 -39.3725 
L 261.766052 -39.3725 
L 262.511427 -39.3725 
L 263.256802 -39.3725 
L 264.002177 -39.3725 
L 264.747552 -39.3725 
L 265.492926 -39.3725 
L 266.238301 -39.3725 
L 266.983676 -39.3725 
L 267.729051 -39.3725 
L 268.474426 -39.3725 
L 269.2198 -39.3725 
L 269.965175 -39.3725 
L 270.71055 -39.3725 
L 271.455925 -39.3725 
L 272.2013 -39.3725 
L 272.946674 -39.3725 
L 273.692049 -39.3725 
L 274.437424 -39.3725 
L 275.182799 -39.3725 
L 275.928174 -39.3725 
L 276.673548 -39.3725 
L 277.418923 -39.3725 
L 278.164298 -39.3725 
L 278.909673 -39.3725 
L 279.655048 -39.3725 
L 279.655048 -39.68945 
L 279.655048 -39.68945 
L 278.909673 -39.753789 
L 278.164298 -39.874495 
L 277.418923 -40.061284 
L 276.673548 -40.328651 
L 275.928174 -40.695662 
L 275.182799 -41.185643 
L 274.437424 -41.82568 
L 273.692049 -42.645831 
L 272.946674 -43.677995 
L 272.2013 -44.954417 
L 271.455925 -46.505854 
L 270.71055 -48.359483 
L 269.965175 -50.536716 
L 269.2198 -53.05112 
L 268.474426 -55.906696 
L 267.729051 -59.096775 
L 266.983676 -62.603761 
L 266.238301 -66.399908 
L 265.492926 -70.449171 
L 264.747552 -74.71009 
L 264.002177 -79.139469 
L 263.256802 -83.696507 
L 262.511427 -88.346903 
L 261.766052 -93.066405 
L 261.020677 -97.843299 
L 260.275303 -102.679378 
L 259.529928 -107.589119 
L 258.784553 -112.596986 
L 258.039178 -117.732996 
L 257.293803 -123.026933 
L 256.548429 -128.501756 
L 255.803054 -134.166904 
L 255.057679 -140.012201 
L 254.312304 -146.003074 
L 253.566929 -152.077619 
L 252.821555 -158.145917 
L 252.07618 -164.09176 
L 251.330805 -169.77672 
L 250.58543 -175.0463 
L 249.840055 -179.737722 
L 249.09468 -183.688792 
L 248.349306 -186.747213 
L 247.603931 -188.779685 
L 246.858556 -189.680183 
L 246.113181 -189.376849 
L 245.367806 -187.837043 
L 244.622432 -185.070227 
L 243.877057 -181.128482 
L 243.131682 -176.104638 
L 242.386307 -170.128158 
L 241.640932 -163.35906 
L 240.895558 -155.980347 
L 240.150183 -148.189495 
L 239.404808 -140.189665 
L 238.659433 -132.181281 
L 237.914058 -124.354633 
L 237.168684 -116.884002 
L 236.423309 -109.923697 
L 235.677934 -103.606164 
L 234.932559 -98.042129 
L 234.187184 -93.322533 
L 233.441809 -89.521799 
L 232.696435 -86.701902 
L 231.95106 -84.916581 
L 231.205685 -84.215092 
L 230.46031 -84.644942 
L 229.714935 -86.253199 
L 228.969561 -89.08614 
L 228.224186 -93.187199 
L 227.478811 -98.593367 
L 226.733436 -105.330361 
L 225.988061 -113.407027 
L 225.242687 -122.809469 
L 224.497312 -133.495484 
L 223.751937 -145.389778 
L 223.006562 -158.380426 
L 222.261187 -172.316888 
L 221.515812 -187.009821 
L 220.770438 -202.232755 
L 220.025063 -217.725656 
L 219.279688 -233.200232 
L 218.534313 -248.346829 
L 217.788938 -262.842669 
L 217.043564 -276.361128 
L 216.298189 -288.581766 
L 215.552814 -299.200727 
L 214.807439 -307.941155 
L 214.062064 -314.563214 
L 213.31669 -318.8733 
L 212.571315 -320.732024 
L 211.82594 -320.060537 
L 211.080565 -316.844835 
L 210.33519 -311.137696 
L 209.589816 -303.058024 
L 208.844441 -292.787476 
L 208.099066 -280.564395 
L 207.353691 -266.67523 
L 206.608316 -251.443796 
L 205.862941 -235.218881 
L 205.117567 -218.360835 
L 204.372192 -201.227871 
L 203.626817 -184.162852 
L 202.881442 -167.481299 
L 202.136067 -151.461285 
L 201.390693 -136.335734 
L 200.645318 -122.287452 
L 199.899943 -109.447028 
L 199.154568 -97.893499 
L 198.409193 -87.657512 
L 197.663819 -78.726535 
L 196.918444 -71.051561 
L 196.173069 -64.554718 
L 195.427694 -59.137177 
L 194.682319 -54.686839 
L 193.936944 -51.085342 
L 193.19157 -48.214091 
L 192.446195 -45.959102 
L 191.70082 -44.21461 
L 190.955445 -42.885472 
L 190.21007 -41.888493 
L 189.464696 -41.152857 
L 188.719321 -40.619861 
L 187.973946 -40.242177 
L 187.228571 -39.982828 
L 186.483196 -39.814053 
L 185.737822 -39.716203 
L 184.992447 -39.676744 
z
" id="m63b079ece6" style="stroke:#ffffff;stroke-opacity:0.25;"/>
    </defs>
    <g clip-path="url(#p06d35145d7)">
     <use style="fill:#2ca02c;fill-opacity:0.25;stroke:#ffffff;stroke-opacity:0.25;" x="0" xlink:href="#m63b079ece6" y="345.6"/>
    </g>
   </g>
   <g id="line2d_15">
    <path clip-path="url(#p06d35145d7)" d="M 70.902273 306.19999 
L 73.73507 306.097593 
L 76.567868 305.719567 
L 79.400666 304.61037 
L 82.233464 302.02289 
L 85.066261 297.244076 
L 87.899059 290.284495 
L 90.731857 282.298096 
L 93.564655 274.999233 
L 96.397453 269.503116 
L 99.23025 265.988813 
L 102.063048 264.50521 
L 104.895846 265.498368 
L 107.728644 269.093841 
L 110.561441 274.159872 
L 113.394239 278.569207 
L 116.227037 280.454309 
L 119.059835 279.143193 
L 121.892632 275.092597 
L 124.72543 269.239083 
L 130.391026 255.847409 
L 133.223823 250.168423 
L 136.056621 246.241057 
L 138.889419 244.322015 
L 141.722217 244.177414 
L 144.555014 245.314659 
L 147.387812 247.05622 
L 150.22061 248.452653 
L 153.053408 248.38899 
L 155.886205 246.023592 
L 158.719003 241.232099 
L 161.551801 234.699483 
L 164.384599 227.733368 
L 167.217396 222.015202 
L 170.050194 219.191533 
L 172.882992 220.222763 
L 175.71579 224.919731 
L 178.548587 232.179169 
L 181.381385 240.763556 
L 187.046981 259.454064 
L 192.712576 278.519218 
L 195.545374 286.955363 
L 198.378172 293.860873 
L 201.210969 298.922337 
L 204.043767 302.192867 
L 206.876565 304.046553 
L 209.709363 304.989349 
L 212.54216 305.45225 
L 218.207756 305.842961 
L 226.706149 306.02494 
L 243.702936 306.029983 
L 277.696509 305.971172 
L 280.529306 305.835687 
L 283.362104 305.522023 
L 286.194902 304.9036 
L 289.0277 303.8695 
L 291.860498 302.42898 
L 294.693295 300.812419 
L 297.526093 299.435268 
L 300.358891 298.66333 
L 303.191689 298.539293 
L 306.024486 298.691441 
L 308.857284 298.424852 
L 311.690082 296.887035 
L 314.52288 293.394146 
L 317.355677 288.024168 
L 320.188475 282.116067 
L 323.021273 277.962219 
L 325.854071 277.537418 
L 328.686868 281.166695 
L 334.352464 293.252657 
L 337.185262 296.901534 
L 340.018059 296.915088 
L 342.850857 292.923168 
L 345.683655 285.437553 
L 348.516453 276.189136 
L 351.34925 268.109372 
L 354.182048 264.008318 
L 357.014846 264.558003 
L 359.847644 267.653026 
L 362.680441 270.121715 
L 365.513239 270.138071 
L 368.346037 267.987431 
L 371.178835 264.872952 
L 376.84443 258.098337 
L 379.677228 255.163634 
L 382.510026 253.9569 
L 385.342823 255.461656 
L 388.175621 259.252793 
L 391.008419 263.664823 
L 393.841217 267.305778 
L 396.674014 270.365682 
L 399.506812 274.296707 
L 402.33961 280.173152 
L 408.005205 294.571491 
L 410.838003 299.977307 
L 413.670801 303.308416 
L 416.503599 305.016694 
L 419.336396 305.772483 
L 422.169194 306.071523 
L 427.83479 306.213915 
L 430.667587 306.219994 
L 430.667587 306.219994 
" style="fill:none;stroke:#1f77b4;stroke-linecap:round;stroke-width:1.5;"/>
   </g>
   <g id="line2d_16">
    <path clip-path="url(#p06d35145d7)" d="M 77.357196 306.20564 
L 80.149247 306.142904 
L 82.941299 305.908823 
L 85.73335 305.227756 
L 88.525402 303.619443 
L 91.317453 300.533381 
L 94.109504 295.712901 
L 96.901556 289.538489 
L 99.693607 282.936801 
L 102.485659 276.855796 
L 105.27771 271.873003 
L 108.069762 268.301314 
L 110.861813 266.384451 
L 113.653864 266.072473 
L 116.445916 266.65319 
L 119.237967 266.903977 
L 122.030019 265.741865 
L 124.82207 262.684156 
L 127.614122 257.7942 
L 130.406173 251.475104 
L 133.198224 244.480736 
L 135.990276 238.043756 
L 138.782327 233.768195 
L 141.574379 233.111385 
L 144.36643 236.660019 
L 147.158482 243.637489 
L 149.950533 252.00209 
L 152.742584 259.203982 
L 155.534636 263.255169 
L 158.326687 263.450526 
L 161.118739 260.305077 
L 163.91079 254.943635 
L 172.286944 235.497461 
L 175.078996 230.159395 
L 177.871047 226.805437 
L 180.663099 226.513347 
L 183.45515 229.699176 
L 186.247202 235.803929 
L 189.039253 243.826265 
L 197.415407 271.101975 
L 200.207459 278.670543 
L 202.99951 284.893022 
L 205.791562 290.057705 
L 208.583613 294.341739 
L 211.375664 297.62826 
L 214.167716 299.716002 
L 216.959767 300.579951 
L 219.751819 300.492739 
L 222.54387 299.984825 
L 225.335922 299.630193 
L 228.127973 299.736849 
L 233.712076 300.583561 
L 236.504127 300.646827 
L 239.296179 300.33956 
L 242.08823 299.763703 
L 247.672333 298.356074 
L 250.464384 298.179472 
L 253.256436 298.909462 
L 256.048487 300.519704 
L 258.840539 302.487116 
L 261.63259 304.18916 
L 264.424642 305.30806 
L 267.216693 305.884765 
L 270.008744 306.121 
L 275.592847 306.20178 
L 281.17695 306.064496 
L 283.969002 305.854593 
L 286.761053 305.472042 
L 289.553104 304.858081 
L 292.345156 303.99592 
L 297.929259 301.919319 
L 300.72131 301.106257 
L 303.513362 300.683717 
L 306.305413 300.679978 
L 311.889516 301.258568 
L 314.681567 301.022807 
L 317.473619 299.620331 
L 320.26567 296.663867 
L 325.849773 288.431751 
L 328.641824 286.108377 
L 331.433876 286.700633 
L 334.225927 290.084139 
L 337.017979 294.910133 
L 339.81003 299.434181 
L 342.602082 302.39013 
L 345.394133 303.23978 
L 348.186184 301.876565 
L 350.978236 298.377424 
L 353.770287 293.065164 
L 356.562339 286.485167 
L 359.35439 278.945851 
L 362.146442 270.138945 
L 364.938493 259.717754 
L 367.730544 248.573444 
L 370.522596 239.273204 
L 373.314647 234.76694 
L 376.106699 236.41377 
L 378.89875 243.119774 
L 384.482853 260.929622 
L 387.274904 267.792218 
L 390.066956 272.445911 
L 392.859007 275.39187 
L 398.44311 279.697958 
L 401.235162 282.211044 
L 406.819264 287.546243 
L 409.611316 290.483079 
L 412.403367 293.996477 
L 415.195419 297.85651 
L 417.98747 301.342329 
L 420.779522 303.843549 
L 423.571573 305.264959 
L 426.363624 305.907693 
L 429.155676 306.139883 
L 431.947727 306.204771 
L 431.947727 306.204771 
" style="fill:none;stroke:#ff7f0e;stroke-linecap:round;stroke-width:1.5;"/>
   </g>
   <g id="line2d_17">
    <path clip-path="url(#p06d35145d7)" d="M 184.992447 305.923256 
L 186.483196 305.785947 
L 187.973946 305.357823 
L 188.719321 304.980139 
L 189.464696 304.447143 
L 190.21007 303.711507 
L 190.955445 302.714528 
L 191.70082 301.38539 
L 192.446195 299.640898 
L 193.19157 297.385909 
L 193.936944 294.514658 
L 194.682319 290.913161 
L 195.427694 286.462823 
L 196.173069 281.045282 
L 196.918444 274.548439 
L 197.663819 266.873465 
L 199.154568 247.706501 
L 200.645318 223.312548 
L 202.136067 194.138715 
L 204.372192 144.372129 
L 206.608316 94.156204 
L 208.099066 65.035605 
L 208.844441 52.812524 
L 209.589816 42.541976 
L 210.33519 34.462304 
L 211.080565 28.755165 
L 211.82594 25.539463 
L 212.571315 24.867976 
L 213.31669 26.7267 
L 214.062064 31.036786 
L 214.807439 37.658845 
L 215.552814 46.399273 
L 216.298189 57.018234 
L 217.788938 82.757331 
L 220.025063 127.874344 
L 222.261187 173.283112 
L 223.751937 200.210222 
L 225.242687 222.790531 
L 226.733436 240.269639 
L 227.478811 247.006633 
L 228.224186 252.412801 
L 228.969561 256.51386 
L 229.714935 259.346801 
L 230.46031 260.955058 
L 231.205685 261.384908 
L 231.95106 260.683419 
L 232.696435 258.898098 
L 233.441809 256.078201 
L 234.187184 252.277467 
L 234.932559 247.557871 
L 236.423309 235.676303 
L 237.914058 221.245367 
L 241.640932 182.24094 
L 243.131682 169.495362 
L 243.877057 164.471518 
L 244.622432 160.529773 
L 245.367806 157.762957 
L 246.113181 156.223151 
L 246.858556 155.919817 
L 247.603931 156.820315 
L 248.349306 158.852787 
L 249.09468 161.911208 
L 249.840055 165.862278 
L 251.330805 175.82328 
L 253.566929 193.522381 
L 256.548429 217.098244 
L 258.784553 233.003014 
L 261.766052 252.533595 
L 264.747552 270.88991 
L 266.238301 279.200092 
L 267.729051 286.503225 
L 269.2198 292.54888 
L 270.71055 297.240517 
L 271.455925 299.094146 
L 272.2013 300.645583 
L 272.946674 301.922005 
L 273.692049 302.954169 
L 274.437424 303.77432 
L 275.182799 304.414357 
L 276.673548 305.271349 
L 278.164298 305.725505 
L 279.655048 305.91055 
L 279.655048 305.91055 
" style="fill:none;stroke:#2ca02c;stroke-linecap:round;stroke-width:1.5;"/>
   </g>
   <g id="patch_3">
    <path d="M 52.85 306.2275 
L 52.85 10.8 
" style="fill:none;stroke:#cccccc;stroke-linecap:square;stroke-linejoin:miter;stroke-width:0.8;"/>
   </g>
   <g id="patch_4">
    <path d="M 450 306.2275 
L 450 10.8 
" style="fill:none;stroke:#cccccc;stroke-linecap:square;stroke-linejoin:miter;stroke-width:0.8;"/>
   </g>
   <g id="patch_5">
    <path d="M 52.85 306.2275 
L 450 306.2275 
" style="fill:none;stroke:#cccccc;stroke-linecap:square;stroke-linejoin:miter;stroke-width:0.8;"/>
   </g>
   <g id="patch_6">
    <path d="M 52.85 10.8 
L 450 10.8 
" style="fill:none;stroke:#cccccc;stroke-linecap:square;stroke-linejoin:miter;stroke-width:0.8;"/>
   </g>
   <g id="legend_1">
    <g id="patch_7">
     <path d="M 291.09375 47.090625 
L 443 47.090625 
Q 445 47.090625 445 45.090625 
L 445 17.8 
Q 445 15.8 443 15.8 
L 291.09375 15.8 
Q 289.09375 15.8 289.09375 17.8 
L 289.09375 45.090625 
Q 289.09375 47.090625 291.09375 47.090625 
z
" style="fill:#ffffff;opacity:0.8;stroke:#cccccc;stroke-linejoin:miter;"/>
    </g>
    <g id="patch_8">
     <path d="M 293.09375 26.957813 
L 313.09375 26.957813 
L 313.09375 19.957813 
L 293.09375 19.957813 
z
" style="fill:#1f77b4;opacity:0.25;stroke:#ffffff;stroke-linejoin:miter;"/>
    </g>
    <g id="text_17">
     <!-- x -->
     <defs>
      <path d="M 0.734375 0 
L 19.671875 26.953125 
L 2.15625 51.859375 
L 13.140625 51.859375 
L 21.09375 39.703125 
Q 23.34375 36.234375 24.703125 33.890625 
Q 26.859375 37.109375 28.65625 39.59375 
L 37.40625 51.859375 
L 47.90625 51.859375 
L 29.984375 27.4375 
L 49.265625 0 
L 38.484375 0 
L 27.828125 16.109375 
L 25 20.453125 
L 11.375 0 
z
" id="ArialMT-120"/>
     </defs>
     <g style="fill:#262626;" transform="translate(321.09375 26.957813)scale(0.1 -0.1)">
      <use xlink:href="#ArialMT-120"/>
     </g>
    </g>
    <g id="patch_9">
     <path d="M 293.09375 41.103125 
L 313.09375 41.103125 
L 313.09375 34.103125 
L 293.09375 34.103125 
z
" style="fill:#ff7f0e;opacity:0.25;stroke:#ffffff;stroke-linejoin:miter;"/>
    </g>
    <g id="text_18">
     <!-- x'-LSTM -->
     <defs>
      <path d="M 6.640625 46.234375 
L 4.390625 59.625 
L 4.390625 71.578125 
L 14.40625 71.578125 
L 14.40625 59.625 
L 12.0625 46.234375 
z
" id="ArialMT-39"/>
      <path d="M 3.171875 21.484375 
L 3.171875 30.328125 
L 30.171875 30.328125 
L 30.171875 21.484375 
z
" id="ArialMT-45"/>
      <path d="M 7.328125 0 
L 7.328125 71.578125 
L 16.796875 71.578125 
L 16.796875 8.453125 
L 52.046875 8.453125 
L 52.046875 0 
z
" id="ArialMT-76"/>
      <path d="M 4.5 23 
L 13.421875 23.78125 
Q 14.0625 18.40625 16.375 14.96875 
Q 18.703125 11.53125 23.578125 9.40625 
Q 28.46875 7.28125 34.578125 7.28125 
Q 39.984375 7.28125 44.140625 8.890625 
Q 48.296875 10.5 50.3125 13.296875 
Q 52.34375 16.109375 52.34375 19.4375 
Q 52.34375 22.796875 50.390625 25.3125 
Q 48.4375 27.828125 43.953125 29.546875 
Q 41.0625 30.671875 31.203125 33.03125 
Q 21.34375 35.40625 17.390625 37.5 
Q 12.25 40.1875 9.734375 44.15625 
Q 7.234375 48.140625 7.234375 53.078125 
Q 7.234375 58.5 10.296875 63.203125 
Q 13.375 67.921875 19.28125 70.359375 
Q 25.203125 72.796875 32.421875 72.796875 
Q 40.375 72.796875 46.453125 70.234375 
Q 52.546875 67.671875 55.8125 62.6875 
Q 59.078125 57.71875 59.328125 51.421875 
L 50.25 50.734375 
Q 49.515625 57.515625 45.28125 60.984375 
Q 41.0625 64.453125 32.8125 64.453125 
Q 24.21875 64.453125 20.28125 61.296875 
Q 16.359375 58.15625 16.359375 53.71875 
Q 16.359375 49.859375 19.140625 47.359375 
Q 21.875 44.875 33.421875 42.265625 
Q 44.96875 39.65625 49.265625 37.703125 
Q 55.515625 34.8125 58.484375 30.390625 
Q 61.46875 25.984375 61.46875 20.21875 
Q 61.46875 14.5 58.203125 9.4375 
Q 54.9375 4.390625 48.796875 1.578125 
Q 42.671875 -1.21875 35.015625 -1.21875 
Q 25.296875 -1.21875 18.71875 1.609375 
Q 12.15625 4.4375 8.421875 10.125 
Q 4.6875 15.828125 4.5 23 
z
" id="ArialMT-83"/>
      <path d="M 25.921875 0 
L 25.921875 63.140625 
L 2.34375 63.140625 
L 2.34375 71.578125 
L 59.078125 71.578125 
L 59.078125 63.140625 
L 35.40625 63.140625 
L 35.40625 0 
z
" id="ArialMT-84"/>
      <path d="M 7.421875 0 
L 7.421875 71.578125 
L 21.6875 71.578125 
L 38.625 20.90625 
Q 40.96875 13.8125 42.046875 10.296875 
Q 43.265625 14.203125 45.84375 21.78125 
L 62.984375 71.578125 
L 75.734375 71.578125 
L 75.734375 0 
L 66.609375 0 
L 66.609375 59.90625 
L 45.796875 0 
L 37.25 0 
L 16.546875 60.9375 
L 16.546875 0 
z
" id="ArialMT-77"/>
     </defs>
     <g style="fill:#262626;" transform="translate(321.09375 41.103125)scale(0.1 -0.1)">
      <use xlink:href="#ArialMT-120"/>
      <use x="50" xlink:href="#ArialMT-39"/>
      <use x="69.091797" xlink:href="#ArialMT-45"/>
      <use x="102.392578" xlink:href="#ArialMT-76"/>
      <use x="158.007812" xlink:href="#ArialMT-83"/>
      <use x="224.707031" xlink:href="#ArialMT-84"/>
      <use x="285.791016" xlink:href="#ArialMT-77"/>
     </g>
    </g>
    <g id="patch_10">
     <path d="M 378.001562 26.957813 
L 398.001562 26.957813 
L 398.001562 19.957813 
L 378.001562 19.957813 
z
" style="fill:#2ca02c;opacity:0.25;stroke:#ffffff;stroke-linejoin:miter;"/>
    </g>
    <g id="text_19">
     <!-- z-LSTM -->
     <defs>
      <path d="M 1.953125 0 
L 1.953125 7.125 
L 34.96875 45.015625 
Q 29.34375 44.734375 25.046875 44.734375 
L 3.90625 44.734375 
L 3.90625 51.859375 
L 46.296875 51.859375 
L 46.296875 46.046875 
L 18.21875 13.140625 
L 12.796875 7.125 
Q 18.703125 7.5625 23.875 7.5625 
L 47.859375 7.5625 
L 47.859375 0 
z
" id="ArialMT-122"/>
     </defs>
     <g style="fill:#262626;" transform="translate(406.001562 26.957813)scale(0.1 -0.1)">
      <use xlink:href="#ArialMT-122"/>
      <use x="50" xlink:href="#ArialMT-45"/>
      <use x="83.300781" xlink:href="#ArialMT-76"/>
      <use x="138.916016" xlink:href="#ArialMT-83"/>
      <use x="205.615234" xlink:href="#ArialMT-84"/>
      <use x="266.699219" xlink:href="#ArialMT-77"/>
     </g>
    </g>
   </g>
  </g>
 </g>
 <defs>
  <clipPath id="p06d35145d7">
   <rect height="295.4275" width="397.15" x="52.85" y="10.8"/>
  </clipPath>
 </defs>
</svg>
