<?xml version="1.0" encoding="utf-8" standalone="no"?>
<!DOCTYPE svg PUBLIC "-//W3C//DTD SVG 1.1//EN"
  "http://www.w3.org/Graphics/SVG/1.1/DTD/svg11.dtd">
<!-- Created with matplotlib (https://matplotlib.org/) -->
<svg height="345.6pt" version="1.1" viewBox="0 0 460.8 345.6" width="460.8pt" xmlns="http://www.w3.org/2000/svg" xmlns:xlink="http://www.w3.org/1999/xlink">
 <defs>
  <style type="text/css">
*{stroke-linecap:butt;stroke-linejoin:round;}
  </style>
 </defs>
 <g id="figure_1">
  <g id="patch_1">
   <path d="M 0 345.6 
L 460.8 345.6 
L 460.8 0 
L 0 0 
z
" style="fill:#ffffff;"/>
  </g>
  <g id="axes_1">
   <g id="patch_2">
    <path d="M 47.27 306.2275 
L 450 306.2275 
L 450 10.8 
L 47.27 10.8 
z
" style="fill:#ffffff;"/>
   </g>
   <g id="matplotlib.axis_1">
    <g id="xtick_1">
     <g id="line2d_1">
      <path clip-path="url(#p0d9dc6b240)" d="M 103.186468 306.2275 
L 103.186468 10.8 
" style="fill:none;stroke:#cccccc;stroke-linecap:round;stroke-width:0.8;"/>
     </g>
     <g id="text_1">
      <!-- −10 -->
      <defs>
       <path d="M 52.828125 31.203125 
L 5.5625 31.203125 
L 5.5625 39.40625 
L 52.828125 39.40625 
z
" id="ArialMT-8722"/>
       <path d="M 37.25 0 
L 28.46875 0 
L 28.46875 56 
Q 25.296875 52.984375 20.140625 49.953125 
Q 14.984375 46.921875 10.890625 45.40625 
L 10.890625 53.90625 
Q 18.265625 57.375 23.78125 62.296875 
Q 29.296875 67.234375 31.59375 71.875 
L 37.25 71.875 
z
" id="ArialMT-49"/>
       <path d="M 4.15625 35.296875 
Q 4.15625 48 6.765625 55.734375 
Q 9.375 63.484375 14.515625 67.671875 
Q 19.671875 71.875 27.484375 71.875 
Q 33.25 71.875 37.59375 69.546875 
Q 41.9375 67.234375 44.765625 62.859375 
Q 47.609375 58.5 49.21875 52.21875 
Q 50.828125 45.953125 50.828125 35.296875 
Q 50.828125 22.703125 48.234375 14.96875 
Q 45.65625 7.234375 40.5 3 
Q 35.359375 -1.21875 27.484375 -1.21875 
Q 17.140625 -1.21875 11.234375 6.203125 
Q 4.15625 15.140625 4.15625 35.296875 
z
M 13.1875 35.296875 
Q 13.1875 17.671875 17.3125 11.828125 
Q 21.4375 6 27.484375 6 
Q 33.546875 6 37.671875 11.859375 
Q 41.796875 17.71875 41.796875 35.296875 
Q 41.796875 52.984375 37.671875 58.78125 
Q 33.546875 64.59375 27.390625 64.59375 
Q 21.34375 64.59375 17.71875 59.46875 
Q 13.1875 52.9375 13.1875 35.296875 
z
" id="ArialMT-48"/>
      </defs>
      <g style="fill:#262626;" transform="translate(94.705218 320.385312)scale(0.1 -0.1)">
       <use xlink:href="#ArialMT-8722"/>
       <use x="58.398438" xlink:href="#ArialMT-49"/>
       <use x="114.013672" xlink:href="#ArialMT-48"/>
      </g>
     </g>
    </g>
    <g id="xtick_2">
     <g id="line2d_2">
      <path clip-path="url(#p0d9dc6b240)" d="M 161.036966 306.2275 
L 161.036966 10.8 
" style="fill:none;stroke:#cccccc;stroke-linecap:round;stroke-width:0.8;"/>
     </g>
     <g id="text_2">
      <!-- −5 -->
      <defs>
       <path d="M 4.15625 18.75 
L 13.375 19.53125 
Q 14.40625 12.796875 18.140625 9.390625 
Q 21.875 6 27.15625 6 
Q 33.5 6 37.890625 10.78125 
Q 42.28125 15.578125 42.28125 23.484375 
Q 42.28125 31 38.0625 35.34375 
Q 33.84375 39.703125 27 39.703125 
Q 22.75 39.703125 19.328125 37.765625 
Q 15.921875 35.84375 13.96875 32.765625 
L 5.71875 33.84375 
L 12.640625 70.609375 
L 48.25 70.609375 
L 48.25 62.203125 
L 19.671875 62.203125 
L 15.828125 42.96875 
Q 22.265625 47.46875 29.34375 47.46875 
Q 38.71875 47.46875 45.15625 40.96875 
Q 51.609375 34.46875 51.609375 24.265625 
Q 51.609375 14.546875 45.953125 7.46875 
Q 39.0625 -1.21875 27.15625 -1.21875 
Q 17.390625 -1.21875 11.203125 4.25 
Q 5.03125 9.71875 4.15625 18.75 
z
" id="ArialMT-53"/>
      </defs>
      <g style="fill:#262626;" transform="translate(155.336185 320.385312)scale(0.1 -0.1)">
       <use xlink:href="#ArialMT-8722"/>
       <use x="58.398438" xlink:href="#ArialMT-53"/>
      </g>
     </g>
    </g>
    <g id="xtick_3">
     <g id="line2d_3">
      <path clip-path="url(#p0d9dc6b240)" d="M 218.887465 306.2275 
L 218.887465 10.8 
" style="fill:none;stroke:#cccccc;stroke-linecap:round;stroke-width:0.8;"/>
     </g>
     <g id="text_3">
      <!-- 0 -->
      <g style="fill:#262626;" transform="translate(216.106996 320.385312)scale(0.1 -0.1)">
       <use xlink:href="#ArialMT-48"/>
      </g>
     </g>
    </g>
    <g id="xtick_4">
     <g id="line2d_4">
      <path clip-path="url(#p0d9dc6b240)" d="M 276.737963 306.2275 
L 276.737963 10.8 
" style="fill:none;stroke:#cccccc;stroke-linecap:round;stroke-width:0.8;"/>
     </g>
     <g id="text_4">
      <!-- 5 -->
      <g style="fill:#262626;" transform="translate(273.957494 320.385312)scale(0.1 -0.1)">
       <use xlink:href="#ArialMT-53"/>
      </g>
     </g>
    </g>
    <g id="xtick_5">
     <g id="line2d_5">
      <path clip-path="url(#p0d9dc6b240)" d="M 334.588462 306.2275 
L 334.588462 10.8 
" style="fill:none;stroke:#cccccc;stroke-linecap:round;stroke-width:0.8;"/>
     </g>
     <g id="text_5">
      <!-- 10 -->
      <g style="fill:#262626;" transform="translate(329.027524 320.385312)scale(0.1 -0.1)">
       <use xlink:href="#ArialMT-49"/>
       <use x="55.615234" xlink:href="#ArialMT-48"/>
      </g>
     </g>
    </g>
    <g id="xtick_6">
     <g id="line2d_6">
      <path clip-path="url(#p0d9dc6b240)" d="M 392.43896 306.2275 
L 392.43896 10.8 
" style="fill:none;stroke:#cccccc;stroke-linecap:round;stroke-width:0.8;"/>
     </g>
     <g id="text_6">
      <!-- 15 -->
      <g style="fill:#262626;" transform="translate(386.878023 320.385312)scale(0.1 -0.1)">
       <use xlink:href="#ArialMT-49"/>
       <use x="55.615234" xlink:href="#ArialMT-53"/>
      </g>
     </g>
    </g>
    <g id="text_7">
     <!-- Component values -->
     <defs>
      <path d="M 58.796875 25.09375 
L 68.265625 22.703125 
Q 65.28125 11.03125 57.546875 4.90625 
Q 49.8125 -1.21875 38.625 -1.21875 
Q 27.046875 -1.21875 19.796875 3.484375 
Q 12.546875 8.203125 8.765625 17.140625 
Q 4.984375 26.078125 4.984375 36.328125 
Q 4.984375 47.515625 9.25 55.828125 
Q 13.53125 64.15625 21.40625 68.46875 
Q 29.296875 72.796875 38.765625 72.796875 
Q 49.515625 72.796875 56.828125 67.328125 
Q 64.15625 61.859375 67.046875 51.953125 
L 57.71875 49.75 
Q 55.21875 57.5625 50.484375 61.125 
Q 45.75 64.703125 38.578125 64.703125 
Q 30.328125 64.703125 24.78125 60.734375 
Q 19.234375 56.78125 16.984375 50.109375 
Q 14.75 43.453125 14.75 36.375 
Q 14.75 27.25 17.40625 20.4375 
Q 20.0625 13.625 25.671875 10.25 
Q 31.296875 6.890625 37.84375 6.890625 
Q 45.796875 6.890625 51.3125 11.46875 
Q 56.84375 16.0625 58.796875 25.09375 
z
" id="ArialMT-67"/>
      <path d="M 3.328125 25.921875 
Q 3.328125 40.328125 11.328125 47.265625 
Q 18.015625 53.03125 27.640625 53.03125 
Q 38.328125 53.03125 45.109375 46.015625 
Q 51.90625 39.015625 51.90625 26.65625 
Q 51.90625 16.65625 48.90625 10.90625 
Q 45.90625 5.171875 40.15625 2 
Q 34.421875 -1.171875 27.640625 -1.171875 
Q 16.75 -1.171875 10.03125 5.8125 
Q 3.328125 12.796875 3.328125 25.921875 
z
M 12.359375 25.921875 
Q 12.359375 15.96875 16.703125 11.015625 
Q 21.046875 6.0625 27.640625 6.0625 
Q 34.1875 6.0625 38.53125 11.03125 
Q 42.875 16.015625 42.875 26.21875 
Q 42.875 35.84375 38.5 40.796875 
Q 34.125 45.75 27.640625 45.75 
Q 21.046875 45.75 16.703125 40.8125 
Q 12.359375 35.890625 12.359375 25.921875 
z
" id="ArialMT-111"/>
      <path d="M 6.59375 0 
L 6.59375 51.859375 
L 14.453125 51.859375 
L 14.453125 44.578125 
Q 16.890625 48.390625 20.9375 50.703125 
Q 25 53.03125 30.171875 53.03125 
Q 35.9375 53.03125 39.625 50.640625 
Q 43.3125 48.25 44.828125 43.953125 
Q 50.984375 53.03125 60.84375 53.03125 
Q 68.5625 53.03125 72.703125 48.75 
Q 76.859375 44.484375 76.859375 35.59375 
L 76.859375 0 
L 68.109375 0 
L 68.109375 32.671875 
Q 68.109375 37.9375 67.25 40.25 
Q 66.40625 42.578125 64.15625 43.984375 
Q 61.921875 45.40625 58.890625 45.40625 
Q 53.421875 45.40625 49.796875 41.765625 
Q 46.1875 38.140625 46.1875 30.125 
L 46.1875 0 
L 37.40625 0 
L 37.40625 33.6875 
Q 37.40625 39.546875 35.25 42.46875 
Q 33.109375 45.40625 28.21875 45.40625 
Q 24.515625 45.40625 21.359375 43.453125 
Q 18.21875 41.5 16.796875 37.734375 
Q 15.375 33.984375 15.375 26.90625 
L 15.375 0 
z
" id="ArialMT-109"/>
      <path d="M 6.59375 -19.875 
L 6.59375 51.859375 
L 14.59375 51.859375 
L 14.59375 45.125 
Q 17.4375 49.078125 21 51.046875 
Q 24.5625 53.03125 29.640625 53.03125 
Q 36.28125 53.03125 41.359375 49.609375 
Q 46.4375 46.1875 49.015625 39.953125 
Q 51.609375 33.734375 51.609375 26.3125 
Q 51.609375 18.359375 48.75 11.984375 
Q 45.90625 5.609375 40.453125 2.21875 
Q 35.015625 -1.171875 29 -1.171875 
Q 24.609375 -1.171875 21.109375 0.6875 
Q 17.625 2.546875 15.375 5.375 
L 15.375 -19.875 
z
M 14.546875 25.640625 
Q 14.546875 15.625 18.59375 10.84375 
Q 22.65625 6.0625 28.421875 6.0625 
Q 34.28125 6.0625 38.453125 11.015625 
Q 42.625 15.96875 42.625 26.375 
Q 42.625 36.28125 38.546875 41.203125 
Q 34.46875 46.140625 28.8125 46.140625 
Q 23.1875 46.140625 18.859375 40.890625 
Q 14.546875 35.640625 14.546875 25.640625 
z
" id="ArialMT-112"/>
      <path d="M 6.59375 0 
L 6.59375 51.859375 
L 14.5 51.859375 
L 14.5 44.484375 
Q 20.21875 53.03125 31 53.03125 
Q 35.6875 53.03125 39.625 51.34375 
Q 43.5625 49.65625 45.515625 46.921875 
Q 47.46875 44.1875 48.25 40.4375 
Q 48.734375 37.984375 48.734375 31.890625 
L 48.734375 0 
L 39.9375 0 
L 39.9375 31.546875 
Q 39.9375 36.921875 38.90625 39.578125 
Q 37.890625 42.234375 35.28125 43.8125 
Q 32.671875 45.40625 29.15625 45.40625 
Q 23.53125 45.40625 19.453125 41.84375 
Q 15.375 38.28125 15.375 28.328125 
L 15.375 0 
z
" id="ArialMT-110"/>
      <path d="M 42.09375 16.703125 
L 51.171875 15.578125 
Q 49.03125 7.625 43.21875 3.21875 
Q 37.40625 -1.171875 28.375 -1.171875 
Q 17 -1.171875 10.328125 5.828125 
Q 3.65625 12.84375 3.65625 25.484375 
Q 3.65625 38.578125 10.390625 45.796875 
Q 17.140625 53.03125 27.875 53.03125 
Q 38.28125 53.03125 44.875 45.953125 
Q 51.46875 38.875 51.46875 26.03125 
Q 51.46875 25.25 51.421875 23.6875 
L 12.75 23.6875 
Q 13.234375 15.140625 17.578125 10.59375 
Q 21.921875 6.0625 28.421875 6.0625 
Q 33.25 6.0625 36.671875 8.59375 
Q 40.09375 11.140625 42.09375 16.703125 
z
M 13.234375 30.90625 
L 42.1875 30.90625 
Q 41.609375 37.453125 38.875 40.71875 
Q 34.671875 45.796875 27.984375 45.796875 
Q 21.921875 45.796875 17.796875 41.75 
Q 13.671875 37.703125 13.234375 30.90625 
z
" id="ArialMT-101"/>
      <path d="M 25.78125 7.859375 
L 27.046875 0.09375 
Q 23.34375 -0.6875 20.40625 -0.6875 
Q 15.625 -0.6875 12.984375 0.828125 
Q 10.359375 2.34375 9.28125 4.8125 
Q 8.203125 7.28125 8.203125 15.1875 
L 8.203125 45.015625 
L 1.765625 45.015625 
L 1.765625 51.859375 
L 8.203125 51.859375 
L 8.203125 64.703125 
L 16.9375 69.96875 
L 16.9375 51.859375 
L 25.78125 51.859375 
L 25.78125 45.015625 
L 16.9375 45.015625 
L 16.9375 14.703125 
Q 16.9375 10.9375 17.40625 9.859375 
Q 17.875 8.796875 18.921875 8.15625 
Q 19.96875 7.515625 21.921875 7.515625 
Q 23.390625 7.515625 25.78125 7.859375 
z
" id="ArialMT-116"/>
      <path id="ArialMT-32"/>
      <path d="M 21 0 
L 1.265625 51.859375 
L 10.546875 51.859375 
L 21.6875 20.796875 
Q 23.484375 15.765625 25 10.359375 
Q 26.171875 14.453125 28.265625 20.21875 
L 39.796875 51.859375 
L 48.828125 51.859375 
L 29.203125 0 
z
" id="ArialMT-118"/>
      <path d="M 40.4375 6.390625 
Q 35.546875 2.25 31.03125 0.53125 
Q 26.515625 -1.171875 21.34375 -1.171875 
Q 12.796875 -1.171875 8.203125 3 
Q 3.609375 7.171875 3.609375 13.671875 
Q 3.609375 17.484375 5.34375 20.625 
Q 7.078125 23.78125 9.890625 25.6875 
Q 12.703125 27.59375 16.21875 28.5625 
Q 18.796875 29.25 24.03125 29.890625 
Q 34.671875 31.15625 39.703125 32.90625 
Q 39.75 34.71875 39.75 35.203125 
Q 39.75 40.578125 37.25 42.78125 
Q 33.890625 45.75 27.25 45.75 
Q 21.046875 45.75 18.09375 43.578125 
Q 15.140625 41.40625 13.71875 35.890625 
L 5.125 37.0625 
Q 6.296875 42.578125 8.984375 45.96875 
Q 11.671875 49.359375 16.75 51.1875 
Q 21.828125 53.03125 28.515625 53.03125 
Q 35.15625 53.03125 39.296875 51.46875 
Q 43.453125 49.90625 45.40625 47.53125 
Q 47.359375 45.171875 48.140625 41.546875 
Q 48.578125 39.3125 48.578125 33.453125 
L 48.578125 21.734375 
Q 48.578125 9.46875 49.140625 6.21875 
Q 49.703125 2.984375 51.375 0 
L 42.1875 0 
Q 40.828125 2.734375 40.4375 6.390625 
z
M 39.703125 26.03125 
Q 34.90625 24.078125 25.34375 22.703125 
Q 19.921875 21.921875 17.671875 20.9375 
Q 15.4375 19.96875 14.203125 18.09375 
Q 12.984375 16.21875 12.984375 13.921875 
Q 12.984375 10.40625 15.640625 8.0625 
Q 18.3125 5.71875 23.4375 5.71875 
Q 28.515625 5.71875 32.46875 7.9375 
Q 36.421875 10.15625 38.28125 14.015625 
Q 39.703125 17 39.703125 22.796875 
z
" id="ArialMT-97"/>
      <path d="M 6.390625 0 
L 6.390625 71.578125 
L 15.1875 71.578125 
L 15.1875 0 
z
" id="ArialMT-108"/>
      <path d="M 40.578125 0 
L 40.578125 7.625 
Q 34.515625 -1.171875 24.125 -1.171875 
Q 19.53125 -1.171875 15.546875 0.578125 
Q 11.578125 2.34375 9.640625 5 
Q 7.71875 7.671875 6.9375 11.53125 
Q 6.390625 14.109375 6.390625 19.734375 
L 6.390625 51.859375 
L 15.1875 51.859375 
L 15.1875 23.09375 
Q 15.1875 16.21875 15.71875 13.8125 
Q 16.546875 10.359375 19.234375 8.375 
Q 21.921875 6.390625 25.875 6.390625 
Q 29.828125 6.390625 33.296875 8.421875 
Q 36.765625 10.453125 38.203125 13.9375 
Q 39.65625 17.4375 39.65625 24.078125 
L 39.65625 51.859375 
L 48.4375 51.859375 
L 48.4375 0 
z
" id="ArialMT-117"/>
      <path d="M 3.078125 15.484375 
L 11.765625 16.84375 
Q 12.5 11.625 15.84375 8.84375 
Q 19.1875 6.0625 25.203125 6.0625 
Q 31.25 6.0625 34.171875 8.515625 
Q 37.109375 10.984375 37.109375 14.3125 
Q 37.109375 17.28125 34.515625 19 
Q 32.71875 20.171875 25.53125 21.96875 
Q 15.875 24.421875 12.140625 26.203125 
Q 8.40625 27.984375 6.46875 31.125 
Q 4.546875 34.28125 4.546875 38.09375 
Q 4.546875 41.546875 6.125 44.5 
Q 7.71875 47.46875 10.453125 49.421875 
Q 12.5 50.921875 16.03125 51.96875 
Q 19.578125 53.03125 23.640625 53.03125 
Q 29.734375 53.03125 34.34375 51.265625 
Q 38.96875 49.515625 41.15625 46.5 
Q 43.359375 43.5 44.1875 38.484375 
L 35.59375 37.3125 
Q 35.015625 41.3125 32.203125 43.546875 
Q 29.390625 45.796875 24.265625 45.796875 
Q 18.21875 45.796875 15.625 43.796875 
Q 13.03125 41.796875 13.03125 39.109375 
Q 13.03125 37.40625 14.109375 36.03125 
Q 15.1875 34.625 17.484375 33.6875 
Q 18.796875 33.203125 25.25 31.453125 
Q 34.578125 28.953125 38.25 27.359375 
Q 41.9375 25.78125 44.03125 22.75 
Q 46.140625 19.734375 46.140625 15.234375 
Q 46.140625 10.84375 43.578125 6.953125 
Q 41.015625 3.078125 36.171875 0.953125 
Q 31.34375 -1.171875 25.25 -1.171875 
Q 15.140625 -1.171875 9.84375 3.03125 
Q 4.546875 7.234375 3.078125 15.484375 
z
" id="ArialMT-115"/>
     </defs>
     <g style="fill:#262626;" transform="translate(206.945938 333.6525)scale(0.1 -0.1)">
      <use xlink:href="#ArialMT-67"/>
      <use x="72.216797" xlink:href="#ArialMT-111"/>
      <use x="127.832031" xlink:href="#ArialMT-109"/>
      <use x="211.132812" xlink:href="#ArialMT-112"/>
      <use x="266.748047" xlink:href="#ArialMT-111"/>
      <use x="322.363281" xlink:href="#ArialMT-110"/>
      <use x="377.978516" xlink:href="#ArialMT-101"/>
      <use x="433.59375" xlink:href="#ArialMT-110"/>
      <use x="489.208984" xlink:href="#ArialMT-116"/>
      <use x="516.992188" xlink:href="#ArialMT-32"/>
      <use x="544.775391" xlink:href="#ArialMT-118"/>
      <use x="594.775391" xlink:href="#ArialMT-97"/>
      <use x="650.390625" xlink:href="#ArialMT-108"/>
      <use x="672.607422" xlink:href="#ArialMT-117"/>
      <use x="728.222656" xlink:href="#ArialMT-101"/>
      <use x="783.837891" xlink:href="#ArialMT-115"/>
     </g>
    </g>
   </g>
   <g id="matplotlib.axis_2">
    <g id="ytick_1">
     <g id="line2d_7">
      <path clip-path="url(#p0d9dc6b240)" d="M 47.27 306.2275 
L 450 306.2275 
" style="fill:none;stroke:#cccccc;stroke-linecap:round;stroke-width:0.8;"/>
     </g>
     <g id="text_8">
      <!-- 0.0 -->
      <defs>
       <path d="M 9.078125 0 
L 9.078125 10.015625 
L 19.09375 10.015625 
L 19.09375 0 
z
" id="ArialMT-46"/>
      </defs>
      <g style="fill:#262626;" transform="translate(26.37 309.806406)scale(0.1 -0.1)">
       <use xlink:href="#ArialMT-48"/>
       <use x="55.615234" xlink:href="#ArialMT-46"/>
       <use x="83.398438" xlink:href="#ArialMT-48"/>
      </g>
     </g>
    </g>
    <g id="ytick_2">
     <g id="line2d_8">
      <path clip-path="url(#p0d9dc6b240)" d="M 47.27 265.578392 
L 450 265.578392 
" style="fill:none;stroke:#cccccc;stroke-linecap:round;stroke-width:0.8;"/>
     </g>
     <g id="text_9">
      <!-- 0.1 -->
      <g style="fill:#262626;" transform="translate(26.37 269.157298)scale(0.1 -0.1)">
       <use xlink:href="#ArialMT-48"/>
       <use x="55.615234" xlink:href="#ArialMT-46"/>
       <use x="83.398438" xlink:href="#ArialMT-49"/>
      </g>
     </g>
    </g>
    <g id="ytick_3">
     <g id="line2d_9">
      <path clip-path="url(#p0d9dc6b240)" d="M 47.27 224.929283 
L 450 224.929283 
" style="fill:none;stroke:#cccccc;stroke-linecap:round;stroke-width:0.8;"/>
     </g>
     <g id="text_10">
      <!-- 0.2 -->
      <defs>
       <path d="M 50.34375 8.453125 
L 50.34375 0 
L 3.03125 0 
Q 2.9375 3.171875 4.046875 6.109375 
Q 5.859375 10.9375 9.828125 15.625 
Q 13.8125 20.3125 21.34375 26.46875 
Q 33.015625 36.03125 37.109375 41.625 
Q 41.21875 47.21875 41.21875 52.203125 
Q 41.21875 57.421875 37.46875 61 
Q 33.734375 64.59375 27.734375 64.59375 
Q 21.390625 64.59375 17.578125 60.78125 
Q 13.765625 56.984375 13.71875 50.25 
L 4.6875 51.171875 
Q 5.609375 61.28125 11.65625 66.578125 
Q 17.71875 71.875 27.9375 71.875 
Q 38.234375 71.875 44.234375 66.15625 
Q 50.25 60.453125 50.25 52 
Q 50.25 47.703125 48.484375 43.546875 
Q 46.734375 39.40625 42.65625 34.8125 
Q 38.578125 30.21875 29.109375 22.21875 
Q 21.1875 15.578125 18.9375 13.203125 
Q 16.703125 10.84375 15.234375 8.453125 
z
" id="ArialMT-50"/>
      </defs>
      <g style="fill:#262626;" transform="translate(26.37 228.508189)scale(0.1 -0.1)">
       <use xlink:href="#ArialMT-48"/>
       <use x="55.615234" xlink:href="#ArialMT-46"/>
       <use x="83.398438" xlink:href="#ArialMT-50"/>
      </g>
     </g>
    </g>
    <g id="ytick_4">
     <g id="line2d_10">
      <path clip-path="url(#p0d9dc6b240)" d="M 47.27 184.280175 
L 450 184.280175 
" style="fill:none;stroke:#cccccc;stroke-linecap:round;stroke-width:0.8;"/>
     </g>
     <g id="text_11">
      <!-- 0.3 -->
      <defs>
       <path d="M 4.203125 18.890625 
L 12.984375 20.0625 
Q 14.5 12.59375 18.140625 9.296875 
Q 21.78125 6 27 6 
Q 33.203125 6 37.46875 10.296875 
Q 41.75 14.59375 41.75 20.953125 
Q 41.75 27 37.796875 30.921875 
Q 33.84375 34.859375 27.734375 34.859375 
Q 25.25 34.859375 21.53125 33.890625 
L 22.515625 41.609375 
Q 23.390625 41.5 23.921875 41.5 
Q 29.546875 41.5 34.03125 44.421875 
Q 38.53125 47.359375 38.53125 53.46875 
Q 38.53125 58.296875 35.25 61.46875 
Q 31.984375 64.65625 26.8125 64.65625 
Q 21.6875 64.65625 18.265625 61.421875 
Q 14.84375 58.203125 13.875 51.765625 
L 5.078125 53.328125 
Q 6.6875 62.15625 12.390625 67.015625 
Q 18.109375 71.875 26.609375 71.875 
Q 32.46875 71.875 37.390625 69.359375 
Q 42.328125 66.84375 44.9375 62.5 
Q 47.5625 58.15625 47.5625 53.265625 
Q 47.5625 48.640625 45.0625 44.828125 
Q 42.578125 41.015625 37.703125 38.765625 
Q 44.046875 37.3125 47.5625 32.6875 
Q 51.078125 28.078125 51.078125 21.140625 
Q 51.078125 11.765625 44.234375 5.25 
Q 37.40625 -1.265625 26.953125 -1.265625 
Q 17.53125 -1.265625 11.296875 4.34375 
Q 5.078125 9.96875 4.203125 18.890625 
z
" id="ArialMT-51"/>
      </defs>
      <g style="fill:#262626;" transform="translate(26.37 187.859081)scale(0.1 -0.1)">
       <use xlink:href="#ArialMT-48"/>
       <use x="55.615234" xlink:href="#ArialMT-46"/>
       <use x="83.398438" xlink:href="#ArialMT-51"/>
      </g>
     </g>
    </g>
    <g id="ytick_5">
     <g id="line2d_11">
      <path clip-path="url(#p0d9dc6b240)" d="M 47.27 143.631066 
L 450 143.631066 
" style="fill:none;stroke:#cccccc;stroke-linecap:round;stroke-width:0.8;"/>
     </g>
     <g id="text_12">
      <!-- 0.4 -->
      <defs>
       <path d="M 32.328125 0 
L 32.328125 17.140625 
L 1.265625 17.140625 
L 1.265625 25.203125 
L 33.9375 71.578125 
L 41.109375 71.578125 
L 41.109375 25.203125 
L 50.78125 25.203125 
L 50.78125 17.140625 
L 41.109375 17.140625 
L 41.109375 0 
z
M 32.328125 25.203125 
L 32.328125 57.46875 
L 9.90625 25.203125 
z
" id="ArialMT-52"/>
      </defs>
      <g style="fill:#262626;" transform="translate(26.37 147.209973)scale(0.1 -0.1)">
       <use xlink:href="#ArialMT-48"/>
       <use x="55.615234" xlink:href="#ArialMT-46"/>
       <use x="83.398438" xlink:href="#ArialMT-52"/>
      </g>
     </g>
    </g>
    <g id="ytick_6">
     <g id="line2d_12">
      <path clip-path="url(#p0d9dc6b240)" d="M 47.27 102.981958 
L 450 102.981958 
" style="fill:none;stroke:#cccccc;stroke-linecap:round;stroke-width:0.8;"/>
     </g>
     <g id="text_13">
      <!-- 0.5 -->
      <g style="fill:#262626;" transform="translate(26.37 106.560864)scale(0.1 -0.1)">
       <use xlink:href="#ArialMT-48"/>
       <use x="55.615234" xlink:href="#ArialMT-46"/>
       <use x="83.398438" xlink:href="#ArialMT-53"/>
      </g>
     </g>
    </g>
    <g id="ytick_7">
     <g id="line2d_13">
      <path clip-path="url(#p0d9dc6b240)" d="M 47.27 62.33285 
L 450 62.33285 
" style="fill:none;stroke:#cccccc;stroke-linecap:round;stroke-width:0.8;"/>
     </g>
     <g id="text_14">
      <!-- 0.6 -->
      <defs>
       <path d="M 49.75 54.046875 
L 41.015625 53.375 
Q 39.84375 58.546875 37.703125 60.890625 
Q 34.125 64.65625 28.90625 64.65625 
Q 24.703125 64.65625 21.53125 62.3125 
Q 17.390625 59.28125 14.984375 53.46875 
Q 12.59375 47.65625 12.5 36.921875 
Q 15.671875 41.75 20.265625 44.09375 
Q 24.859375 46.4375 29.890625 46.4375 
Q 38.671875 46.4375 44.84375 39.96875 
Q 51.03125 33.5 51.03125 23.25 
Q 51.03125 16.5 48.125 10.71875 
Q 45.21875 4.9375 40.140625 1.859375 
Q 35.0625 -1.21875 28.609375 -1.21875 
Q 17.625 -1.21875 10.6875 6.859375 
Q 3.765625 14.9375 3.765625 33.5 
Q 3.765625 54.25 11.421875 63.671875 
Q 18.109375 71.875 29.4375 71.875 
Q 37.890625 71.875 43.28125 67.140625 
Q 48.6875 62.40625 49.75 54.046875 
z
M 13.875 23.1875 
Q 13.875 18.65625 15.796875 14.5 
Q 17.71875 10.359375 21.1875 8.171875 
Q 24.65625 6 28.46875 6 
Q 34.03125 6 38.03125 10.484375 
Q 42.046875 14.984375 42.046875 22.703125 
Q 42.046875 30.125 38.078125 34.390625 
Q 34.125 38.671875 28.125 38.671875 
Q 22.171875 38.671875 18.015625 34.390625 
Q 13.875 30.125 13.875 23.1875 
z
" id="ArialMT-54"/>
      </defs>
      <g style="fill:#262626;" transform="translate(26.37 65.911756)scale(0.1 -0.1)">
       <use xlink:href="#ArialMT-48"/>
       <use x="55.615234" xlink:href="#ArialMT-46"/>
       <use x="83.398438" xlink:href="#ArialMT-54"/>
      </g>
     </g>
    </g>
    <g id="ytick_8">
     <g id="line2d_14">
      <path clip-path="url(#p0d9dc6b240)" d="M 47.27 21.683741 
L 450 21.683741 
" style="fill:none;stroke:#cccccc;stroke-linecap:round;stroke-width:0.8;"/>
     </g>
     <g id="text_15">
      <!-- 0.7 -->
      <defs>
       <path d="M 4.734375 62.203125 
L 4.734375 70.65625 
L 51.078125 70.65625 
L 51.078125 63.8125 
Q 44.234375 56.546875 37.515625 44.484375 
Q 30.8125 32.421875 27.15625 19.671875 
Q 24.515625 10.6875 23.78125 0 
L 14.75 0 
Q 14.890625 8.453125 18.0625 20.40625 
Q 21.234375 32.375 27.171875 43.484375 
Q 33.109375 54.59375 39.796875 62.203125 
z
" id="ArialMT-55"/>
      </defs>
      <g style="fill:#262626;" transform="translate(26.37 25.262647)scale(0.1 -0.1)">
       <use xlink:href="#ArialMT-48"/>
       <use x="55.615234" xlink:href="#ArialMT-46"/>
       <use x="83.398438" xlink:href="#ArialMT-55"/>
      </g>
     </g>
    </g>
    <g id="text_16">
     <!-- $P(x)$ -->
     <defs>
      <path d="M 16.890625 72.90625 
L 39.703125 72.90625 
Q 49.65625 72.90625 54.875 68.265625 
Q 60.109375 63.625 60.109375 54.6875 
Q 60.109375 42.671875 52.390625 35.984375 
Q 44.671875 29.296875 30.71875 29.296875 
L 18.3125 29.296875 
L 12.59375 0 
L 2.6875 0 
z
M 25.203125 64.796875 
L 19.921875 37.40625 
L 32.328125 37.40625 
Q 40.71875 37.40625 45.203125 41.703125 
Q 49.703125 46 49.703125 54 
Q 49.703125 59.125 46.65625 61.953125 
Q 43.609375 64.796875 38.09375 64.796875 
z
" id="DejaVuSans-Oblique-80"/>
      <path d="M 31 75.875 
Q 24.46875 64.65625 21.28125 53.65625 
Q 18.109375 42.671875 18.109375 31.390625 
Q 18.109375 20.125 21.3125 9.0625 
Q 24.515625 -2 31 -13.1875 
L 23.1875 -13.1875 
Q 15.875 -1.703125 12.234375 9.375 
Q 8.59375 20.453125 8.59375 31.390625 
Q 8.59375 42.28125 12.203125 53.3125 
Q 15.828125 64.359375 23.1875 75.875 
z
" id="DejaVuSans-40"/>
      <path d="M 60.015625 54.6875 
L 34.90625 27.875 
L 50.296875 0 
L 39.984375 0 
L 28.421875 21.6875 
L 8.296875 0 
L -2.59375 0 
L 24.3125 28.8125 
L 10.015625 54.6875 
L 20.3125 54.6875 
L 30.8125 34.90625 
L 49.125 54.6875 
z
" id="DejaVuSans-Oblique-120"/>
      <path d="M 8.015625 75.875 
L 15.828125 75.875 
Q 23.140625 64.359375 26.78125 53.3125 
Q 30.421875 42.28125 30.421875 31.390625 
Q 30.421875 20.453125 26.78125 9.375 
Q 23.140625 -1.703125 15.828125 -13.1875 
L 8.015625 -13.1875 
Q 14.5 -2 17.703125 9.0625 
Q 20.90625 20.125 20.90625 31.390625 
Q 20.90625 42.671875 17.703125 53.65625 
Q 14.5 64.65625 8.015625 75.875 
z
" id="DejaVuSans-41"/>
     </defs>
     <g style="fill:#262626;" transform="translate(20.3825 168.41375)rotate(-90)scale(0.1 -0.1)">
      <use transform="translate(0 0.125)" xlink:href="#DejaVuSans-Oblique-80"/>
      <use transform="translate(60.302734 0.125)" xlink:href="#DejaVuSans-40"/>
      <use transform="translate(99.316406 0.125)" xlink:href="#DejaVuSans-Oblique-120"/>
      <use transform="translate(158.496094 0.125)" xlink:href="#DejaVuSans-41"/>
     </g>
    </g>
   </g>
   <g id="PolyCollection_1">
    <defs>
     <path d="M 65.575909 -39.387247 
L 65.575909 -39.3725 
L 68.367514 -39.3725 
L 71.159118 -39.3725 
L 73.950723 -39.3725 
L 76.742327 -39.3725 
L 79.533932 -39.3725 
L 82.325537 -39.3725 
L 85.117141 -39.3725 
L 87.908746 -39.3725 
L 90.70035 -39.3725 
L 93.491955 -39.3725 
L 96.283559 -39.3725 
L 99.075164 -39.3725 
L 101.866769 -39.3725 
L 104.658373 -39.3725 
L 107.449978 -39.3725 
L 110.241582 -39.3725 
L 113.033187 -39.3725 
L 115.824791 -39.3725 
L 118.616396 -39.3725 
L 121.408001 -39.3725 
L 124.199605 -39.3725 
L 126.99121 -39.3725 
L 129.782814 -39.3725 
L 132.574419 -39.3725 
L 135.366024 -39.3725 
L 138.157628 -39.3725 
L 140.949233 -39.3725 
L 143.740837 -39.3725 
L 146.532442 -39.3725 
L 149.324046 -39.3725 
L 152.115651 -39.3725 
L 154.907256 -39.3725 
L 157.69886 -39.3725 
L 160.490465 -39.3725 
L 163.282069 -39.3725 
L 166.073674 -39.3725 
L 168.865278 -39.3725 
L 171.656883 -39.3725 
L 174.448488 -39.3725 
L 177.240092 -39.3725 
L 180.031697 -39.3725 
L 182.823301 -39.3725 
L 185.614906 -39.3725 
L 188.406511 -39.3725 
L 191.198115 -39.3725 
L 193.98972 -39.3725 
L 196.781324 -39.3725 
L 199.572929 -39.3725 
L 202.364533 -39.3725 
L 205.156138 -39.3725 
L 207.947743 -39.3725 
L 210.739347 -39.3725 
L 213.530952 -39.3725 
L 216.322556 -39.3725 
L 219.114161 -39.3725 
L 221.905765 -39.3725 
L 224.69737 -39.3725 
L 227.488975 -39.3725 
L 230.280579 -39.3725 
L 233.072184 -39.3725 
L 235.863788 -39.3725 
L 238.655393 -39.3725 
L 241.446997 -39.3725 
L 244.238602 -39.3725 
L 247.030207 -39.3725 
L 249.821811 -39.3725 
L 252.613416 -39.3725 
L 255.40502 -39.3725 
L 258.196625 -39.3725 
L 260.98823 -39.3725 
L 263.779834 -39.3725 
L 266.571439 -39.3725 
L 269.363043 -39.3725 
L 272.154648 -39.3725 
L 274.946252 -39.3725 
L 277.737857 -39.3725 
L 280.529462 -39.3725 
L 283.321066 -39.3725 
L 286.112671 -39.3725 
L 288.904275 -39.3725 
L 291.69588 -39.3725 
L 294.487484 -39.3725 
L 297.279089 -39.3725 
L 300.070694 -39.3725 
L 302.862298 -39.3725 
L 305.653903 -39.3725 
L 308.445507 -39.3725 
L 311.237112 -39.3725 
L 314.028716 -39.3725 
L 316.820321 -39.3725 
L 319.611926 -39.3725 
L 322.40353 -39.3725 
L 325.195135 -39.3725 
L 327.986739 -39.3725 
L 330.778344 -39.3725 
L 333.569949 -39.3725 
L 336.361553 -39.3725 
L 339.153158 -39.3725 
L 341.944762 -39.3725 
L 344.736367 -39.3725 
L 347.527971 -39.3725 
L 350.319576 -39.3725 
L 353.111181 -39.3725 
L 355.902785 -39.3725 
L 358.69439 -39.3725 
L 361.485994 -39.3725 
L 364.277599 -39.3725 
L 367.069203 -39.3725 
L 369.860808 -39.3725 
L 372.652413 -39.3725 
L 375.444017 -39.3725 
L 378.235622 -39.3725 
L 381.027226 -39.3725 
L 383.818831 -39.3725 
L 386.610436 -39.3725 
L 389.40204 -39.3725 
L 392.193645 -39.3725 
L 394.985249 -39.3725 
L 397.776854 -39.3725 
L 400.568458 -39.3725 
L 403.360063 -39.3725 
L 406.151668 -39.3725 
L 408.943272 -39.3725 
L 411.734877 -39.3725 
L 414.526481 -39.3725 
L 417.318086 -39.3725 
L 420.10969 -39.3725 
L 420.10969 -39.376524 
L 420.10969 -39.376524 
L 417.318086 -39.379783 
L 414.526481 -39.398315 
L 411.734877 -39.456115 
L 408.943272 -39.616422 
L 406.151668 -40.021579 
L 403.360063 -40.937339 
L 400.568458 -42.723053 
L 397.776854 -45.62096 
L 394.985249 -49.418866 
L 392.193645 -53.339505 
L 389.40204 -56.489703 
L 386.610436 -58.597015 
L 383.818831 -60.237343 
L 381.027226 -62.189157 
L 378.235622 -64.554323 
L 375.444017 -66.586645 
L 372.652413 -67.393303 
L 369.860808 -66.746406 
L 367.069203 -65.173194 
L 364.277599 -63.340416 
L 361.485994 -61.541513 
L 358.69439 -59.871929 
L 355.902785 -58.719031 
L 353.111181 -58.727799 
L 350.319576 -60.051194 
L 347.527971 -61.710349 
L 344.736367 -62.005019 
L 341.944762 -59.80656 
L 339.153158 -55.475224 
L 336.361553 -50.517407 
L 333.569949 -46.504579 
L 330.778344 -44.364623 
L 327.986739 -44.371889 
L 325.195135 -46.32795 
L 322.40353 -49.541604 
L 319.611926 -52.806894 
L 316.820321 -54.752448 
L 314.028716 -54.524724 
L 311.237112 -52.297963 
L 308.445507 -49.130796 
L 305.653903 -46.252101 
L 302.862298 -44.379661 
L 300.070694 -43.555281 
L 297.279089 -43.41237 
L 294.487484 -43.493932 
L 291.69588 -43.427439 
L 288.904275 -43.013625 
L 286.112671 -42.275373 
L 283.321066 -41.40878 
L 280.529462 -40.636558 
L 277.737857 -40.082206 
L 274.946252 -39.750687 
L 272.154648 -39.58254 
L 269.363043 -39.50991 
L 266.571439 -39.483396 
L 263.779834 -39.475262 
L 260.98823 -39.472948 
L 258.196625 -39.472068 
L 255.40502 -39.471785 
L 252.613416 -39.472195 
L 249.821811 -39.473329 
L 247.030207 -39.475078 
L 244.238602 -39.477013 
L 241.446997 -39.478388 
L 238.655393 -39.478816 
L 235.863788 -39.478384 
L 233.072184 -39.476839 
L 230.280579 -39.47376 
L 227.488975 -39.470061 
L 224.69737 -39.468363 
L 221.905765 -39.471433 
L 219.114161 -39.481087 
L 216.322556 -39.499223 
L 213.530952 -39.529606 
L 210.739347 -39.578641 
L 207.947743 -39.656799 
L 205.156138 -39.78809 
L 202.364533 -40.036238 
L 199.572929 -40.541645 
L 196.781324 -41.535354 
L 193.98972 -43.288593 
L 191.198115 -46.001902 
L 188.406511 -49.703752 
L 185.614906 -54.226133 
L 182.823301 -59.256574 
L 180.031697 -64.446427 
L 177.240092 -69.549664 
L 174.448488 -74.465884 
L 171.656883 -79.067733 
L 168.865278 -82.959315 
L 166.073674 -85.477227 
L 163.282069 -86.030041 
L 160.490465 -84.516351 
L 157.69886 -81.451002 
L 154.907256 -77.716664 
L 152.115651 -74.214712 
L 149.324046 -71.646126 
L 146.532442 -70.378103 
L 143.740837 -70.343975 
L 140.949233 -71.092563 
L 138.157628 -72.026166 
L 135.366024 -72.635811 
L 132.574419 -72.558294 
L 129.782814 -71.52955 
L 126.99121 -69.424199 
L 124.199605 -66.379854 
L 121.408001 -62.802695 
L 118.616396 -59.200953 
L 115.824791 -56.063048 
L 113.033187 -53.891637 
L 110.241582 -53.188785 
L 107.449978 -54.199335 
L 104.658373 -56.563056 
L 101.866769 -59.278813 
L 99.075164 -61.206245 
L 96.283559 -61.738649 
L 93.491955 -60.943331 
L 90.70035 -59.059412 
L 87.908746 -56.113098 
L 85.117141 -52.200382 
L 82.325537 -47.919098 
L 79.533932 -44.188262 
L 76.742327 -41.626474 
L 73.950723 -40.239398 
L 71.159118 -39.644789 
L 68.367514 -39.442139 
L 65.575909 -39.387247 
z
" id="m4427b88b64" style="stroke:#ffffff;stroke-opacity:0.25;"/>
    </defs>
    <g clip-path="url(#p0d9dc6b240)">
     <use style="fill:#1f77b4;fill-opacity:0.25;stroke:#ffffff;stroke-opacity:0.25;" x="0" xlink:href="#m4427b88b64" y="345.6"/>
    </g>
   </g>
   <g id="PolyCollection_2">
    <defs>
     <path d="M 197.591293 -40.504352 
L 197.591293 -39.3725 
L 198.342575 -39.3725 
L 199.093858 -39.3725 
L 199.84514 -39.3725 
L 200.596422 -39.3725 
L 201.347704 -39.3725 
L 202.098986 -39.3725 
L 202.850269 -39.3725 
L 203.601551 -39.3725 
L 204.352833 -39.3725 
L 205.104115 -39.3725 
L 205.855397 -39.3725 
L 206.60668 -39.3725 
L 207.357962 -39.3725 
L 208.109244 -39.3725 
L 208.860526 -39.3725 
L 209.611808 -39.3725 
L 210.363091 -39.3725 
L 211.114373 -39.3725 
L 211.865655 -39.3725 
L 212.616937 -39.3725 
L 213.368219 -39.3725 
L 214.119501 -39.3725 
L 214.870784 -39.3725 
L 215.622066 -39.3725 
L 216.373348 -39.3725 
L 217.12463 -39.3725 
L 217.875912 -39.3725 
L 218.627195 -39.3725 
L 219.378477 -39.3725 
L 220.129759 -39.3725 
L 220.881041 -39.3725 
L 221.632323 -39.3725 
L 222.383606 -39.3725 
L 223.134888 -39.3725 
L 223.88617 -39.3725 
L 224.637452 -39.3725 
L 225.388734 -39.3725 
L 226.140017 -39.3725 
L 226.891299 -39.3725 
L 227.642581 -39.3725 
L 228.393863 -39.3725 
L 229.145145 -39.3725 
L 229.896428 -39.3725 
L 230.64771 -39.3725 
L 231.398992 -39.3725 
L 232.150274 -39.3725 
L 232.901556 -39.3725 
L 233.652838 -39.3725 
L 234.404121 -39.3725 
L 235.155403 -39.3725 
L 235.906685 -39.3725 
L 236.657967 -39.3725 
L 237.409249 -39.3725 
L 238.160532 -39.3725 
L 238.911814 -39.3725 
L 239.663096 -39.3725 
L 240.414378 -39.3725 
L 241.16566 -39.3725 
L 241.916943 -39.3725 
L 242.668225 -39.3725 
L 243.419507 -39.3725 
L 244.170789 -39.3725 
L 244.922071 -39.3725 
L 245.673354 -39.3725 
L 246.424636 -39.3725 
L 247.175918 -39.3725 
L 247.9272 -39.3725 
L 248.678482 -39.3725 
L 249.429764 -39.3725 
L 250.181047 -39.3725 
L 250.932329 -39.3725 
L 251.683611 -39.3725 
L 252.434893 -39.3725 
L 253.186175 -39.3725 
L 253.937458 -39.3725 
L 254.68874 -39.3725 
L 255.440022 -39.3725 
L 256.191304 -39.3725 
L 256.942586 -39.3725 
L 257.693869 -39.3725 
L 258.445151 -39.3725 
L 259.196433 -39.3725 
L 259.947715 -39.3725 
L 260.698997 -39.3725 
L 261.45028 -39.3725 
L 262.201562 -39.3725 
L 262.952844 -39.3725 
L 263.704126 -39.3725 
L 264.455408 -39.3725 
L 265.206691 -39.3725 
L 265.957973 -39.3725 
L 266.709255 -39.3725 
L 267.460537 -39.3725 
L 268.211819 -39.3725 
L 268.963101 -39.3725 
L 269.714384 -39.3725 
L 270.465666 -39.3725 
L 271.216948 -39.3725 
L 271.96823 -39.3725 
L 272.719512 -39.3725 
L 273.470795 -39.3725 
L 274.222077 -39.3725 
L 274.973359 -39.3725 
L 275.724641 -39.3725 
L 276.475923 -39.3725 
L 277.227206 -39.3725 
L 277.978488 -39.3725 
L 278.72977 -39.3725 
L 279.481052 -39.3725 
L 280.232334 -39.3725 
L 280.983617 -39.3725 
L 281.734899 -39.3725 
L 282.486181 -39.3725 
L 283.237463 -39.3725 
L 283.988745 -39.3725 
L 284.740027 -39.3725 
L 285.49131 -39.3725 
L 286.242592 -39.3725 
L 286.993874 -39.3725 
L 287.745156 -39.3725 
L 288.496438 -39.3725 
L 289.247721 -39.3725 
L 289.999003 -39.3725 
L 290.750285 -39.3725 
L 291.501567 -39.3725 
L 292.252849 -39.3725 
L 293.004132 -39.3725 
L 293.004132 -40.108789 
L 293.004132 -40.108789 
L 292.252849 -39.843793 
L 291.501567 -39.669448 
L 290.750285 -39.556833 
L 289.999003 -39.485469 
L 289.247721 -39.441176 
L 288.496438 -39.414353 
L 287.745156 -39.39864 
L 286.993874 -39.389918 
L 286.242592 -39.385579 
L 285.49131 -39.384014 
L 284.740027 -39.384254 
L 283.988745 -39.385734 
L 283.237463 -39.388137 
L 282.486181 -39.391292 
L 281.734899 -39.395115 
L 280.983617 -39.39957 
L 280.232334 -39.40465 
L 279.481052 -39.410367 
L 278.72977 -39.416745 
L 277.978488 -39.423825 
L 277.227206 -39.431667 
L 276.475923 -39.440348 
L 275.724641 -39.44997 
L 274.973359 -39.460657 
L 274.222077 -39.472554 
L 273.470795 -39.485821 
L 272.719512 -39.50063 
L 271.96823 -39.51715 
L 271.216948 -39.535542 
L 270.465666 -39.555947 
L 269.714384 -39.578479 
L 268.963101 -39.603216 
L 268.211819 -39.630206 
L 267.460537 -39.659463 
L 266.709255 -39.690979 
L 265.957973 -39.724734 
L 265.206691 -39.760709 
L 264.455408 -39.798902 
L 263.704126 -39.839344 
L 262.952844 -39.882106 
L 262.201562 -39.927309 
L 261.45028 -39.975128 
L 260.698997 -40.02579 
L 259.947715 -40.079567 
L 259.196433 -40.136776 
L 258.445151 -40.197771 
L 257.693869 -40.262939 
L 256.942586 -40.33271 
L 256.191304 -40.407567 
L 255.440022 -40.488059 
L 254.68874 -40.574838 
L 253.937458 -40.668688 
L 253.186175 -40.770565 
L 252.434893 -40.881648 
L 251.683611 -41.003384 
L 250.932329 -41.137549 
L 250.181047 -41.286303 
L 249.429764 -41.452257 
L 248.678482 -41.638555 
L 247.9272 -41.848959 
L 247.175918 -42.087958 
L 246.424636 -42.360904 
L 245.673354 -42.674168 
L 244.922071 -43.035336 
L 244.170789 -43.453449 
L 243.419507 -43.939293 
L 242.668225 -44.505752 
L 241.916943 -45.168233 
L 241.16566 -45.945183 
L 240.414378 -46.858694 
L 239.663096 -47.93522 
L 238.911814 -49.206402 
L 238.160532 -50.709984 
L 237.409249 -52.490823 
L 236.657967 -54.601927 
L 235.906685 -57.105468 
L 235.155403 -60.073658 
L 234.404121 -63.589338 
L 233.652838 -67.746086 
L 232.901556 -72.647568 
L 232.150274 -78.405841 
L 231.398992 -85.138262 
L 230.64771 -92.962658 
L 229.896428 -101.990475 
L 229.145145 -112.317758 
L 228.393863 -124.014001 
L 227.642581 -137.109229 
L 226.891299 -151.580012 
L 226.140017 -167.335531 
L 225.388734 -184.205157 
L 224.637452 -201.929314 
L 223.88617 -220.15545 
L 223.134888 -238.440852 
L 222.383606 -256.263553 
L 221.632323 -273.04193 
L 220.881041 -288.162606 
L 220.129759 -301.015221 
L 219.378477 -311.031588 
L 218.627195 -317.725888 
L 217.875912 -320.732024 
L 217.12463 -319.834236 
L 216.373348 -314.987508 
L 215.622066 -306.325278 
L 214.870784 -294.153296 
L 214.119501 -278.929981 
L 213.368219 -261.235174 
L 212.616937 -241.730406 
L 211.865655 -221.114683 
L 211.114373 -200.080095 
L 210.363091 -179.271309 
L 209.611808 -159.252317 
L 208.860526 -140.4827 
L 208.109244 -123.304481 
L 207.357962 -107.93934 
L 206.60668 -94.494994 
L 205.855397 -82.978722 
L 205.104115 -73.315667 
L 204.352833 -65.36944 
L 203.601551 -58.96283 
L 202.850269 -53.896838 
L 202.098986 -49.96682 
L 201.347704 -46.975071 
L 200.596422 -44.73971 
L 199.84514 -43.100097 
L 199.093858 -41.919305 
L 198.342575 -41.084276 
L 197.591293 -40.504352 
z
" id="m7ee19e121e" style="stroke:#ffffff;stroke-opacity:0.25;"/>
    </defs>
    <g clip-path="url(#p0d9dc6b240)">
     <use style="fill:#ff7f0e;fill-opacity:0.25;stroke:#ffffff;stroke-opacity:0.25;" x="0" xlink:href="#m7ee19e121e" y="345.6"/>
    </g>
   </g>
   <g id="PolyCollection_3">
    <defs>
     <path d="M 98.612312 -39.372851 
L 98.612312 -39.3725 
L 101.235003 -39.3725 
L 103.857694 -39.3725 
L 106.480385 -39.3725 
L 109.103077 -39.3725 
L 111.725768 -39.3725 
L 114.348459 -39.3725 
L 116.97115 -39.3725 
L 119.593841 -39.3725 
L 122.216532 -39.3725 
L 124.839224 -39.3725 
L 127.461915 -39.3725 
L 130.084606 -39.3725 
L 132.707297 -39.3725 
L 135.329988 -39.3725 
L 137.95268 -39.3725 
L 140.575371 -39.3725 
L 143.198062 -39.3725 
L 145.820753 -39.3725 
L 148.443444 -39.3725 
L 151.066135 -39.3725 
L 153.688827 -39.3725 
L 156.311518 -39.3725 
L 158.934209 -39.3725 
L 161.5569 -39.3725 
L 164.179591 -39.3725 
L 166.802282 -39.3725 
L 169.424974 -39.3725 
L 172.047665 -39.3725 
L 174.670356 -39.3725 
L 177.293047 -39.3725 
L 179.915738 -39.3725 
L 182.538429 -39.3725 
L 185.161121 -39.3725 
L 187.783812 -39.3725 
L 190.406503 -39.3725 
L 193.029194 -39.3725 
L 195.651885 -39.3725 
L 198.274577 -39.3725 
L 200.897268 -39.3725 
L 203.519959 -39.3725 
L 206.14265 -39.3725 
L 208.765341 -39.3725 
L 211.388032 -39.3725 
L 214.010724 -39.3725 
L 216.633415 -39.3725 
L 219.256106 -39.3725 
L 221.878797 -39.3725 
L 224.501488 -39.3725 
L 227.124179 -39.3725 
L 229.746871 -39.3725 
L 232.369562 -39.3725 
L 234.992253 -39.3725 
L 237.614944 -39.3725 
L 240.237635 -39.3725 
L 242.860326 -39.3725 
L 245.483018 -39.3725 
L 248.105709 -39.3725 
L 250.7284 -39.3725 
L 253.351091 -39.3725 
L 255.973782 -39.3725 
L 258.596473 -39.3725 
L 261.219165 -39.3725 
L 263.841856 -39.3725 
L 266.464547 -39.3725 
L 269.087238 -39.3725 
L 271.709929 -39.3725 
L 274.332621 -39.3725 
L 276.955312 -39.3725 
L 279.578003 -39.3725 
L 282.200694 -39.3725 
L 284.823385 -39.3725 
L 287.446076 -39.3725 
L 290.068768 -39.3725 
L 292.691459 -39.3725 
L 295.31415 -39.3725 
L 297.936841 -39.3725 
L 300.559532 -39.3725 
L 303.182223 -39.3725 
L 305.804915 -39.3725 
L 308.427606 -39.3725 
L 311.050297 -39.3725 
L 313.672988 -39.3725 
L 316.295679 -39.3725 
L 318.91837 -39.3725 
L 321.541062 -39.3725 
L 324.163753 -39.3725 
L 326.786444 -39.3725 
L 329.409135 -39.3725 
L 332.031826 -39.3725 
L 334.654518 -39.3725 
L 337.277209 -39.3725 
L 339.8999 -39.3725 
L 342.522591 -39.3725 
L 345.145282 -39.3725 
L 347.767973 -39.3725 
L 350.390665 -39.3725 
L 353.013356 -39.3725 
L 355.636047 -39.3725 
L 358.258738 -39.3725 
L 360.881429 -39.3725 
L 363.50412 -39.3725 
L 366.126812 -39.3725 
L 368.749503 -39.3725 
L 371.372194 -39.3725 
L 373.994885 -39.3725 
L 376.617576 -39.3725 
L 379.240267 -39.3725 
L 381.862959 -39.3725 
L 384.48565 -39.3725 
L 387.108341 -39.3725 
L 389.731032 -39.3725 
L 392.353723 -39.3725 
L 394.976414 -39.3725 
L 397.599106 -39.3725 
L 400.221797 -39.3725 
L 402.844488 -39.3725 
L 405.467179 -39.3725 
L 408.08987 -39.3725 
L 410.712562 -39.3725 
L 413.335253 -39.3725 
L 415.957944 -39.3725 
L 418.580635 -39.3725 
L 421.203326 -39.3725 
L 423.826017 -39.3725 
L 426.448709 -39.3725 
L 429.0714 -39.3725 
L 431.694091 -39.3725 
L 431.694091 -39.372798 
L 431.694091 -39.372798 
L 429.0714 -39.373287 
L 426.448709 -39.374649 
L 423.826017 -39.377409 
L 421.203326 -39.381822 
L 418.580635 -39.387448 
L 415.957944 -39.393512 
L 413.335253 -39.400196 
L 410.712562 -39.409501 
L 408.08987 -39.423903 
L 405.467179 -39.443374 
L 402.844488 -39.464076 
L 400.221797 -39.48089 
L 397.599106 -39.491841 
L 394.976414 -39.500126 
L 392.353723 -39.511627 
L 389.731032 -39.530095 
L 387.108341 -39.554558 
L 384.48565 -39.581551 
L 381.862959 -39.609663 
L 379.240267 -39.641381 
L 376.617576 -39.68048 
L 373.994885 -39.72831 
L 371.372194 -39.783022 
L 368.749503 -39.841845 
L 366.126812 -39.903615 
L 363.50412 -39.970383 
L 360.881429 -40.049026 
L 358.258738 -40.151839 
L 355.636047 -40.293503 
L 353.013356 -40.48539 
L 350.390665 -40.731755 
L 347.767973 -41.029297 
L 345.145282 -41.366739 
L 342.522591 -41.725181 
L 339.8999 -42.088123 
L 337.277209 -42.462096 
L 334.654518 -42.88816 
L 332.031826 -43.424971 
L 329.409135 -44.114433 
L 326.786444 -44.960479 
L 324.163753 -45.934171 
L 321.541062 -46.99228 
L 318.91837 -48.095037 
L 316.295679 -49.219145 
L 313.672988 -50.360728 
L 311.050297 -51.520472 
L 308.427606 -52.67814 
L 305.804915 -53.78004 
L 303.182223 -54.755448 
L 300.559532 -55.551566 
L 297.936841 -56.159103 
L 295.31415 -56.608419 
L 292.691459 -56.939393 
L 290.068768 -57.164917 
L 287.446076 -57.252039 
L 284.823385 -57.139618 
L 282.200694 -56.787621 
L 279.578003 -56.220011 
L 276.955312 -55.52643 
L 274.332621 -54.830189 
L 271.709929 -54.249058 
L 269.087238 -53.85811 
L 266.464547 -53.66372 
L 263.841856 -53.614998 
L 261.219165 -53.660191 
L 258.596473 -53.80598 
L 255.973782 -54.123125 
L 253.351091 -54.692356 
L 250.7284 -55.546402 
L 248.105709 -56.664125 
L 245.483018 -58.006687 
L 242.860326 -59.530441 
L 240.237635 -61.143574 
L 237.614944 -62.667323 
L 234.992253 -63.888151 
L 232.369562 -64.683821 
L 229.746871 -65.104236 
L 227.124179 -65.327707 
L 224.501488 -65.541442 
L 221.878797 -65.862391 
L 219.256106 -66.361302 
L 216.633415 -67.13823 
L 214.010724 -68.344029 
L 211.388032 -70.11587 
L 208.765341 -72.499043 
L 206.14265 -75.42406 
L 203.519959 -78.728816 
L 200.897268 -82.191786 
L 198.274577 -85.574107 
L 195.651885 -88.66292 
L 193.029194 -91.285951 
L 190.406503 -93.300776 
L 187.783812 -94.595477 
L 185.161121 -95.098966 
L 182.538429 -94.769039 
L 179.915738 -93.572545 
L 177.293047 -91.501919 
L 174.670356 -88.61876 
L 172.047665 -85.066342 
L 169.424974 -81.024477 
L 166.802282 -76.648283 
L 164.179591 -72.057245 
L 161.5569 -67.38496 
L 158.934209 -62.817861 
L 156.311518 -58.558646 
L 153.688827 -54.752035 
L 151.066135 -51.460444 
L 148.443444 -48.70156 
L 145.820753 -46.477627 
L 143.198062 -44.756378 
L 140.575371 -43.447643 
L 137.95268 -42.428727 
L 135.329988 -41.601957 
L 132.707297 -40.926057 
L 130.084606 -40.398388 
L 127.461915 -40.018062 
L 124.839224 -39.766444 
L 122.216532 -39.611338 
L 119.593841 -39.519393 
L 116.97115 -39.464327 
L 114.348459 -39.429306 
L 111.725768 -39.40572 
L 109.103077 -39.39005 
L 106.480385 -39.380598 
L 103.857694 -39.375695 
L 101.235003 -39.373573 
L 98.612312 -39.372851 
z
" id="m8e608d656c" style="stroke:#ffffff;stroke-opacity:0.25;"/>
    </defs>
    <g clip-path="url(#p0d9dc6b240)">
     <use style="fill:#2ca02c;fill-opacity:0.25;stroke:#ffffff;stroke-opacity:0.25;" x="0" xlink:href="#m8e608d656c" y="345.6"/>
    </g>
   </g>
   <g id="line2d_15">
    <path clip-path="url(#p0d9dc6b240)" d="M 65.575909 306.212753 
L 68.367514 306.157861 
L 71.159118 305.955211 
L 73.950723 305.360602 
L 76.742327 303.973526 
L 79.533932 301.411738 
L 82.325537 297.680902 
L 85.117141 293.399618 
L 87.908746 289.486902 
L 90.70035 286.540588 
L 93.491955 284.656669 
L 96.283559 283.861351 
L 99.075164 284.393755 
L 101.866769 286.321187 
L 104.658373 289.036944 
L 107.449978 291.400665 
L 110.241582 292.411215 
L 113.033187 291.708363 
L 115.824791 289.536952 
L 118.616396 286.399047 
L 124.199605 279.220146 
L 126.99121 276.175801 
L 129.782814 274.07045 
L 132.574419 273.041706 
L 135.366024 272.964189 
L 138.157628 273.573834 
L 140.949233 274.507437 
L 143.740837 275.256025 
L 146.532442 275.221897 
L 149.324046 273.953874 
L 152.115651 271.385288 
L 154.907256 267.883336 
L 157.69886 264.148998 
L 160.490465 261.083649 
L 163.282069 259.569959 
L 166.073674 260.122773 
L 168.865278 262.640685 
L 171.656883 266.532267 
L 174.448488 271.134116 
L 180.031697 281.153573 
L 185.614906 291.373867 
L 188.406511 295.896248 
L 191.198115 299.598098 
L 193.98972 302.311407 
L 196.781324 304.064646 
L 199.572929 305.058355 
L 202.364533 305.563762 
L 205.156138 305.81191 
L 210.739347 306.021359 
L 221.905765 306.128567 
L 269.363043 306.09009 
L 274.946252 305.849313 
L 277.737857 305.517794 
L 280.529462 304.963442 
L 288.904275 302.586375 
L 291.69588 302.172561 
L 294.487484 302.106068 
L 297.279089 302.18763 
L 300.070694 302.044719 
L 302.862298 301.220339 
L 305.653903 299.347899 
L 308.445507 296.469204 
L 311.237112 293.302037 
L 314.028716 291.075276 
L 316.820321 290.847552 
L 319.611926 292.793106 
L 325.195135 299.27205 
L 327.986739 301.228111 
L 330.778344 301.235377 
L 333.569949 299.095421 
L 336.361553 295.082593 
L 339.153158 290.124776 
L 341.944762 285.79344 
L 344.736367 283.594981 
L 347.527971 283.889651 
L 350.319576 285.548806 
L 353.111181 286.872201 
L 355.902785 286.880969 
L 358.69439 285.728071 
L 364.277599 282.259584 
L 367.069203 280.426806 
L 369.860808 278.853594 
L 372.652413 278.206697 
L 375.444017 279.013355 
L 378.235622 281.045677 
L 381.027226 283.410843 
L 383.818831 285.362657 
L 386.610436 287.002985 
L 389.40204 289.110297 
L 392.193645 292.260495 
L 397.776854 299.97904 
L 400.568458 302.876947 
L 403.360063 304.662661 
L 406.151668 305.578421 
L 408.943272 305.983578 
L 414.526481 306.201685 
L 420.10969 306.223476 
L 420.10969 306.223476 
" style="fill:none;stroke:#1f77b4;stroke-linecap:round;stroke-width:1.5;"/>
   </g>
   <g id="line2d_16">
    <path clip-path="url(#p0d9dc6b240)" d="M 197.591293 305.095648 
L 198.342575 304.515724 
L 199.093858 303.680695 
L 199.84514 302.499903 
L 200.596422 300.86029 
L 201.347704 298.624929 
L 202.098986 295.63318 
L 202.850269 291.703162 
L 203.601551 286.63717 
L 204.352833 280.23056 
L 205.104115 272.284333 
L 205.855397 262.621278 
L 206.60668 251.105006 
L 208.109244 222.295519 
L 209.611808 186.347683 
L 214.119501 66.670019 
L 214.870784 51.446704 
L 215.622066 39.274722 
L 216.373348 30.612492 
L 217.12463 25.765764 
L 217.875912 24.867976 
L 218.627195 27.874112 
L 219.378477 34.568412 
L 220.129759 44.584779 
L 220.881041 57.437394 
L 222.383606 89.336447 
L 226.891299 194.019988 
L 228.393863 221.585999 
L 229.896428 243.609525 
L 231.398992 260.461738 
L 232.901556 272.952432 
L 233.652838 277.853914 
L 234.404121 282.010662 
L 235.155403 285.526342 
L 235.906685 288.494532 
L 236.657967 290.998073 
L 238.160532 294.890016 
L 239.663096 297.66478 
L 241.16566 299.654817 
L 242.668225 301.094248 
L 244.170789 302.146551 
L 245.673354 302.925832 
L 247.9272 303.751041 
L 250.181047 304.313697 
L 253.186175 304.829435 
L 257.693869 305.337061 
L 263.704126 305.760656 
L 271.216948 306.064458 
L 280.983617 306.20043 
L 289.247721 306.158824 
L 291.501567 305.930552 
L 293.004132 305.491211 
L 293.004132 305.491211 
" style="fill:none;stroke:#ff7f0e;stroke-linecap:round;stroke-width:1.5;"/>
   </g>
   <g id="line2d_17">
    <path clip-path="url(#p0d9dc6b240)" d="M 98.612312 306.227149 
L 116.97115 306.135673 
L 122.216532 305.988662 
L 127.461915 305.581938 
L 130.084606 305.201612 
L 132.707297 304.673943 
L 135.329988 303.998043 
L 137.95268 303.171273 
L 140.575371 302.152357 
L 143.198062 300.843622 
L 145.820753 299.122373 
L 148.443444 296.89844 
L 151.066135 294.139556 
L 153.688827 290.847965 
L 156.311518 287.041354 
L 158.934209 282.782139 
L 169.424974 264.575523 
L 172.047665 260.533658 
L 174.670356 256.98124 
L 177.293047 254.098081 
L 179.915738 252.027455 
L 182.538429 250.830961 
L 185.161121 250.501034 
L 187.783812 251.004523 
L 190.406503 252.299224 
L 193.029194 254.314049 
L 195.651885 256.93708 
L 198.274577 260.025893 
L 206.14265 270.17594 
L 208.765341 273.100957 
L 211.388032 275.48413 
L 214.010724 277.255971 
L 216.633415 278.46177 
L 219.256106 279.238698 
L 221.878797 279.737609 
L 227.124179 280.272293 
L 229.746871 280.495764 
L 232.369562 280.916179 
L 234.992253 281.711849 
L 237.614944 282.932677 
L 248.105709 288.935875 
L 250.7284 290.053598 
L 253.351091 290.907644 
L 255.973782 291.476875 
L 258.596473 291.79402 
L 263.841856 291.985002 
L 266.464547 291.93628 
L 269.087238 291.74189 
L 271.709929 291.350942 
L 274.332621 290.769811 
L 279.578003 289.379989 
L 282.200694 288.812379 
L 284.823385 288.460382 
L 287.446076 288.347961 
L 290.068768 288.435083 
L 295.31415 288.991581 
L 297.936841 289.440897 
L 300.559532 290.048434 
L 303.182223 290.844552 
L 305.804915 291.81996 
L 313.672988 295.239272 
L 321.541062 298.60772 
L 326.786444 300.639521 
L 329.409135 301.485567 
L 332.031826 302.175029 
L 337.277209 303.137904 
L 347.767973 304.570703 
L 353.013356 305.11461 
L 358.258738 305.448161 
L 368.749503 305.758155 
L 384.48565 306.018449 
L 410.712562 306.190499 
L 431.694091 306.227202 
L 431.694091 306.227202 
" style="fill:none;stroke:#2ca02c;stroke-linecap:round;stroke-width:1.5;"/>
   </g>
   <g id="patch_3">
    <path d="M 47.27 306.2275 
L 47.27 10.8 
" style="fill:none;stroke:#cccccc;stroke-linecap:square;stroke-linejoin:miter;stroke-width:0.8;"/>
   </g>
   <g id="patch_4">
    <path d="M 450 306.2275 
L 450 10.8 
" style="fill:none;stroke:#cccccc;stroke-linecap:square;stroke-linejoin:miter;stroke-width:0.8;"/>
   </g>
   <g id="patch_5">
    <path d="M 47.27 306.2275 
L 450 306.2275 
" style="fill:none;stroke:#cccccc;stroke-linecap:square;stroke-linejoin:miter;stroke-width:0.8;"/>
   </g>
   <g id="patch_6">
    <path d="M 47.27 10.8 
L 450 10.8 
" style="fill:none;stroke:#cccccc;stroke-linecap:square;stroke-linejoin:miter;stroke-width:0.8;"/>
   </g>
   <g id="legend_1">
    <g id="patch_7">
     <path d="M 258.103125 47.090625 
L 443 47.090625 
Q 445 47.090625 445 45.090625 
L 445 17.8 
Q 445 15.8 443 15.8 
L 258.103125 15.8 
Q 256.103125 15.8 256.103125 17.8 
L 256.103125 45.090625 
Q 256.103125 47.090625 258.103125 47.090625 
z
" style="fill:#ffffff;opacity:0.8;stroke:#cccccc;stroke-linejoin:miter;"/>
    </g>
    <g id="patch_8">
     <path d="M 260.103125 26.957813 
L 280.103125 26.957813 
L 280.103125 19.957813 
L 260.103125 19.957813 
z
" style="fill:#1f77b4;opacity:0.25;stroke:#ffffff;stroke-linejoin:miter;"/>
    </g>
    <g id="text_17">
     <!-- x -->
     <defs>
      <path d="M 0.734375 0 
L 19.671875 26.953125 
L 2.15625 51.859375 
L 13.140625 51.859375 
L 21.09375 39.703125 
Q 23.34375 36.234375 24.703125 33.890625 
Q 26.859375 37.109375 28.65625 39.59375 
L 37.40625 51.859375 
L 47.90625 51.859375 
L 29.984375 27.4375 
L 49.265625 0 
L 38.484375 0 
L 27.828125 16.109375 
L 25 20.453125 
L 11.375 0 
z
" id="ArialMT-120"/>
     </defs>
     <g style="fill:#262626;" transform="translate(288.103125 26.957813)scale(0.1 -0.1)">
      <use xlink:href="#ArialMT-120"/>
     </g>
    </g>
    <g id="patch_9">
     <path d="M 260.103125 41.103125 
L 280.103125 41.103125 
L 280.103125 34.103125 
L 260.103125 34.103125 
z
" style="fill:#ff7f0e;opacity:0.25;stroke:#ffffff;stroke-linejoin:miter;"/>
    </g>
    <g id="text_18">
     <!-- x'-MLP-VAE -->
     <defs>
      <path d="M 6.640625 46.234375 
L 4.390625 59.625 
L 4.390625 71.578125 
L 14.40625 71.578125 
L 14.40625 59.625 
L 12.0625 46.234375 
z
" id="ArialMT-39"/>
      <path d="M 3.171875 21.484375 
L 3.171875 30.328125 
L 30.171875 30.328125 
L 30.171875 21.484375 
z
" id="ArialMT-45"/>
      <path d="M 7.421875 0 
L 7.421875 71.578125 
L 21.6875 71.578125 
L 38.625 20.90625 
Q 40.96875 13.8125 42.046875 10.296875 
Q 43.265625 14.203125 45.84375 21.78125 
L 62.984375 71.578125 
L 75.734375 71.578125 
L 75.734375 0 
L 66.609375 0 
L 66.609375 59.90625 
L 45.796875 0 
L 37.25 0 
L 16.546875 60.9375 
L 16.546875 0 
z
" id="ArialMT-77"/>
      <path d="M 7.328125 0 
L 7.328125 71.578125 
L 16.796875 71.578125 
L 16.796875 8.453125 
L 52.046875 8.453125 
L 52.046875 0 
z
" id="ArialMT-76"/>
      <path d="M 7.71875 0 
L 7.71875 71.578125 
L 34.71875 71.578125 
Q 41.84375 71.578125 45.609375 70.90625 
Q 50.875 70.015625 54.4375 67.546875 
Q 58.015625 65.09375 60.1875 60.640625 
Q 62.359375 56.203125 62.359375 50.875 
Q 62.359375 41.75 56.546875 35.421875 
Q 50.734375 29.109375 35.546875 29.109375 
L 17.1875 29.109375 
L 17.1875 0 
z
M 17.1875 37.546875 
L 35.6875 37.546875 
Q 44.875 37.546875 48.734375 40.96875 
Q 52.59375 44.390625 52.59375 50.59375 
Q 52.59375 55.078125 50.3125 58.265625 
Q 48.046875 61.46875 44.34375 62.5 
Q 41.9375 63.140625 35.5 63.140625 
L 17.1875 63.140625 
z
" id="ArialMT-80"/>
      <path d="M 28.171875 0 
L 0.4375 71.578125 
L 10.6875 71.578125 
L 29.296875 19.578125 
Q 31.546875 13.328125 33.0625 7.859375 
Q 34.71875 13.71875 36.921875 19.578125 
L 56.25 71.578125 
L 65.921875 71.578125 
L 37.890625 0 
z
" id="ArialMT-86"/>
      <path d="M -0.140625 0 
L 27.34375 71.578125 
L 37.546875 71.578125 
L 66.84375 0 
L 56.0625 0 
L 47.703125 21.6875 
L 17.78125 21.6875 
L 9.90625 0 
z
M 20.515625 29.390625 
L 44.78125 29.390625 
L 37.3125 49.21875 
Q 33.890625 58.25 32.234375 64.0625 
Q 30.859375 57.171875 28.375 50.390625 
z
" id="ArialMT-65"/>
      <path d="M 7.90625 0 
L 7.90625 71.578125 
L 59.671875 71.578125 
L 59.671875 63.140625 
L 17.390625 63.140625 
L 17.390625 41.21875 
L 56.984375 41.21875 
L 56.984375 32.8125 
L 17.390625 32.8125 
L 17.390625 8.453125 
L 61.328125 8.453125 
L 61.328125 0 
z
" id="ArialMT-69"/>
     </defs>
     <g style="fill:#262626;" transform="translate(288.103125 41.103125)scale(0.1 -0.1)">
      <use xlink:href="#ArialMT-120"/>
      <use x="50" xlink:href="#ArialMT-39"/>
      <use x="69.091797" xlink:href="#ArialMT-45"/>
      <use x="102.392578" xlink:href="#ArialMT-77"/>
      <use x="185.693359" xlink:href="#ArialMT-76"/>
      <use x="241.308594" xlink:href="#ArialMT-80"/>
      <use x="308.007812" xlink:href="#ArialMT-45"/>
      <use x="341.308594" xlink:href="#ArialMT-86"/>
      <use x="400.632812" xlink:href="#ArialMT-65"/>
      <use x="467.332031" xlink:href="#ArialMT-69"/>
     </g>
    </g>
    <g id="patch_10">
     <path d="M 361.50625 26.957813 
L 381.50625 26.957813 
L 381.50625 19.957813 
L 361.50625 19.957813 
z
" style="fill:#2ca02c;opacity:0.25;stroke:#ffffff;stroke-linejoin:miter;"/>
    </g>
    <g id="text_19">
     <!-- z-MLP-VAE -->
     <defs>
      <path d="M 1.953125 0 
L 1.953125 7.125 
L 34.96875 45.015625 
Q 29.34375 44.734375 25.046875 44.734375 
L 3.90625 44.734375 
L 3.90625 51.859375 
L 46.296875 51.859375 
L 46.296875 46.046875 
L 18.21875 13.140625 
L 12.796875 7.125 
Q 18.703125 7.5625 23.875 7.5625 
L 47.859375 7.5625 
L 47.859375 0 
z
" id="ArialMT-122"/>
     </defs>
     <g style="fill:#262626;" transform="translate(389.50625 26.957813)scale(0.1 -0.1)">
      <use xlink:href="#ArialMT-122"/>
      <use x="50" xlink:href="#ArialMT-45"/>
      <use x="83.300781" xlink:href="#ArialMT-77"/>
      <use x="166.601562" xlink:href="#ArialMT-76"/>
      <use x="222.216797" xlink:href="#ArialMT-80"/>
      <use x="288.916016" xlink:href="#ArialMT-45"/>
      <use x="322.216797" xlink:href="#ArialMT-86"/>
      <use x="381.541016" xlink:href="#ArialMT-65"/>
      <use x="448.240234" xlink:href="#ArialMT-69"/>
     </g>
    </g>
   </g>
  </g>
 </g>
 <defs>
  <clipPath id="p0d9dc6b240">
   <rect height="295.4275" width="402.73" x="47.27" y="10.8"/>
  </clipPath>
 </defs>
</svg>
